ARM GAS  C:\Users\diego\AppData\Local\Temp\cc1fiauA.s 			page 1


   1              		.syntax unified
   2              		.cpu cortex-m0
   3              		.fpu softvfp
   4              		.eabi_attribute 20, 1
   5              		.eabi_attribute 21, 1
   6              		.eabi_attribute 23, 3
   7              		.eabi_attribute 24, 1
   8              		.eabi_attribute 25, 1
   9              		.eabi_attribute 26, 1
  10              		.eabi_attribute 30, 6
  11              		.eabi_attribute 34, 0
  12              		.eabi_attribute 18, 4
  13              		.thumb
  14              		.syntax unified
  15              		.file	"ADC_PM.c"
  16              		.text
  17              	.Ltext0:
  18              		.cfi_sections	.debug_frame
  19              		.bss
  20              		.align	2
  21              	ADC_backup:
  22 0000 00000000 		.space	8
  22      00000000 
  23              		.section	.text.ADC_SaveConfig,"ax",%progbits
  24              		.align	2
  25              		.global	ADC_SaveConfig
  26              		.code	16
  27              		.thumb_func
  28              		.type	ADC_SaveConfig, %function
  29              	ADC_SaveConfig:
  30              	.LFB2:
  31              		.file 1 "Generated_Source\\PSoC4\\ADC_PM.c"
   1:Generated_Source\PSoC4/ADC_PM.c **** /*******************************************************************************
   2:Generated_Source\PSoC4/ADC_PM.c **** * File Name: ADC_PM.c
   3:Generated_Source\PSoC4/ADC_PM.c **** * Version 2.50
   4:Generated_Source\PSoC4/ADC_PM.c **** *
   5:Generated_Source\PSoC4/ADC_PM.c **** * Description:
   6:Generated_Source\PSoC4/ADC_PM.c **** *  This file provides Sleep/WakeUp APIs functionality.
   7:Generated_Source\PSoC4/ADC_PM.c **** *
   8:Generated_Source\PSoC4/ADC_PM.c **** * Note:
   9:Generated_Source\PSoC4/ADC_PM.c **** *
  10:Generated_Source\PSoC4/ADC_PM.c **** ********************************************************************************
  11:Generated_Source\PSoC4/ADC_PM.c **** * Copyright 2008-2017, Cypress Semiconductor Corporation.  All rights reserved.
  12:Generated_Source\PSoC4/ADC_PM.c **** * You may use this file only in accordance with the license, terms, conditions,
  13:Generated_Source\PSoC4/ADC_PM.c **** * disclaimers, and limitations in the end user license agreement accompanying
  14:Generated_Source\PSoC4/ADC_PM.c **** * the software package with which this file was provided.
  15:Generated_Source\PSoC4/ADC_PM.c **** *******************************************************************************/
  16:Generated_Source\PSoC4/ADC_PM.c **** 
  17:Generated_Source\PSoC4/ADC_PM.c **** #include "ADC.h"
  18:Generated_Source\PSoC4/ADC_PM.c **** 
  19:Generated_Source\PSoC4/ADC_PM.c **** 
  20:Generated_Source\PSoC4/ADC_PM.c **** /***************************************
  21:Generated_Source\PSoC4/ADC_PM.c **** * Local data allocation
  22:Generated_Source\PSoC4/ADC_PM.c **** ***************************************/
  23:Generated_Source\PSoC4/ADC_PM.c **** 
  24:Generated_Source\PSoC4/ADC_PM.c **** static ADC_BACKUP_STRUCT  ADC_backup =
  25:Generated_Source\PSoC4/ADC_PM.c **** {
ARM GAS  C:\Users\diego\AppData\Local\Temp\cc1fiauA.s 			page 2


  26:Generated_Source\PSoC4/ADC_PM.c ****     ADC_DISABLED,
  27:Generated_Source\PSoC4/ADC_PM.c ****     0u    
  28:Generated_Source\PSoC4/ADC_PM.c **** };
  29:Generated_Source\PSoC4/ADC_PM.c **** 
  30:Generated_Source\PSoC4/ADC_PM.c **** 
  31:Generated_Source\PSoC4/ADC_PM.c **** /*******************************************************************************
  32:Generated_Source\PSoC4/ADC_PM.c **** * Function Name: ADC_SaveConfig
  33:Generated_Source\PSoC4/ADC_PM.c **** ********************************************************************************
  34:Generated_Source\PSoC4/ADC_PM.c **** *
  35:Generated_Source\PSoC4/ADC_PM.c **** * Summary:
  36:Generated_Source\PSoC4/ADC_PM.c **** *  Saves the current user configuration.
  37:Generated_Source\PSoC4/ADC_PM.c **** *
  38:Generated_Source\PSoC4/ADC_PM.c **** * Parameters:
  39:Generated_Source\PSoC4/ADC_PM.c **** *  None.
  40:Generated_Source\PSoC4/ADC_PM.c **** *
  41:Generated_Source\PSoC4/ADC_PM.c **** * Return:
  42:Generated_Source\PSoC4/ADC_PM.c **** *  None.
  43:Generated_Source\PSoC4/ADC_PM.c **** *
  44:Generated_Source\PSoC4/ADC_PM.c **** *******************************************************************************/
  45:Generated_Source\PSoC4/ADC_PM.c **** void ADC_SaveConfig(void)
  46:Generated_Source\PSoC4/ADC_PM.c **** {
  32              		.loc 1 46 0
  33              		.cfi_startproc
  34              		@ args = 0, pretend = 0, frame = 0
  35              		@ frame_needed = 1, uses_anonymous_args = 0
  36 0000 80B5     		push	{r7, lr}
  37              		.cfi_def_cfa_offset 8
  38              		.cfi_offset 7, -8
  39              		.cfi_offset 14, -4
  40 0002 00AF     		add	r7, sp, #0
  41              		.cfi_def_cfa_register 7
  47:Generated_Source\PSoC4/ADC_PM.c ****     /* All configuration registers are marked as [reset_all_retention] */
  48:Generated_Source\PSoC4/ADC_PM.c **** }
  42              		.loc 1 48 0
  43 0004 C046     		nop
  44 0006 BD46     		mov	sp, r7
  45              		@ sp needed
  46 0008 80BD     		pop	{r7, pc}
  47              		.cfi_endproc
  48              	.LFE2:
  49              		.size	ADC_SaveConfig, .-ADC_SaveConfig
  50 000a C046     		.section	.text.ADC_RestoreConfig,"ax",%progbits
  51              		.align	2
  52              		.global	ADC_RestoreConfig
  53              		.code	16
  54              		.thumb_func
  55              		.type	ADC_RestoreConfig, %function
  56              	ADC_RestoreConfig:
  57              	.LFB3:
  49:Generated_Source\PSoC4/ADC_PM.c **** 
  50:Generated_Source\PSoC4/ADC_PM.c **** 
  51:Generated_Source\PSoC4/ADC_PM.c **** /*******************************************************************************
  52:Generated_Source\PSoC4/ADC_PM.c **** * Function Name: ADC_RestoreConfig
  53:Generated_Source\PSoC4/ADC_PM.c **** ********************************************************************************
  54:Generated_Source\PSoC4/ADC_PM.c **** *
  55:Generated_Source\PSoC4/ADC_PM.c **** * Summary:
  56:Generated_Source\PSoC4/ADC_PM.c **** *  Restores the current user configuration.
ARM GAS  C:\Users\diego\AppData\Local\Temp\cc1fiauA.s 			page 3


  57:Generated_Source\PSoC4/ADC_PM.c **** *
  58:Generated_Source\PSoC4/ADC_PM.c **** * Parameters:
  59:Generated_Source\PSoC4/ADC_PM.c **** *  None.
  60:Generated_Source\PSoC4/ADC_PM.c **** *
  61:Generated_Source\PSoC4/ADC_PM.c **** * Return:
  62:Generated_Source\PSoC4/ADC_PM.c **** *  None.
  63:Generated_Source\PSoC4/ADC_PM.c **** *
  64:Generated_Source\PSoC4/ADC_PM.c **** *******************************************************************************/
  65:Generated_Source\PSoC4/ADC_PM.c **** void ADC_RestoreConfig(void)
  66:Generated_Source\PSoC4/ADC_PM.c **** {
  58              		.loc 1 66 0
  59              		.cfi_startproc
  60              		@ args = 0, pretend = 0, frame = 0
  61              		@ frame_needed = 1, uses_anonymous_args = 0
  62 0000 80B5     		push	{r7, lr}
  63              		.cfi_def_cfa_offset 8
  64              		.cfi_offset 7, -8
  65              		.cfi_offset 14, -4
  66 0002 00AF     		add	r7, sp, #0
  67              		.cfi_def_cfa_register 7
  67:Generated_Source\PSoC4/ADC_PM.c ****     /* All configuration registers are marked as [reset_all_retention] */
  68:Generated_Source\PSoC4/ADC_PM.c **** }
  68              		.loc 1 68 0
  69 0004 C046     		nop
  70 0006 BD46     		mov	sp, r7
  71              		@ sp needed
  72 0008 80BD     		pop	{r7, pc}
  73              		.cfi_endproc
  74              	.LFE3:
  75              		.size	ADC_RestoreConfig, .-ADC_RestoreConfig
  76              		.section	.text.ADC_Sleep,"ax",%progbits
  77              		.align	2
  78              		.global	ADC_Sleep
  79              		.code	16
  80              		.thumb_func
  81              		.type	ADC_Sleep, %function
  82              	ADC_Sleep:
  83              	.LFB4:
  69:Generated_Source\PSoC4/ADC_PM.c **** 
  70:Generated_Source\PSoC4/ADC_PM.c **** 
  71:Generated_Source\PSoC4/ADC_PM.c **** /*******************************************************************************
  72:Generated_Source\PSoC4/ADC_PM.c **** * Function Name: ADC_Sleep
  73:Generated_Source\PSoC4/ADC_PM.c **** ********************************************************************************
  74:Generated_Source\PSoC4/ADC_PM.c **** *
  75:Generated_Source\PSoC4/ADC_PM.c **** * Summary:
  76:Generated_Source\PSoC4/ADC_PM.c **** *  Stops the ADC operation and saves the configuration registers and component
  77:Generated_Source\PSoC4/ADC_PM.c **** *  enable state. Should be called just prior to entering sleep.
  78:Generated_Source\PSoC4/ADC_PM.c **** *
  79:Generated_Source\PSoC4/ADC_PM.c **** * Parameters:
  80:Generated_Source\PSoC4/ADC_PM.c **** *  None.
  81:Generated_Source\PSoC4/ADC_PM.c **** *
  82:Generated_Source\PSoC4/ADC_PM.c **** * Return:
  83:Generated_Source\PSoC4/ADC_PM.c **** *  None.
  84:Generated_Source\PSoC4/ADC_PM.c **** *
  85:Generated_Source\PSoC4/ADC_PM.c **** * Global Variables:
  86:Generated_Source\PSoC4/ADC_PM.c **** *  ADC_backup - modified.
  87:Generated_Source\PSoC4/ADC_PM.c **** *
ARM GAS  C:\Users\diego\AppData\Local\Temp\cc1fiauA.s 			page 4


  88:Generated_Source\PSoC4/ADC_PM.c **** *******************************************************************************/
  89:Generated_Source\PSoC4/ADC_PM.c **** void ADC_Sleep(void)
  90:Generated_Source\PSoC4/ADC_PM.c **** {
  84              		.loc 1 90 0
  85              		.cfi_startproc
  86              		@ args = 0, pretend = 0, frame = 0
  87              		@ frame_needed = 1, uses_anonymous_args = 0
  88 0000 80B5     		push	{r7, lr}
  89              		.cfi_def_cfa_offset 8
  90              		.cfi_offset 7, -8
  91              		.cfi_offset 14, -4
  92 0002 00AF     		add	r7, sp, #0
  93              		.cfi_def_cfa_register 7
  91:Generated_Source\PSoC4/ADC_PM.c ****     /* During deepsleep/ hibernate mode keep SARMUX active, i.e. do not open
  92:Generated_Source\PSoC4/ADC_PM.c ****     *   all switches (disconnect), to be used for ADFT
  93:Generated_Source\PSoC4/ADC_PM.c ****     */
  94:Generated_Source\PSoC4/ADC_PM.c ****     ADC_backup.dftRegVal = ADC_SAR_DFT_CTRL_REG & (uint32)~ADC_ADFT_OVERRIDE;
  94              		.loc 1 94 0
  95 0004 1D4B     		ldr	r3, .L10
  96 0006 1B68     		ldr	r3, [r3]
  97 0008 5B00     		lsls	r3, r3, #1
  98 000a 5A08     		lsrs	r2, r3, #1
  99 000c 1C4B     		ldr	r3, .L10+4
 100 000e 5A60     		str	r2, [r3, #4]
  95:Generated_Source\PSoC4/ADC_PM.c ****     ADC_SAR_DFT_CTRL_REG |= ADC_ADFT_OVERRIDE;
 101              		.loc 1 95 0
 102 0010 1A4B     		ldr	r3, .L10
 103 0012 1A4A     		ldr	r2, .L10
 104 0014 1268     		ldr	r2, [r2]
 105 0016 8021     		movs	r1, #128
 106 0018 0906     		lsls	r1, r1, #24
 107 001a 0A43     		orrs	r2, r1
 108 001c 1A60     		str	r2, [r3]
  96:Generated_Source\PSoC4/ADC_PM.c ****     if((ADC_SAR_CTRL_REG  & ADC_ENABLE) != 0u)
 109              		.loc 1 96 0
 110 001e 194B     		ldr	r3, .L10+8
 111 0020 1B68     		ldr	r3, [r3]
 112 0022 002B     		cmp	r3, #0
 113 0024 24DA     		bge	.L4
  97:Generated_Source\PSoC4/ADC_PM.c ****     {
  98:Generated_Source\PSoC4/ADC_PM.c ****         if((ADC_SAR_SAMPLE_CTRL_REG & ADC_CONTINUOUS_EN) != 0u)
 114              		.loc 1 98 0
 115 0026 184B     		ldr	r3, .L10+12
 116 0028 1A68     		ldr	r2, [r3]
 117 002a 8023     		movs	r3, #128
 118 002c 5B02     		lsls	r3, r3, #9
 119 002e 1340     		ands	r3, r2
 120 0030 03D0     		beq	.L5
  99:Generated_Source\PSoC4/ADC_PM.c ****         {
 100:Generated_Source\PSoC4/ADC_PM.c ****             ADC_backup.enableState = ADC_ENABLED | ADC_STARTED;
 121              		.loc 1 100 0
 122 0032 134B     		ldr	r3, .L10+4
 123 0034 0322     		movs	r2, #3
 124 0036 1A70     		strb	r2, [r3]
 125 0038 02E0     		b	.L6
 126              	.L5:
 101:Generated_Source\PSoC4/ADC_PM.c ****         }
ARM GAS  C:\Users\diego\AppData\Local\Temp\cc1fiauA.s 			page 5


 102:Generated_Source\PSoC4/ADC_PM.c ****         else
 103:Generated_Source\PSoC4/ADC_PM.c ****         {
 104:Generated_Source\PSoC4/ADC_PM.c ****             ADC_backup.enableState = ADC_ENABLED;
 127              		.loc 1 104 0
 128 003a 114B     		ldr	r3, .L10+4
 129 003c 0122     		movs	r2, #1
 130 003e 1A70     		strb	r2, [r3]
 131              	.L6:
 105:Generated_Source\PSoC4/ADC_PM.c ****         }
 106:Generated_Source\PSoC4/ADC_PM.c ****         ADC_StopConvert();
 132              		.loc 1 106 0
 133 0040 FFF7FEFF 		bl	ADC_StopConvert
 107:Generated_Source\PSoC4/ADC_PM.c ****         ADC_Stop();
 134              		.loc 1 107 0
 135 0044 FFF7FEFF 		bl	ADC_Stop
 108:Generated_Source\PSoC4/ADC_PM.c ****         
 109:Generated_Source\PSoC4/ADC_PM.c ****         /* Disable the SAR internal pump before entering the chip low power mode */
 110:Generated_Source\PSoC4/ADC_PM.c ****         if((ADC_SAR_CTRL_REG & ADC_BOOSTPUMP_EN) != 0u)
 136              		.loc 1 110 0
 137 0048 0E4B     		ldr	r3, .L10+8
 138 004a 1A68     		ldr	r2, [r3]
 139 004c 8023     		movs	r3, #128
 140 004e 5B03     		lsls	r3, r3, #13
 141 0050 1340     		ands	r3, r2
 142 0052 10D0     		beq	.L9
 111:Generated_Source\PSoC4/ADC_PM.c ****         {
 112:Generated_Source\PSoC4/ADC_PM.c ****             ADC_SAR_CTRL_REG &= (uint32)~ADC_BOOSTPUMP_EN;
 143              		.loc 1 112 0
 144 0054 0B4B     		ldr	r3, .L10+8
 145 0056 0B4A     		ldr	r2, .L10+8
 146 0058 1268     		ldr	r2, [r2]
 147 005a 0C49     		ldr	r1, .L10+16
 148 005c 0A40     		ands	r2, r1
 149 005e 1A60     		str	r2, [r3]
 113:Generated_Source\PSoC4/ADC_PM.c ****             ADC_backup.enableState |= ADC_BOOSTPUMP_ENABLED;
 150              		.loc 1 113 0
 151 0060 074B     		ldr	r3, .L10+4
 152 0062 1B78     		ldrb	r3, [r3]
 153 0064 0422     		movs	r2, #4
 154 0066 1343     		orrs	r3, r2
 155 0068 DAB2     		uxtb	r2, r3
 156 006a 054B     		ldr	r3, .L10+4
 157 006c 1A70     		strb	r2, [r3]
 114:Generated_Source\PSoC4/ADC_PM.c ****         }
 115:Generated_Source\PSoC4/ADC_PM.c ****     }
 116:Generated_Source\PSoC4/ADC_PM.c ****     else
 117:Generated_Source\PSoC4/ADC_PM.c ****     {
 118:Generated_Source\PSoC4/ADC_PM.c ****         ADC_backup.enableState = ADC_DISABLED;
 119:Generated_Source\PSoC4/ADC_PM.c ****     }
 120:Generated_Source\PSoC4/ADC_PM.c **** }
 158              		.loc 1 120 0
 159 006e 02E0     		b	.L9
 160              	.L4:
 118:Generated_Source\PSoC4/ADC_PM.c ****     }
 161              		.loc 1 118 0
 162 0070 034B     		ldr	r3, .L10+4
 163 0072 0022     		movs	r2, #0
ARM GAS  C:\Users\diego\AppData\Local\Temp\cc1fiauA.s 			page 6


 164 0074 1A70     		strb	r2, [r3]
 165              	.L9:
 166              		.loc 1 120 0
 167 0076 C046     		nop
 168 0078 BD46     		mov	sp, r7
 169              		@ sp needed
 170 007a 80BD     		pop	{r7, pc}
 171              	.L11:
 172              		.align	2
 173              	.L10:
 174 007c 30003A40 		.word	1077542960
 175 0080 00000000 		.word	ADC_backup
 176 0084 00003A40 		.word	1077542912
 177 0088 04003A40 		.word	1077542916
 178 008c FFFFEFFF 		.word	-1048577
 179              		.cfi_endproc
 180              	.LFE4:
 181              		.size	ADC_Sleep, .-ADC_Sleep
 182              		.section	.text.ADC_Wakeup,"ax",%progbits
 183              		.align	2
 184              		.global	ADC_Wakeup
 185              		.code	16
 186              		.thumb_func
 187              		.type	ADC_Wakeup, %function
 188              	ADC_Wakeup:
 189              	.LFB5:
 121:Generated_Source\PSoC4/ADC_PM.c **** 
 122:Generated_Source\PSoC4/ADC_PM.c **** 
 123:Generated_Source\PSoC4/ADC_PM.c **** /*******************************************************************************
 124:Generated_Source\PSoC4/ADC_PM.c **** * Function Name: ADC_Wakeup
 125:Generated_Source\PSoC4/ADC_PM.c **** ********************************************************************************
 126:Generated_Source\PSoC4/ADC_PM.c **** *
 127:Generated_Source\PSoC4/ADC_PM.c **** * Summary:
 128:Generated_Source\PSoC4/ADC_PM.c **** *  Restores the component enable state and configuration registers.
 129:Generated_Source\PSoC4/ADC_PM.c **** *  This should be called just after awaking from sleep mode.
 130:Generated_Source\PSoC4/ADC_PM.c **** *
 131:Generated_Source\PSoC4/ADC_PM.c **** * Parameters:
 132:Generated_Source\PSoC4/ADC_PM.c **** *  None.
 133:Generated_Source\PSoC4/ADC_PM.c **** *
 134:Generated_Source\PSoC4/ADC_PM.c **** * Return:
 135:Generated_Source\PSoC4/ADC_PM.c **** *  None.
 136:Generated_Source\PSoC4/ADC_PM.c **** *
 137:Generated_Source\PSoC4/ADC_PM.c **** * Global Variables:
 138:Generated_Source\PSoC4/ADC_PM.c **** *  ADC_backup - used.
 139:Generated_Source\PSoC4/ADC_PM.c **** *
 140:Generated_Source\PSoC4/ADC_PM.c **** *******************************************************************************/
 141:Generated_Source\PSoC4/ADC_PM.c **** void ADC_Wakeup(void)
 142:Generated_Source\PSoC4/ADC_PM.c **** {
 190              		.loc 1 142 0
 191              		.cfi_startproc
 192              		@ args = 0, pretend = 0, frame = 0
 193              		@ frame_needed = 1, uses_anonymous_args = 0
 194 0000 80B5     		push	{r7, lr}
 195              		.cfi_def_cfa_offset 8
 196              		.cfi_offset 7, -8
 197              		.cfi_offset 14, -4
 198 0002 00AF     		add	r7, sp, #0
ARM GAS  C:\Users\diego\AppData\Local\Temp\cc1fiauA.s 			page 7


 199              		.cfi_def_cfa_register 7
 143:Generated_Source\PSoC4/ADC_PM.c ****     ADC_SAR_DFT_CTRL_REG = ADC_backup.dftRegVal;
 200              		.loc 1 143 0
 201 0004 104A     		ldr	r2, .L16
 202 0006 114B     		ldr	r3, .L16+4
 203 0008 5B68     		ldr	r3, [r3, #4]
 204 000a 1360     		str	r3, [r2]
 144:Generated_Source\PSoC4/ADC_PM.c ****     if(ADC_backup.enableState != ADC_DISABLED)
 205              		.loc 1 144 0
 206 000c 0F4B     		ldr	r3, .L16+4
 207 000e 1B78     		ldrb	r3, [r3]
 208 0010 002B     		cmp	r3, #0
 209 0012 16D0     		beq	.L15
 145:Generated_Source\PSoC4/ADC_PM.c ****     {
 146:Generated_Source\PSoC4/ADC_PM.c ****         /* Enable the SAR internal pump  */
 147:Generated_Source\PSoC4/ADC_PM.c ****         if((ADC_backup.enableState & ADC_BOOSTPUMP_ENABLED) != 0u)
 210              		.loc 1 147 0
 211 0014 0D4B     		ldr	r3, .L16+4
 212 0016 1B78     		ldrb	r3, [r3]
 213 0018 1A00     		movs	r2, r3
 214 001a 0423     		movs	r3, #4
 215 001c 1340     		ands	r3, r2
 216 001e 06D0     		beq	.L14
 148:Generated_Source\PSoC4/ADC_PM.c ****         {
 149:Generated_Source\PSoC4/ADC_PM.c ****             ADC_SAR_CTRL_REG |= ADC_BOOSTPUMP_EN;
 217              		.loc 1 149 0
 218 0020 0B4B     		ldr	r3, .L16+8
 219 0022 0B4A     		ldr	r2, .L16+8
 220 0024 1268     		ldr	r2, [r2]
 221 0026 8021     		movs	r1, #128
 222 0028 4903     		lsls	r1, r1, #13
 223 002a 0A43     		orrs	r2, r1
 224 002c 1A60     		str	r2, [r3]
 225              	.L14:
 150:Generated_Source\PSoC4/ADC_PM.c ****         }
 151:Generated_Source\PSoC4/ADC_PM.c ****         ADC_Enable();
 226              		.loc 1 151 0
 227 002e FFF7FEFF 		bl	ADC_Enable
 152:Generated_Source\PSoC4/ADC_PM.c ****         if((ADC_backup.enableState & ADC_STARTED) != 0u)
 228              		.loc 1 152 0
 229 0032 064B     		ldr	r3, .L16+4
 230 0034 1B78     		ldrb	r3, [r3]
 231 0036 1A00     		movs	r2, r3
 232 0038 0223     		movs	r3, #2
 233 003a 1340     		ands	r3, r2
 234 003c 01D0     		beq	.L15
 153:Generated_Source\PSoC4/ADC_PM.c ****         {
 154:Generated_Source\PSoC4/ADC_PM.c ****             ADC_StartConvert();
 235              		.loc 1 154 0
 236 003e FFF7FEFF 		bl	ADC_StartConvert
 237              	.L15:
 155:Generated_Source\PSoC4/ADC_PM.c ****         }
 156:Generated_Source\PSoC4/ADC_PM.c ****     }
 157:Generated_Source\PSoC4/ADC_PM.c **** }
 238              		.loc 1 157 0
 239 0042 C046     		nop
 240 0044 BD46     		mov	sp, r7
ARM GAS  C:\Users\diego\AppData\Local\Temp\cc1fiauA.s 			page 8


 241              		@ sp needed
 242 0046 80BD     		pop	{r7, pc}
 243              	.L17:
 244              		.align	2
 245              	.L16:
 246 0048 30003A40 		.word	1077542960
 247 004c 00000000 		.word	ADC_backup
 248 0050 00003A40 		.word	1077542912
 249              		.cfi_endproc
 250              	.LFE5:
 251              		.size	ADC_Wakeup, .-ADC_Wakeup
 252              		.text
 253              	.Letext0:
 254              		.file 2 "Generated_Source\\PSoC4\\cytypes.h"
 255              		.file 3 "Generated_Source\\PSoC4\\ADC.h"
 256              		.section	.debug_info,"",%progbits
 257              	.Ldebug_info0:
 258 0000 35010000 		.4byte	0x135
 259 0004 0400     		.2byte	0x4
 260 0006 00000000 		.4byte	.Ldebug_abbrev0
 261 000a 04       		.byte	0x4
 262 000b 01       		.uleb128 0x1
 263 000c 74010000 		.4byte	.LASF24
 264 0010 0C       		.byte	0xc
 265 0011 03010000 		.4byte	.LASF25
 266 0015 9D000000 		.4byte	.LASF26
 267 0019 00000000 		.4byte	.Ldebug_ranges0+0
 268 001d 00000000 		.4byte	0
 269 0021 00000000 		.4byte	.Ldebug_line0
 270 0025 02       		.uleb128 0x2
 271 0026 01       		.byte	0x1
 272 0027 06       		.byte	0x6
 273 0028 52010000 		.4byte	.LASF0
 274 002c 02       		.uleb128 0x2
 275 002d 01       		.byte	0x1
 276 002e 08       		.byte	0x8
 277 002f D3000000 		.4byte	.LASF1
 278 0033 02       		.uleb128 0x2
 279 0034 02       		.byte	0x2
 280 0035 05       		.byte	0x5
 281 0036 6A010000 		.4byte	.LASF2
 282 003a 02       		.uleb128 0x2
 283 003b 02       		.byte	0x2
 284 003c 07       		.byte	0x7
 285 003d 3F010000 		.4byte	.LASF3
 286 0041 02       		.uleb128 0x2
 287 0042 04       		.byte	0x4
 288 0043 05       		.byte	0x5
 289 0044 F0000000 		.4byte	.LASF4
 290 0048 02       		.uleb128 0x2
 291 0049 04       		.byte	0x4
 292 004a 07       		.byte	0x7
 293 004b 3F000000 		.4byte	.LASF5
 294 004f 02       		.uleb128 0x2
 295 0050 08       		.byte	0x8
 296 0051 05       		.byte	0x5
 297 0052 00000000 		.4byte	.LASF6
ARM GAS  C:\Users\diego\AppData\Local\Temp\cc1fiauA.s 			page 9


 298 0056 02       		.uleb128 0x2
 299 0057 08       		.byte	0x8
 300 0058 07       		.byte	0x7
 301 0059 51000000 		.4byte	.LASF7
 302 005d 03       		.uleb128 0x3
 303 005e 04       		.byte	0x4
 304 005f 05       		.byte	0x5
 305 0060 696E7400 		.ascii	"int\000"
 306 0064 02       		.uleb128 0x2
 307 0065 04       		.byte	0x4
 308 0066 07       		.byte	0x7
 309 0067 20000000 		.4byte	.LASF8
 310 006b 04       		.uleb128 0x4
 311 006c 39000000 		.4byte	.LASF9
 312 0070 02       		.byte	0x2
 313 0071 D201     		.2byte	0x1d2
 314 0073 2C000000 		.4byte	0x2c
 315 0077 04       		.uleb128 0x4
 316 0078 0E000000 		.4byte	.LASF10
 317 007c 02       		.byte	0x2
 318 007d D401     		.2byte	0x1d4
 319 007f 48000000 		.4byte	0x48
 320 0083 02       		.uleb128 0x2
 321 0084 04       		.byte	0x4
 322 0085 04       		.byte	0x4
 323 0086 7A000000 		.4byte	.LASF11
 324 008a 02       		.uleb128 0x2
 325 008b 08       		.byte	0x8
 326 008c 04       		.byte	0x4
 327 008d 23010000 		.4byte	.LASF12
 328 0091 02       		.uleb128 0x2
 329 0092 01       		.byte	0x1
 330 0093 08       		.byte	0x8
 331 0094 E1000000 		.4byte	.LASF13
 332 0098 04       		.uleb128 0x4
 333 0099 39010000 		.4byte	.LASF14
 334 009d 02       		.byte	0x2
 335 009e 7E02     		.2byte	0x27e
 336 00a0 A4000000 		.4byte	0xa4
 337 00a4 05       		.uleb128 0x5
 338 00a5 77000000 		.4byte	0x77
 339 00a9 02       		.uleb128 0x2
 340 00aa 08       		.byte	0x8
 341 00ab 04       		.byte	0x4
 342 00ac 5E010000 		.4byte	.LASF15
 343 00b0 02       		.uleb128 0x2
 344 00b1 04       		.byte	0x4
 345 00b2 07       		.byte	0x7
 346 00b3 02020000 		.4byte	.LASF16
 347 00b7 06       		.uleb128 0x6
 348 00b8 08       		.byte	0x8
 349 00b9 03       		.byte	0x3
 350 00ba 1E       		.byte	0x1e
 351 00bb D8000000 		.4byte	0xd8
 352 00bf 07       		.uleb128 0x7
 353 00c0 2D000000 		.4byte	.LASF17
 354 00c4 03       		.byte	0x3
ARM GAS  C:\Users\diego\AppData\Local\Temp\cc1fiauA.s 			page 10


 355 00c5 20       		.byte	0x20
 356 00c6 6B000000 		.4byte	0x6b
 357 00ca 00       		.byte	0
 358 00cb 07       		.uleb128 0x7
 359 00cc F9000000 		.4byte	.LASF18
 360 00d0 03       		.byte	0x3
 361 00d1 21       		.byte	0x21
 362 00d2 77000000 		.4byte	0x77
 363 00d6 04       		.byte	0x4
 364 00d7 00       		.byte	0
 365 00d8 08       		.uleb128 0x8
 366 00d9 80000000 		.4byte	.LASF19
 367 00dd 03       		.byte	0x3
 368 00de 22       		.byte	0x22
 369 00df B7000000 		.4byte	0xb7
 370 00e3 09       		.uleb128 0x9
 371 00e4 2A010000 		.4byte	.LASF20
 372 00e8 01       		.byte	0x1
 373 00e9 2D       		.byte	0x2d
 374 00ea 00000000 		.4byte	.LFB2
 375 00ee 0A000000 		.4byte	.LFE2-.LFB2
 376 00f2 01       		.uleb128 0x1
 377 00f3 9C       		.byte	0x9c
 378 00f4 09       		.uleb128 0x9
 379 00f5 68000000 		.4byte	.LASF21
 380 00f9 01       		.byte	0x1
 381 00fa 41       		.byte	0x41
 382 00fb 00000000 		.4byte	.LFB3
 383 00ff 0A000000 		.4byte	.LFE3-.LFB3
 384 0103 01       		.uleb128 0x1
 385 0104 9C       		.byte	0x9c
 386 0105 0A       		.uleb128 0xa
 387 0106 E6000000 		.4byte	.LASF22
 388 010a 01       		.byte	0x1
 389 010b 59       		.byte	0x59
 390 010c 00000000 		.4byte	.LFB4
 391 0110 90000000 		.4byte	.LFE4-.LFB4
 392 0114 01       		.uleb128 0x1
 393 0115 9C       		.byte	0x9c
 394 0116 0A       		.uleb128 0xa
 395 0117 92000000 		.4byte	.LASF23
 396 011b 01       		.byte	0x1
 397 011c 8D       		.byte	0x8d
 398 011d 00000000 		.4byte	.LFB5
 399 0121 54000000 		.4byte	.LFE5-.LFB5
 400 0125 01       		.uleb128 0x1
 401 0126 9C       		.byte	0x9c
 402 0127 0B       		.uleb128 0xb
 403 0128 15000000 		.4byte	.LASF27
 404 012c 01       		.byte	0x1
 405 012d 18       		.byte	0x18
 406 012e D8000000 		.4byte	0xd8
 407 0132 05       		.uleb128 0x5
 408 0133 03       		.byte	0x3
 409 0134 00000000 		.4byte	ADC_backup
 410 0138 00       		.byte	0
 411              		.section	.debug_abbrev,"",%progbits
ARM GAS  C:\Users\diego\AppData\Local\Temp\cc1fiauA.s 			page 11


 412              	.Ldebug_abbrev0:
 413 0000 01       		.uleb128 0x1
 414 0001 11       		.uleb128 0x11
 415 0002 01       		.byte	0x1
 416 0003 25       		.uleb128 0x25
 417 0004 0E       		.uleb128 0xe
 418 0005 13       		.uleb128 0x13
 419 0006 0B       		.uleb128 0xb
 420 0007 03       		.uleb128 0x3
 421 0008 0E       		.uleb128 0xe
 422 0009 1B       		.uleb128 0x1b
 423 000a 0E       		.uleb128 0xe
 424 000b 55       		.uleb128 0x55
 425 000c 17       		.uleb128 0x17
 426 000d 11       		.uleb128 0x11
 427 000e 01       		.uleb128 0x1
 428 000f 10       		.uleb128 0x10
 429 0010 17       		.uleb128 0x17
 430 0011 00       		.byte	0
 431 0012 00       		.byte	0
 432 0013 02       		.uleb128 0x2
 433 0014 24       		.uleb128 0x24
 434 0015 00       		.byte	0
 435 0016 0B       		.uleb128 0xb
 436 0017 0B       		.uleb128 0xb
 437 0018 3E       		.uleb128 0x3e
 438 0019 0B       		.uleb128 0xb
 439 001a 03       		.uleb128 0x3
 440 001b 0E       		.uleb128 0xe
 441 001c 00       		.byte	0
 442 001d 00       		.byte	0
 443 001e 03       		.uleb128 0x3
 444 001f 24       		.uleb128 0x24
 445 0020 00       		.byte	0
 446 0021 0B       		.uleb128 0xb
 447 0022 0B       		.uleb128 0xb
 448 0023 3E       		.uleb128 0x3e
 449 0024 0B       		.uleb128 0xb
 450 0025 03       		.uleb128 0x3
 451 0026 08       		.uleb128 0x8
 452 0027 00       		.byte	0
 453 0028 00       		.byte	0
 454 0029 04       		.uleb128 0x4
 455 002a 16       		.uleb128 0x16
 456 002b 00       		.byte	0
 457 002c 03       		.uleb128 0x3
 458 002d 0E       		.uleb128 0xe
 459 002e 3A       		.uleb128 0x3a
 460 002f 0B       		.uleb128 0xb
 461 0030 3B       		.uleb128 0x3b
 462 0031 05       		.uleb128 0x5
 463 0032 49       		.uleb128 0x49
 464 0033 13       		.uleb128 0x13
 465 0034 00       		.byte	0
 466 0035 00       		.byte	0
 467 0036 05       		.uleb128 0x5
 468 0037 35       		.uleb128 0x35
ARM GAS  C:\Users\diego\AppData\Local\Temp\cc1fiauA.s 			page 12


 469 0038 00       		.byte	0
 470 0039 49       		.uleb128 0x49
 471 003a 13       		.uleb128 0x13
 472 003b 00       		.byte	0
 473 003c 00       		.byte	0
 474 003d 06       		.uleb128 0x6
 475 003e 13       		.uleb128 0x13
 476 003f 01       		.byte	0x1
 477 0040 0B       		.uleb128 0xb
 478 0041 0B       		.uleb128 0xb
 479 0042 3A       		.uleb128 0x3a
 480 0043 0B       		.uleb128 0xb
 481 0044 3B       		.uleb128 0x3b
 482 0045 0B       		.uleb128 0xb
 483 0046 01       		.uleb128 0x1
 484 0047 13       		.uleb128 0x13
 485 0048 00       		.byte	0
 486 0049 00       		.byte	0
 487 004a 07       		.uleb128 0x7
 488 004b 0D       		.uleb128 0xd
 489 004c 00       		.byte	0
 490 004d 03       		.uleb128 0x3
 491 004e 0E       		.uleb128 0xe
 492 004f 3A       		.uleb128 0x3a
 493 0050 0B       		.uleb128 0xb
 494 0051 3B       		.uleb128 0x3b
 495 0052 0B       		.uleb128 0xb
 496 0053 49       		.uleb128 0x49
 497 0054 13       		.uleb128 0x13
 498 0055 38       		.uleb128 0x38
 499 0056 0B       		.uleb128 0xb
 500 0057 00       		.byte	0
 501 0058 00       		.byte	0
 502 0059 08       		.uleb128 0x8
 503 005a 16       		.uleb128 0x16
 504 005b 00       		.byte	0
 505 005c 03       		.uleb128 0x3
 506 005d 0E       		.uleb128 0xe
 507 005e 3A       		.uleb128 0x3a
 508 005f 0B       		.uleb128 0xb
 509 0060 3B       		.uleb128 0x3b
 510 0061 0B       		.uleb128 0xb
 511 0062 49       		.uleb128 0x49
 512 0063 13       		.uleb128 0x13
 513 0064 00       		.byte	0
 514 0065 00       		.byte	0
 515 0066 09       		.uleb128 0x9
 516 0067 2E       		.uleb128 0x2e
 517 0068 00       		.byte	0
 518 0069 3F       		.uleb128 0x3f
 519 006a 19       		.uleb128 0x19
 520 006b 03       		.uleb128 0x3
 521 006c 0E       		.uleb128 0xe
 522 006d 3A       		.uleb128 0x3a
 523 006e 0B       		.uleb128 0xb
 524 006f 3B       		.uleb128 0x3b
 525 0070 0B       		.uleb128 0xb
ARM GAS  C:\Users\diego\AppData\Local\Temp\cc1fiauA.s 			page 13


 526 0071 27       		.uleb128 0x27
 527 0072 19       		.uleb128 0x19
 528 0073 11       		.uleb128 0x11
 529 0074 01       		.uleb128 0x1
 530 0075 12       		.uleb128 0x12
 531 0076 06       		.uleb128 0x6
 532 0077 40       		.uleb128 0x40
 533 0078 18       		.uleb128 0x18
 534 0079 9742     		.uleb128 0x2117
 535 007b 19       		.uleb128 0x19
 536 007c 00       		.byte	0
 537 007d 00       		.byte	0
 538 007e 0A       		.uleb128 0xa
 539 007f 2E       		.uleb128 0x2e
 540 0080 00       		.byte	0
 541 0081 3F       		.uleb128 0x3f
 542 0082 19       		.uleb128 0x19
 543 0083 03       		.uleb128 0x3
 544 0084 0E       		.uleb128 0xe
 545 0085 3A       		.uleb128 0x3a
 546 0086 0B       		.uleb128 0xb
 547 0087 3B       		.uleb128 0x3b
 548 0088 0B       		.uleb128 0xb
 549 0089 27       		.uleb128 0x27
 550 008a 19       		.uleb128 0x19
 551 008b 11       		.uleb128 0x11
 552 008c 01       		.uleb128 0x1
 553 008d 12       		.uleb128 0x12
 554 008e 06       		.uleb128 0x6
 555 008f 40       		.uleb128 0x40
 556 0090 18       		.uleb128 0x18
 557 0091 9642     		.uleb128 0x2116
 558 0093 19       		.uleb128 0x19
 559 0094 00       		.byte	0
 560 0095 00       		.byte	0
 561 0096 0B       		.uleb128 0xb
 562 0097 34       		.uleb128 0x34
 563 0098 00       		.byte	0
 564 0099 03       		.uleb128 0x3
 565 009a 0E       		.uleb128 0xe
 566 009b 3A       		.uleb128 0x3a
 567 009c 0B       		.uleb128 0xb
 568 009d 3B       		.uleb128 0x3b
 569 009e 0B       		.uleb128 0xb
 570 009f 49       		.uleb128 0x49
 571 00a0 13       		.uleb128 0x13
 572 00a1 02       		.uleb128 0x2
 573 00a2 18       		.uleb128 0x18
 574 00a3 00       		.byte	0
 575 00a4 00       		.byte	0
 576 00a5 00       		.byte	0
 577              		.section	.debug_aranges,"",%progbits
 578 0000 34000000 		.4byte	0x34
 579 0004 0200     		.2byte	0x2
 580 0006 00000000 		.4byte	.Ldebug_info0
 581 000a 04       		.byte	0x4
 582 000b 00       		.byte	0
ARM GAS  C:\Users\diego\AppData\Local\Temp\cc1fiauA.s 			page 14


 583 000c 0000     		.2byte	0
 584 000e 0000     		.2byte	0
 585 0010 00000000 		.4byte	.LFB2
 586 0014 0A000000 		.4byte	.LFE2-.LFB2
 587 0018 00000000 		.4byte	.LFB3
 588 001c 0A000000 		.4byte	.LFE3-.LFB3
 589 0020 00000000 		.4byte	.LFB4
 590 0024 90000000 		.4byte	.LFE4-.LFB4
 591 0028 00000000 		.4byte	.LFB5
 592 002c 54000000 		.4byte	.LFE5-.LFB5
 593 0030 00000000 		.4byte	0
 594 0034 00000000 		.4byte	0
 595              		.section	.debug_ranges,"",%progbits
 596              	.Ldebug_ranges0:
 597 0000 00000000 		.4byte	.LFB2
 598 0004 0A000000 		.4byte	.LFE2
 599 0008 00000000 		.4byte	.LFB3
 600 000c 0A000000 		.4byte	.LFE3
 601 0010 00000000 		.4byte	.LFB4
 602 0014 90000000 		.4byte	.LFE4
 603 0018 00000000 		.4byte	.LFB5
 604 001c 54000000 		.4byte	.LFE5
 605 0020 00000000 		.4byte	0
 606 0024 00000000 		.4byte	0
 607              		.section	.debug_line,"",%progbits
 608              	.Ldebug_line0:
 609 0000 A9000000 		.section	.debug_str,"MS",%progbits,1
 609      02004C00 
 609      00000201 
 609      FB0E0D00 
 609      01010101 
 610              	.LASF6:
 611 0000 6C6F6E67 		.ascii	"long long int\000"
 611      206C6F6E 
 611      6720696E 
 611      7400
 612              	.LASF10:
 613 000e 75696E74 		.ascii	"uint32\000"
 613      333200
 614              	.LASF27:
 615 0015 4144435F 		.ascii	"ADC_backup\000"
 615      6261636B 
 615      757000
 616              	.LASF8:
 617 0020 756E7369 		.ascii	"unsigned int\000"
 617      676E6564 
 617      20696E74 
 617      00
 618              	.LASF17:
 619 002d 656E6162 		.ascii	"enableState\000"
 619      6C655374 
 619      61746500 
 620              	.LASF9:
 621 0039 75696E74 		.ascii	"uint8\000"
 621      3800
 622              	.LASF5:
 623 003f 6C6F6E67 		.ascii	"long unsigned int\000"
ARM GAS  C:\Users\diego\AppData\Local\Temp\cc1fiauA.s 			page 15


 623      20756E73 
 623      69676E65 
 623      6420696E 
 623      7400
 624              	.LASF7:
 625 0051 6C6F6E67 		.ascii	"long long unsigned int\000"
 625      206C6F6E 
 625      6720756E 
 625      7369676E 
 625      65642069 
 626              	.LASF21:
 627 0068 4144435F 		.ascii	"ADC_RestoreConfig\000"
 627      52657374 
 627      6F726543 
 627      6F6E6669 
 627      6700
 628              	.LASF11:
 629 007a 666C6F61 		.ascii	"float\000"
 629      7400
 630              	.LASF19:
 631 0080 4144435F 		.ascii	"ADC_BACKUP_STRUCT\000"
 631      4241434B 
 631      55505F53 
 631      54525543 
 631      5400
 632              	.LASF23:
 633 0092 4144435F 		.ascii	"ADC_Wakeup\000"
 633      57616B65 
 633      757000
 634              	.LASF26:
 635 009d 453A5C50 		.ascii	"E:\\Progetti\\Cypress\\Test\\BLE_Accelerometer_cell"
 635      726F6765 
 635      7474695C 
 635      43797072 
 635      6573735C 
 636 00cc 2E637964 		.ascii	".cydsn\000"
 636      736E00
 637              	.LASF1:
 638 00d3 756E7369 		.ascii	"unsigned char\000"
 638      676E6564 
 638      20636861 
 638      7200
 639              	.LASF13:
 640 00e1 63686172 		.ascii	"char\000"
 640      00
 641              	.LASF22:
 642 00e6 4144435F 		.ascii	"ADC_Sleep\000"
 642      536C6565 
 642      7000
 643              	.LASF4:
 644 00f0 6C6F6E67 		.ascii	"long int\000"
 644      20696E74 
 644      00
 645              	.LASF18:
 646 00f9 64667452 		.ascii	"dftRegVal\000"
 646      65675661 
 646      6C00
ARM GAS  C:\Users\diego\AppData\Local\Temp\cc1fiauA.s 			page 16


 647              	.LASF25:
 648 0103 47656E65 		.ascii	"Generated_Source\\PSoC4\\ADC_PM.c\000"
 648      72617465 
 648      645F536F 
 648      75726365 
 648      5C50536F 
 649              	.LASF12:
 650 0123 646F7562 		.ascii	"double\000"
 650      6C6500
 651              	.LASF20:
 652 012a 4144435F 		.ascii	"ADC_SaveConfig\000"
 652      53617665 
 652      436F6E66 
 652      696700
 653              	.LASF14:
 654 0139 72656733 		.ascii	"reg32\000"
 654      3200
 655              	.LASF3:
 656 013f 73686F72 		.ascii	"short unsigned int\000"
 656      7420756E 
 656      7369676E 
 656      65642069 
 656      6E7400
 657              	.LASF0:
 658 0152 7369676E 		.ascii	"signed char\000"
 658      65642063 
 658      68617200 
 659              	.LASF15:
 660 015e 6C6F6E67 		.ascii	"long double\000"
 660      20646F75 
 660      626C6500 
 661              	.LASF2:
 662 016a 73686F72 		.ascii	"short int\000"
 662      7420696E 
 662      7400
 663              	.LASF24:
 664 0174 474E5520 		.ascii	"GNU C11 5.4.1 20160609 (release) [ARM/embedded-5-br"
 664      43313120 
 664      352E342E 
 664      31203230 
 664      31363036 
 665 01a7 616E6368 		.ascii	"anch revision 237715] -mcpu=cortex-m0 -mthumb -g -O"
 665      20726576 
 665      6973696F 
 665      6E203233 
 665      37373135 
 666 01da 30202D66 		.ascii	"0 -ffunction-sections -ffat-lto-objects\000"
 666      66756E63 
 666      74696F6E 
 666      2D736563 
 666      74696F6E 
 667              	.LASF16:
 668 0202 73697A65 		.ascii	"sizetype\000"
 668      74797065 
 668      00
 669              		.ident	"GCC: (GNU Tools for ARM Embedded Processors) 5.4.1 20160609 (release) [ARM/embedded-5-bran
