ARM GAS  C:\Users\diego\AppData\Local\Temp\cc4VDpYc.s 			page 1


   1              		.syntax unified
   2              		.cpu cortex-m0
   3              		.fpu softvfp
   4              		.eabi_attribute 20, 1
   5              		.eabi_attribute 21, 1
   6              		.eabi_attribute 23, 3
   7              		.eabi_attribute 24, 1
   8              		.eabi_attribute 25, 1
   9              		.eabi_attribute 26, 1
  10              		.eabi_attribute 30, 6
  11              		.eabi_attribute 34, 0
  12              		.eabi_attribute 18, 4
  13              		.thumb
  14              		.syntax unified
  15              		.file	"Cm0Start.c"
  16              		.text
  17              	.Ltext0:
  18              		.cfi_sections	.debug_frame
  19              		.section	.noinit,"aw",%progbits
  20              		.align	2
  21              		.type	cySysNoInitDataValid, %object
  22              		.size	cySysNoInitDataValid, 4
  23              	cySysNoInitDataValid:
  24 0000 00000000 		.space	4
  25              		.section	.text.IntDefaultHandler,"ax",%progbits
  26              		.align	2
  27              		.global	IntDefaultHandler
  28              		.code	16
  29              		.thumb_func
  30              		.type	IntDefaultHandler, %function
  31              	IntDefaultHandler:
  32              	.LFB2:
  33              		.file 1 "Generated_Source\\PSoC4\\Cm0Start.c"
   1:Generated_Source\PSoC4/Cm0Start.c **** /***************************************************************************//**
   2:Generated_Source\PSoC4/Cm0Start.c **** * \file Cm0Start.c
   3:Generated_Source\PSoC4/Cm0Start.c **** * \version 5.60
   4:Generated_Source\PSoC4/Cm0Start.c **** *
   5:Generated_Source\PSoC4/Cm0Start.c **** * \brief Startup code for the ARM CM0.
   6:Generated_Source\PSoC4/Cm0Start.c **** *
   7:Generated_Source\PSoC4/Cm0Start.c **** ********************************************************************************
   8:Generated_Source\PSoC4/Cm0Start.c **** * \copyright
   9:Generated_Source\PSoC4/Cm0Start.c **** * Copyright 2010-2017, Cypress Semiconductor Corporation.  All rights reserved.
  10:Generated_Source\PSoC4/Cm0Start.c **** * You may use this file only in accordance with the license, terms, conditions,
  11:Generated_Source\PSoC4/Cm0Start.c **** * disclaimers, and limitations in the end user license agreement accompanying
  12:Generated_Source\PSoC4/Cm0Start.c **** * the software package with which this file was provided.
  13:Generated_Source\PSoC4/Cm0Start.c **** *******************************************************************************/
  14:Generated_Source\PSoC4/Cm0Start.c **** 
  15:Generated_Source\PSoC4/Cm0Start.c **** #include <limits.h>
  16:Generated_Source\PSoC4/Cm0Start.c **** #include "cydevice_trm.h"
  17:Generated_Source\PSoC4/Cm0Start.c **** #include "cytypes.h"
  18:Generated_Source\PSoC4/Cm0Start.c **** #include "cyfitter_cfg.h"
  19:Generated_Source\PSoC4/Cm0Start.c **** #include "CyLib.h"
  20:Generated_Source\PSoC4/Cm0Start.c **** #include "cyfitter.h"
  21:Generated_Source\PSoC4/Cm0Start.c **** #include "cyapicallbacks.h"
  22:Generated_Source\PSoC4/Cm0Start.c **** 
  23:Generated_Source\PSoC4/Cm0Start.c **** #define CY_NUM_VECTORS              (CY_INT_IRQ_BASE + CY_NUM_INTERRUPTS)
  24:Generated_Source\PSoC4/Cm0Start.c **** 
ARM GAS  C:\Users\diego\AppData\Local\Temp\cc4VDpYc.s 			page 2


  25:Generated_Source\PSoC4/Cm0Start.c **** #if (CY_IP_CPUSS_CM0)
  26:Generated_Source\PSoC4/Cm0Start.c ****     #define CY_CPUSS_CONFIG_VECT_IN_RAM (( uint32 ) 0x01)
  27:Generated_Source\PSoC4/Cm0Start.c **** #endif /* (CY_IP_CPUSS_CM0) */
  28:Generated_Source\PSoC4/Cm0Start.c **** 
  29:Generated_Source\PSoC4/Cm0Start.c **** 
  30:Generated_Source\PSoC4/Cm0Start.c **** #if (CY_IP_CPUSS_CM0)
  31:Generated_Source\PSoC4/Cm0Start.c ****     /* CPUSS Configuration register */
  32:Generated_Source\PSoC4/Cm0Start.c ****     #define CY_CPUSS_CONFIG_REG         (*(reg32 *) CYREG_CPUSS_CONFIG)
  33:Generated_Source\PSoC4/Cm0Start.c ****     #define CY_CPUSS_CONFIG_PTR         ( (reg32 *) CYREG_CPUSS_CONFIG)
  34:Generated_Source\PSoC4/Cm0Start.c **** #endif /* (CY_IP_CPUSS_CM0) */
  35:Generated_Source\PSoC4/Cm0Start.c **** 
  36:Generated_Source\PSoC4/Cm0Start.c **** 
  37:Generated_Source\PSoC4/Cm0Start.c **** #if defined (__ICCARM__)
  38:Generated_Source\PSoC4/Cm0Start.c ****     #define CY_NUM_ROM_VECTORS      (CY_NUM_VECTORS)
  39:Generated_Source\PSoC4/Cm0Start.c **** #else
  40:Generated_Source\PSoC4/Cm0Start.c ****     #define CY_NUM_ROM_VECTORS      (4u)
  41:Generated_Source\PSoC4/Cm0Start.c **** #endif  /* defined (__ICCARM__) */
  42:Generated_Source\PSoC4/Cm0Start.c **** 
  43:Generated_Source\PSoC4/Cm0Start.c **** /* Vector table address in SRAM */
  44:Generated_Source\PSoC4/Cm0Start.c **** #define CY_CPUSS_CONFIG_VECT_ADDR_IN_RAM    (0x20000000u)
  45:Generated_Source\PSoC4/Cm0Start.c **** 
  46:Generated_Source\PSoC4/Cm0Start.c **** #ifndef CY_SYS_INITIAL_STACK_POINTER
  47:Generated_Source\PSoC4/Cm0Start.c **** 
  48:Generated_Source\PSoC4/Cm0Start.c ****     #if defined(__ARMCC_VERSION)
  49:Generated_Source\PSoC4/Cm0Start.c ****         #define CY_SYS_INITIAL_STACK_POINTER ((cyisraddress)(uint32)&Image$$ARM_LIB_STACK$$ZI$$Limi
  50:Generated_Source\PSoC4/Cm0Start.c ****     #elif defined (__GNUC__)
  51:Generated_Source\PSoC4/Cm0Start.c ****         #define CY_SYS_INITIAL_STACK_POINTER (&__cy_stack)
  52:Generated_Source\PSoC4/Cm0Start.c ****     #elif defined (__ICCARM__)
  53:Generated_Source\PSoC4/Cm0Start.c ****         #pragma language=extended
  54:Generated_Source\PSoC4/Cm0Start.c ****         #pragma segment="CSTACK"
  55:Generated_Source\PSoC4/Cm0Start.c ****         #define CY_SYS_INITIAL_STACK_POINTER  { .__ptr = __sfe( "CSTACK" ) }
  56:Generated_Source\PSoC4/Cm0Start.c **** 
  57:Generated_Source\PSoC4/Cm0Start.c ****         extern void __iar_program_start( void );
  58:Generated_Source\PSoC4/Cm0Start.c ****         extern void __iar_data_init3 (void);
  59:Generated_Source\PSoC4/Cm0Start.c ****     #endif  /* (__ARMCC_VERSION) */
  60:Generated_Source\PSoC4/Cm0Start.c **** 
  61:Generated_Source\PSoC4/Cm0Start.c **** #endif /* CY_SYS_INITIAL_STACK_POINTER */
  62:Generated_Source\PSoC4/Cm0Start.c **** 
  63:Generated_Source\PSoC4/Cm0Start.c **** 
  64:Generated_Source\PSoC4/Cm0Start.c **** #if defined(__GNUC__)
  65:Generated_Source\PSoC4/Cm0Start.c ****     #include <errno.h>
  66:Generated_Source\PSoC4/Cm0Start.c ****     extern int  errno;
  67:Generated_Source\PSoC4/Cm0Start.c ****     extern int  end;
  68:Generated_Source\PSoC4/Cm0Start.c **** #endif  /* defined(__GNUC__) */
  69:Generated_Source\PSoC4/Cm0Start.c **** 
  70:Generated_Source\PSoC4/Cm0Start.c **** /* Extern functions */
  71:Generated_Source\PSoC4/Cm0Start.c **** extern void CyBtldr_CheckLaunch(void);
  72:Generated_Source\PSoC4/Cm0Start.c **** 
  73:Generated_Source\PSoC4/Cm0Start.c **** /* Function prototypes */
  74:Generated_Source\PSoC4/Cm0Start.c **** void initialize_psoc(void);
  75:Generated_Source\PSoC4/Cm0Start.c **** 
  76:Generated_Source\PSoC4/Cm0Start.c **** /* Global variables */
  77:Generated_Source\PSoC4/Cm0Start.c **** #if !defined (__ICCARM__)
  78:Generated_Source\PSoC4/Cm0Start.c ****     CY_NOINIT static uint32 cySysNoInitDataValid;
  79:Generated_Source\PSoC4/Cm0Start.c **** #endif  /* !defined (__ICCARM__) */
  80:Generated_Source\PSoC4/Cm0Start.c **** 
  81:Generated_Source\PSoC4/Cm0Start.c **** 
ARM GAS  C:\Users\diego\AppData\Local\Temp\cc4VDpYc.s 			page 3


  82:Generated_Source\PSoC4/Cm0Start.c **** #if (CYDEV_PROJ_TYPE != CYDEV_PROJ_TYPE_STANDARD)
  83:Generated_Source\PSoC4/Cm0Start.c **** 
  84:Generated_Source\PSoC4/Cm0Start.c ****     /*******************************************************************************
  85:Generated_Source\PSoC4/Cm0Start.c ****     This variable is used by the Bootloader/Bootloadable components to schedule
  86:Generated_Source\PSoC4/Cm0Start.c ****     what application will be started after a software reset.
  87:Generated_Source\PSoC4/Cm0Start.c ****     *******************************************************************************/
  88:Generated_Source\PSoC4/Cm0Start.c ****     #if (__ARMCC_VERSION)
  89:Generated_Source\PSoC4/Cm0Start.c ****         __attribute__ ((section(".bootloaderruntype"), zero_init))
  90:Generated_Source\PSoC4/Cm0Start.c ****     #elif defined (__GNUC__)
  91:Generated_Source\PSoC4/Cm0Start.c ****         __attribute__ ((section(".bootloaderruntype")))
  92:Generated_Source\PSoC4/Cm0Start.c ****     #elif defined (__ICCARM__)
  93:Generated_Source\PSoC4/Cm0Start.c ****         #pragma location=".bootloaderruntype"
  94:Generated_Source\PSoC4/Cm0Start.c ****     #endif /* (__ARMCC_VERSION) */
  95:Generated_Source\PSoC4/Cm0Start.c ****     volatile uint32 cyBtldrRunType;
  96:Generated_Source\PSoC4/Cm0Start.c **** 
  97:Generated_Source\PSoC4/Cm0Start.c **** #endif  /* (CYDEV_PROJ_TYPE != CYDEV_PROJ_TYPE_STANDARD) */
  98:Generated_Source\PSoC4/Cm0Start.c **** 
  99:Generated_Source\PSoC4/Cm0Start.c **** 
 100:Generated_Source\PSoC4/Cm0Start.c **** /*******************************************************************************
 101:Generated_Source\PSoC4/Cm0Start.c **** * Function Name: IntDefaultHandler
 102:Generated_Source\PSoC4/Cm0Start.c **** ****************************************************************************//**
 103:Generated_Source\PSoC4/Cm0Start.c **** *
 104:Generated_Source\PSoC4/Cm0Start.c **** *  This function is called for all interrupts, other than a reset that is called
 105:Generated_Source\PSoC4/Cm0Start.c **** *  before the system is setup.
 106:Generated_Source\PSoC4/Cm0Start.c **** *
 107:Generated_Source\PSoC4/Cm0Start.c **** *******************************************************************************/
 108:Generated_Source\PSoC4/Cm0Start.c **** CY_NORETURN
 109:Generated_Source\PSoC4/Cm0Start.c **** CY_ISR(IntDefaultHandler)
 110:Generated_Source\PSoC4/Cm0Start.c **** {
  34              		.loc 1 110 0
  35              		.cfi_startproc
  36              		@ args = 0, pretend = 0, frame = 0
  37              		@ frame_needed = 1, uses_anonymous_args = 0
  38 0000 80B5     		push	{r7, lr}
  39              		.cfi_def_cfa_offset 8
  40              		.cfi_offset 7, -8
  41              		.cfi_offset 14, -4
  42 0002 00AF     		add	r7, sp, #0
  43              		.cfi_def_cfa_register 7
 111:Generated_Source\PSoC4/Cm0Start.c ****     /***************************************************************************
 112:Generated_Source\PSoC4/Cm0Start.c ****     * We must not get here. If we do, a serious problem occurs, so go into
 113:Generated_Source\PSoC4/Cm0Start.c ****     * an infinite loop.
 114:Generated_Source\PSoC4/Cm0Start.c ****     ***************************************************************************/
 115:Generated_Source\PSoC4/Cm0Start.c **** 
 116:Generated_Source\PSoC4/Cm0Start.c ****     #if defined(__GNUC__)
 117:Generated_Source\PSoC4/Cm0Start.c ****         if (errno == ENOMEM)
  44              		.loc 1 117 0
  45 0004 FFF7FEFF 		bl	__errno
  46 0008 0300     		movs	r3, r0
  47 000a 1B68     		ldr	r3, [r3]
  48 000c 0C2B     		cmp	r3, #12
  49 000e 00D1     		bne	.L2
  50              	.L3:
 118:Generated_Source\PSoC4/Cm0Start.c ****         {
 119:Generated_Source\PSoC4/Cm0Start.c ****             #ifdef CY_BOOT_INT_DEFAULT_HANDLER_ENOMEM_EXCEPTION_CALLBACK
 120:Generated_Source\PSoC4/Cm0Start.c ****                 CyBoot_IntDefaultHandler_Enomem_Exception_Callback();
 121:Generated_Source\PSoC4/Cm0Start.c ****             #endif /* CY_BOOT_INT_DEFAULT_HANDLER_ENOMEM_EXCEPTION_CALLBACK */
ARM GAS  C:\Users\diego\AppData\Local\Temp\cc4VDpYc.s 			page 4


 122:Generated_Source\PSoC4/Cm0Start.c ****             
 123:Generated_Source\PSoC4/Cm0Start.c ****             while(1)
 124:Generated_Source\PSoC4/Cm0Start.c ****             {
 125:Generated_Source\PSoC4/Cm0Start.c ****                 /* Out Of Heap Space
 126:Generated_Source\PSoC4/Cm0Start.c ****                  * This can be increased in the System tab of the Design Wide Resources.
 127:Generated_Source\PSoC4/Cm0Start.c ****                  */
 128:Generated_Source\PSoC4/Cm0Start.c ****             }
  51              		.loc 1 128 0 discriminator 1
  52 0010 FEE7     		b	.L3
  53              	.L2:
 129:Generated_Source\PSoC4/Cm0Start.c ****         }
 130:Generated_Source\PSoC4/Cm0Start.c ****         else
 131:Generated_Source\PSoC4/Cm0Start.c ****     #endif
 132:Generated_Source\PSoC4/Cm0Start.c ****         {
 133:Generated_Source\PSoC4/Cm0Start.c ****             #ifdef CY_BOOT_INT_DEFAULT_HANDLER_EXCEPTION_ENTRY_CALLBACK
 134:Generated_Source\PSoC4/Cm0Start.c ****                 CyBoot_IntDefaultHandler_Exception_EntryCallback();
 135:Generated_Source\PSoC4/Cm0Start.c ****             #endif /* CY_BOOT_INT_DEFAULT_HANDLER_EXCEPTION_ENTRY_CALLBACK */
 136:Generated_Source\PSoC4/Cm0Start.c **** 
 137:Generated_Source\PSoC4/Cm0Start.c ****             while(1)
 138:Generated_Source\PSoC4/Cm0Start.c ****             {
 139:Generated_Source\PSoC4/Cm0Start.c **** 
 140:Generated_Source\PSoC4/Cm0Start.c ****             }
  54              		.loc 1 140 0 discriminator 2
  55 0012 FEE7     		b	.L2
  56              		.cfi_endproc
  57              	.LFE2:
  58              		.size	IntDefaultHandler, .-IntDefaultHandler
  59              		.section	.text._exit,"ax",%progbits
  60              		.align	2
  61              		.weak	_exit
  62              		.code	16
  63              		.thumb_func
  64              		.type	_exit, %function
  65              	_exit:
  66              	.LFB3:
 141:Generated_Source\PSoC4/Cm0Start.c ****         }
 142:Generated_Source\PSoC4/Cm0Start.c **** }
 143:Generated_Source\PSoC4/Cm0Start.c **** 
 144:Generated_Source\PSoC4/Cm0Start.c **** #if defined(__ARMCC_VERSION)
 145:Generated_Source\PSoC4/Cm0Start.c **** 
 146:Generated_Source\PSoC4/Cm0Start.c **** /* Local function for device reset. */
 147:Generated_Source\PSoC4/Cm0Start.c **** extern void Reset(void);
 148:Generated_Source\PSoC4/Cm0Start.c **** 
 149:Generated_Source\PSoC4/Cm0Start.c **** /* Application entry point. */
 150:Generated_Source\PSoC4/Cm0Start.c **** extern void $Super$$main(void);
 151:Generated_Source\PSoC4/Cm0Start.c **** 
 152:Generated_Source\PSoC4/Cm0Start.c **** /* Linker-generated Stack Base addresses, Two Region and One Region */
 153:Generated_Source\PSoC4/Cm0Start.c **** extern unsigned long Image$$ARM_LIB_STACK$$ZI$$Limit;
 154:Generated_Source\PSoC4/Cm0Start.c **** 
 155:Generated_Source\PSoC4/Cm0Start.c **** /* RealView C Library initialization. */
 156:Generated_Source\PSoC4/Cm0Start.c **** extern int __main(void);
 157:Generated_Source\PSoC4/Cm0Start.c **** 
 158:Generated_Source\PSoC4/Cm0Start.c **** 
 159:Generated_Source\PSoC4/Cm0Start.c **** /*******************************************************************************
 160:Generated_Source\PSoC4/Cm0Start.c **** * Function Name: Reset
 161:Generated_Source\PSoC4/Cm0Start.c **** ****************************************************************************//**
 162:Generated_Source\PSoC4/Cm0Start.c **** *
ARM GAS  C:\Users\diego\AppData\Local\Temp\cc4VDpYc.s 			page 5


 163:Generated_Source\PSoC4/Cm0Start.c **** * This function handles the reset interrupt for the MDK toolchains.
 164:Generated_Source\PSoC4/Cm0Start.c **** * This is the first bit of code that is executed at startup.
 165:Generated_Source\PSoC4/Cm0Start.c **** *
 166:Generated_Source\PSoC4/Cm0Start.c **** *******************************************************************************/
 167:Generated_Source\PSoC4/Cm0Start.c **** void Reset(void)
 168:Generated_Source\PSoC4/Cm0Start.c **** {
 169:Generated_Source\PSoC4/Cm0Start.c ****     #if (CYDEV_PROJ_TYPE == CYDEV_PROJ_TYPE_LOADABLE || CYDEV_PROJ_TYPE == CYDEV_PROJ_TYPE_LOADABLE
 170:Generated_Source\PSoC4/Cm0Start.c ****         /* The bootloadable application image is started at Reset() handler
 171:Generated_Source\PSoC4/Cm0Start.c ****         * as a result of a branch instruction execution from the bootloader.
 172:Generated_Source\PSoC4/Cm0Start.c ****         * So, the stack pointer needs to be reset to be sure that
 173:Generated_Source\PSoC4/Cm0Start.c ****         * there is no garbage in the stack.
 174:Generated_Source\PSoC4/Cm0Start.c ****         */
 175:Generated_Source\PSoC4/Cm0Start.c ****         register uint32_t msp __asm("msp");
 176:Generated_Source\PSoC4/Cm0Start.c ****         msp = (uint32_t)&Image$$ARM_LIB_STACK$$ZI$$Limit;
 177:Generated_Source\PSoC4/Cm0Start.c ****     #endif /*(CYDEV_PROJ_TYPE == CYDEV_PROJ_TYPE_LOADABLE || CYDEV_PROJ_TYPE == CYDEV_PROJ_TYPE_LOA
 178:Generated_Source\PSoC4/Cm0Start.c **** 
 179:Generated_Source\PSoC4/Cm0Start.c ****     #if(CY_IP_SRSSLT)
 180:Generated_Source\PSoC4/Cm0Start.c ****         CySysWdtDisable();
 181:Generated_Source\PSoC4/Cm0Start.c ****     #endif  /* (CY_IP_SRSSLT) */
 182:Generated_Source\PSoC4/Cm0Start.c **** 
 183:Generated_Source\PSoC4/Cm0Start.c ****     #if ((CYDEV_BOOTLOADER_ENABLE) && (CYDEV_PROJ_TYPE != CYDEV_PROJ_TYPE_LOADABLEANDBOOTLOADER))
 184:Generated_Source\PSoC4/Cm0Start.c ****         CyBtldr_CheckLaunch();
 185:Generated_Source\PSoC4/Cm0Start.c ****     #endif /* ((CYDEV_BOOTLOADER_ENABLE) && (CYDEV_PROJ_TYPE != CYDEV_PROJ_TYPE_LOADABLEANDBOOTLOAD
 186:Generated_Source\PSoC4/Cm0Start.c **** 
 187:Generated_Source\PSoC4/Cm0Start.c ****     __main();
 188:Generated_Source\PSoC4/Cm0Start.c **** }
 189:Generated_Source\PSoC4/Cm0Start.c **** 
 190:Generated_Source\PSoC4/Cm0Start.c **** /*******************************************************************************
 191:Generated_Source\PSoC4/Cm0Start.c **** * Function Name: $Sub$$main
 192:Generated_Source\PSoC4/Cm0Start.c **** ****************************************************************************//**
 193:Generated_Source\PSoC4/Cm0Start.c **** *
 194:Generated_Source\PSoC4/Cm0Start.c **** * This function is called immediately before the users main
 195:Generated_Source\PSoC4/Cm0Start.c **** *
 196:Generated_Source\PSoC4/Cm0Start.c **** *******************************************************************************/
 197:Generated_Source\PSoC4/Cm0Start.c **** __attribute__ ((noreturn, __noinline__))
 198:Generated_Source\PSoC4/Cm0Start.c **** void $Sub$$main(void)
 199:Generated_Source\PSoC4/Cm0Start.c **** {
 200:Generated_Source\PSoC4/Cm0Start.c ****     initialize_psoc();
 201:Generated_Source\PSoC4/Cm0Start.c **** 
 202:Generated_Source\PSoC4/Cm0Start.c ****     /* Call original main */
 203:Generated_Source\PSoC4/Cm0Start.c ****     $Super$$main();
 204:Generated_Source\PSoC4/Cm0Start.c **** 
 205:Generated_Source\PSoC4/Cm0Start.c ****     while (1)
 206:Generated_Source\PSoC4/Cm0Start.c ****     {
 207:Generated_Source\PSoC4/Cm0Start.c ****         /* If main returns it is undefined what we should do. */
 208:Generated_Source\PSoC4/Cm0Start.c ****     }
 209:Generated_Source\PSoC4/Cm0Start.c **** }
 210:Generated_Source\PSoC4/Cm0Start.c **** 
 211:Generated_Source\PSoC4/Cm0Start.c **** #elif defined(__GNUC__)
 212:Generated_Source\PSoC4/Cm0Start.c **** 
 213:Generated_Source\PSoC4/Cm0Start.c **** /* Stack Base address */
 214:Generated_Source\PSoC4/Cm0Start.c **** extern void __cy_stack(void);
 215:Generated_Source\PSoC4/Cm0Start.c **** 
 216:Generated_Source\PSoC4/Cm0Start.c **** /* Application entry point. */
 217:Generated_Source\PSoC4/Cm0Start.c **** extern int main(void);
 218:Generated_Source\PSoC4/Cm0Start.c **** 
 219:Generated_Source\PSoC4/Cm0Start.c **** /* The static objects constructors initializer */
ARM GAS  C:\Users\diego\AppData\Local\Temp\cc4VDpYc.s 			page 6


 220:Generated_Source\PSoC4/Cm0Start.c **** extern void __libc_init_array(void);
 221:Generated_Source\PSoC4/Cm0Start.c **** 
 222:Generated_Source\PSoC4/Cm0Start.c **** typedef unsigned char __cy_byte_align8 __attribute ((aligned (8)));
 223:Generated_Source\PSoC4/Cm0Start.c **** 
 224:Generated_Source\PSoC4/Cm0Start.c **** struct __cy_region
 225:Generated_Source\PSoC4/Cm0Start.c **** {
 226:Generated_Source\PSoC4/Cm0Start.c ****     __cy_byte_align8 *init; /* Initial contents of this region.  */
 227:Generated_Source\PSoC4/Cm0Start.c ****     __cy_byte_align8 *data; /* Start address of region.  */
 228:Generated_Source\PSoC4/Cm0Start.c ****     size_t init_size;       /* Size of initial data.  */
 229:Generated_Source\PSoC4/Cm0Start.c ****     size_t zero_size;       /* Additional size to be zeroed.  */
 230:Generated_Source\PSoC4/Cm0Start.c **** };
 231:Generated_Source\PSoC4/Cm0Start.c **** 
 232:Generated_Source\PSoC4/Cm0Start.c **** extern const struct __cy_region __cy_regions[];
 233:Generated_Source\PSoC4/Cm0Start.c **** extern const char __cy_region_num __attribute__((weak));
 234:Generated_Source\PSoC4/Cm0Start.c **** #define __cy_region_num ((size_t)&__cy_region_num)
 235:Generated_Source\PSoC4/Cm0Start.c **** 
 236:Generated_Source\PSoC4/Cm0Start.c **** 
 237:Generated_Source\PSoC4/Cm0Start.c **** /*******************************************************************************
 238:Generated_Source\PSoC4/Cm0Start.c **** * System Calls of the Red Hat newlib C Library
 239:Generated_Source\PSoC4/Cm0Start.c **** *******************************************************************************/
 240:Generated_Source\PSoC4/Cm0Start.c **** 
 241:Generated_Source\PSoC4/Cm0Start.c **** 
 242:Generated_Source\PSoC4/Cm0Start.c **** /*******************************************************************************
 243:Generated_Source\PSoC4/Cm0Start.c **** * Function Name: _exit
 244:Generated_Source\PSoC4/Cm0Start.c **** ****************************************************************************//**
 245:Generated_Source\PSoC4/Cm0Start.c **** *
 246:Generated_Source\PSoC4/Cm0Start.c **** * Exit a program without cleaning up files. If your system doesn't provide
 247:Generated_Source\PSoC4/Cm0Start.c **** * this, it is best to avoid linking with subroutines that require it (exit,
 248:Generated_Source\PSoC4/Cm0Start.c **** * system).
 249:Generated_Source\PSoC4/Cm0Start.c **** *
 250:Generated_Source\PSoC4/Cm0Start.c **** * \param status: Status caused program exit.
 251:Generated_Source\PSoC4/Cm0Start.c **** *
 252:Generated_Source\PSoC4/Cm0Start.c **** *******************************************************************************/
 253:Generated_Source\PSoC4/Cm0Start.c **** __attribute__((weak))
 254:Generated_Source\PSoC4/Cm0Start.c **** void _exit(int status)
 255:Generated_Source\PSoC4/Cm0Start.c **** {
  67              		.loc 1 255 0
  68              		.cfi_startproc
  69              		@ args = 0, pretend = 0, frame = 8
  70              		@ frame_needed = 1, uses_anonymous_args = 0
  71 0000 80B5     		push	{r7, lr}
  72              		.cfi_def_cfa_offset 8
  73              		.cfi_offset 7, -8
  74              		.cfi_offset 14, -4
  75 0002 82B0     		sub	sp, sp, #8
  76              		.cfi_def_cfa_offset 16
  77 0004 00AF     		add	r7, sp, #0
  78              		.cfi_def_cfa_register 7
  79 0006 7860     		str	r0, [r7, #4]
 256:Generated_Source\PSoC4/Cm0Start.c ****     CyHalt((uint8) status);
  80              		.loc 1 256 0
  81 0008 7B68     		ldr	r3, [r7, #4]
  82 000a DBB2     		uxtb	r3, r3
  83 000c 1800     		movs	r0, r3
  84 000e FFF7FEFF 		bl	CyHalt
  85              	.L5:
 257:Generated_Source\PSoC4/Cm0Start.c **** 
ARM GAS  C:\Users\diego\AppData\Local\Temp\cc4VDpYc.s 			page 7


 258:Generated_Source\PSoC4/Cm0Start.c ****     while(1)
 259:Generated_Source\PSoC4/Cm0Start.c ****     {
 260:Generated_Source\PSoC4/Cm0Start.c **** 
 261:Generated_Source\PSoC4/Cm0Start.c ****     }
  86              		.loc 1 261 0 discriminator 1
  87 0012 FEE7     		b	.L5
  88              		.cfi_endproc
  89              	.LFE3:
  90              		.size	_exit, .-_exit
  91              		.section	.text._sbrk,"ax",%progbits
  92              		.align	2
  93              		.weak	_sbrk
  94              		.code	16
  95              		.thumb_func
  96              		.type	_sbrk, %function
  97              	_sbrk:
  98              	.LFB4:
 262:Generated_Source\PSoC4/Cm0Start.c **** }
 263:Generated_Source\PSoC4/Cm0Start.c **** 
 264:Generated_Source\PSoC4/Cm0Start.c **** 
 265:Generated_Source\PSoC4/Cm0Start.c **** /*******************************************************************************
 266:Generated_Source\PSoC4/Cm0Start.c **** * Function Name: _sbrk
 267:Generated_Source\PSoC4/Cm0Start.c **** ****************************************************************************//**
 268:Generated_Source\PSoC4/Cm0Start.c **** *
 269:Generated_Source\PSoC4/Cm0Start.c **** * Increase program data space. As malloc and related functions depend on this,
 270:Generated_Source\PSoC4/Cm0Start.c **** * it is useful to have a working implementation. The following suffices for a
 271:Generated_Source\PSoC4/Cm0Start.c **** * standalone system; it exploits the symbol end automatically defined by the
 272:Generated_Source\PSoC4/Cm0Start.c **** * GNU linker.
 273:Generated_Source\PSoC4/Cm0Start.c **** *
 274:Generated_Source\PSoC4/Cm0Start.c **** * \param nbytes: The number of bytes requested (if the parameter value is positive)
 275:Generated_Source\PSoC4/Cm0Start.c **** * from the heap or returned back to the heap (if the parameter value is
 276:Generated_Source\PSoC4/Cm0Start.c **** * negative).
 277:Generated_Source\PSoC4/Cm0Start.c **** *
 278:Generated_Source\PSoC4/Cm0Start.c **** *******************************************************************************/
 279:Generated_Source\PSoC4/Cm0Start.c **** __attribute__((weak))
 280:Generated_Source\PSoC4/Cm0Start.c **** void * _sbrk (int nbytes)
 281:Generated_Source\PSoC4/Cm0Start.c **** {
  99              		.loc 1 281 0
 100              		.cfi_startproc
 101              		@ args = 0, pretend = 0, frame = 16
 102              		@ frame_needed = 1, uses_anonymous_args = 0
 103 0000 80B5     		push	{r7, lr}
 104              		.cfi_def_cfa_offset 8
 105              		.cfi_offset 7, -8
 106              		.cfi_offset 14, -4
 107 0002 84B0     		sub	sp, sp, #16
 108              		.cfi_def_cfa_offset 24
 109 0004 00AF     		add	r7, sp, #0
 110              		.cfi_def_cfa_register 7
 111 0006 7860     		str	r0, [r7, #4]
 282:Generated_Source\PSoC4/Cm0Start.c ****     extern int  end;            /* Symbol defined by linker map. Start of free memory (as symbol). 
 283:Generated_Source\PSoC4/Cm0Start.c ****     void *      returnValue;
 284:Generated_Source\PSoC4/Cm0Start.c **** 
 285:Generated_Source\PSoC4/Cm0Start.c ****     /* The statically held previous end of the heap, with its initialization. */
 286:Generated_Source\PSoC4/Cm0Start.c ****     static uint8 *heapPointer = (uint8 *) &end;                 /* Previous end */
 287:Generated_Source\PSoC4/Cm0Start.c **** 
 288:Generated_Source\PSoC4/Cm0Start.c ****     if (((heapPointer + nbytes) - (uint8 *) &end) <= CYDEV_HEAP_SIZE)
ARM GAS  C:\Users\diego\AppData\Local\Temp\cc4VDpYc.s 			page 8


 112              		.loc 1 288 0
 113 0008 104B     		ldr	r3, .L10
 114 000a 1A68     		ldr	r2, [r3]
 115 000c 7B68     		ldr	r3, [r7, #4]
 116 000e D318     		adds	r3, r2, r3
 117 0010 1A00     		movs	r2, r3
 118 0012 0F4B     		ldr	r3, .L10+4
 119 0014 D21A     		subs	r2, r2, r3
 120 0016 8023     		movs	r3, #128
 121 0018 DB00     		lsls	r3, r3, #3
 122 001a 9A42     		cmp	r2, r3
 123 001c 09DC     		bgt	.L7
 289:Generated_Source\PSoC4/Cm0Start.c ****     {
 290:Generated_Source\PSoC4/Cm0Start.c ****         returnValue  = (void *) heapPointer;
 124              		.loc 1 290 0
 125 001e 0B4B     		ldr	r3, .L10
 126 0020 1B68     		ldr	r3, [r3]
 127 0022 FB60     		str	r3, [r7, #12]
 291:Generated_Source\PSoC4/Cm0Start.c ****         heapPointer += nbytes;
 128              		.loc 1 291 0
 129 0024 094B     		ldr	r3, .L10
 130 0026 1A68     		ldr	r2, [r3]
 131 0028 7B68     		ldr	r3, [r7, #4]
 132 002a D218     		adds	r2, r2, r3
 133 002c 074B     		ldr	r3, .L10
 134 002e 1A60     		str	r2, [r3]
 135 0030 07E0     		b	.L8
 136              	.L7:
 292:Generated_Source\PSoC4/Cm0Start.c ****     }
 293:Generated_Source\PSoC4/Cm0Start.c ****     else
 294:Generated_Source\PSoC4/Cm0Start.c ****     {
 295:Generated_Source\PSoC4/Cm0Start.c ****         errno = ENOMEM;
 137              		.loc 1 295 0
 138 0032 FFF7FEFF 		bl	__errno
 139 0036 0300     		movs	r3, r0
 140 0038 0C22     		movs	r2, #12
 141 003a 1A60     		str	r2, [r3]
 296:Generated_Source\PSoC4/Cm0Start.c ****         returnValue = (void *) -1;
 142              		.loc 1 296 0
 143 003c 0123     		movs	r3, #1
 144 003e 5B42     		rsbs	r3, r3, #0
 145 0040 FB60     		str	r3, [r7, #12]
 146              	.L8:
 297:Generated_Source\PSoC4/Cm0Start.c ****     }
 298:Generated_Source\PSoC4/Cm0Start.c **** 
 299:Generated_Source\PSoC4/Cm0Start.c ****     return (returnValue);
 147              		.loc 1 299 0
 148 0042 FB68     		ldr	r3, [r7, #12]
 300:Generated_Source\PSoC4/Cm0Start.c **** }
 149              		.loc 1 300 0
 150 0044 1800     		movs	r0, r3
 151 0046 BD46     		mov	sp, r7
 152 0048 04B0     		add	sp, sp, #16
 153              		@ sp needed
 154 004a 80BD     		pop	{r7, pc}
 155              	.L11:
 156              		.align	2
ARM GAS  C:\Users\diego\AppData\Local\Temp\cc4VDpYc.s 			page 9


 157              	.L10:
 158 004c 00000000 		.word	heapPointer.4884
 159 0050 00000000 		.word	end
 160              		.cfi_endproc
 161              	.LFE4:
 162              		.size	_sbrk, .-_sbrk
 163              		.section	.text.Start_c,"ax",%progbits
 164              		.align	2
 165              		.global	Start_c
 166              		.code	16
 167              		.thumb_func
 168              		.type	Start_c, %function
 169              	Start_c:
 170              	.LFB5:
 301:Generated_Source\PSoC4/Cm0Start.c **** 
 302:Generated_Source\PSoC4/Cm0Start.c **** 
 303:Generated_Source\PSoC4/Cm0Start.c **** /*******************************************************************************
 304:Generated_Source\PSoC4/Cm0Start.c **** * Function Name: Start_c
 305:Generated_Source\PSoC4/Cm0Start.c **** ****************************************************************************//**
 306:Generated_Source\PSoC4/Cm0Start.c **** *
 307:Generated_Source\PSoC4/Cm0Start.c **** * This function handles initializing the .data and .bss sections in
 308:Generated_Source\PSoC4/Cm0Start.c **** * preparation for running the standard c code.  Once initialization is complete
 309:Generated_Source\PSoC4/Cm0Start.c **** * it will call main().  This function will never return.
 310:Generated_Source\PSoC4/Cm0Start.c **** *
 311:Generated_Source\PSoC4/Cm0Start.c **** *******************************************************************************/
 312:Generated_Source\PSoC4/Cm0Start.c **** void Start_c(void)  __attribute__ ((noreturn, noinline));
 313:Generated_Source\PSoC4/Cm0Start.c **** void Start_c(void)
 314:Generated_Source\PSoC4/Cm0Start.c **** {
 171              		.loc 1 314 0
 172              		.cfi_startproc
 173              		@ args = 0, pretend = 0, frame = 24
 174              		@ frame_needed = 1, uses_anonymous_args = 0
 175 0000 80B5     		push	{r7, lr}
 176              		.cfi_def_cfa_offset 8
 177              		.cfi_offset 7, -8
 178              		.cfi_offset 14, -4
 179 0002 86B0     		sub	sp, sp, #24
 180              		.cfi_def_cfa_offset 32
 181 0004 00AF     		add	r7, sp, #0
 182              		.cfi_def_cfa_register 7
 315:Generated_Source\PSoC4/Cm0Start.c ****     #ifdef CY_BOOT_START_C_CALLBACK
 316:Generated_Source\PSoC4/Cm0Start.c ****         CyBoot_Start_c_Callback();
 317:Generated_Source\PSoC4/Cm0Start.c ****     #else
 318:Generated_Source\PSoC4/Cm0Start.c ****         unsigned regions = __cy_region_num;
 183              		.loc 1 318 0
 184 0006 224B     		ldr	r3, .L20
 185 0008 7B61     		str	r3, [r7, #20]
 319:Generated_Source\PSoC4/Cm0Start.c ****         const struct __cy_region *rptr = __cy_regions;
 186              		.loc 1 319 0
 187 000a 224B     		ldr	r3, .L20+4
 188 000c 3B61     		str	r3, [r7, #16]
 320:Generated_Source\PSoC4/Cm0Start.c **** 
 321:Generated_Source\PSoC4/Cm0Start.c ****         /* Initialize memory */
 322:Generated_Source\PSoC4/Cm0Start.c ****         for (regions = __cy_region_num; regions != 0u; regions--)
 189              		.loc 1 322 0
 190 000e 204B     		ldr	r3, .L20
 191 0010 7B61     		str	r3, [r7, #20]
ARM GAS  C:\Users\diego\AppData\Local\Temp\cc4VDpYc.s 			page 10


 192 0012 35E0     		b	.L13
 193              	.L18:
 194              	.LBB2:
 323:Generated_Source\PSoC4/Cm0Start.c ****         {
 324:Generated_Source\PSoC4/Cm0Start.c ****             uint32 *src = (uint32 *)rptr->init;
 195              		.loc 1 324 0
 196 0014 3B69     		ldr	r3, [r7, #16]
 197 0016 1B68     		ldr	r3, [r3]
 198 0018 FB60     		str	r3, [r7, #12]
 325:Generated_Source\PSoC4/Cm0Start.c ****             uint32 *dst = (uint32 *)rptr->data;
 199              		.loc 1 325 0
 200 001a 3B69     		ldr	r3, [r7, #16]
 201 001c 5B68     		ldr	r3, [r3, #4]
 202 001e BB60     		str	r3, [r7, #8]
 326:Generated_Source\PSoC4/Cm0Start.c ****             unsigned limit = rptr->init_size;
 203              		.loc 1 326 0
 204 0020 3B69     		ldr	r3, [r7, #16]
 205 0022 9B68     		ldr	r3, [r3, #8]
 206 0024 3B60     		str	r3, [r7]
 327:Generated_Source\PSoC4/Cm0Start.c ****             unsigned count;
 328:Generated_Source\PSoC4/Cm0Start.c **** 
 329:Generated_Source\PSoC4/Cm0Start.c ****             for (count = 0u; count != limit; count += sizeof (uint32))
 207              		.loc 1 329 0
 208 0026 0023     		movs	r3, #0
 209 0028 7B60     		str	r3, [r7, #4]
 210 002a 0CE0     		b	.L14
 211              	.L15:
 330:Generated_Source\PSoC4/Cm0Start.c ****             {
 331:Generated_Source\PSoC4/Cm0Start.c ****                 *dst = *src;
 212              		.loc 1 331 0 discriminator 3
 213 002c FB68     		ldr	r3, [r7, #12]
 214 002e 1A68     		ldr	r2, [r3]
 215 0030 BB68     		ldr	r3, [r7, #8]
 216 0032 1A60     		str	r2, [r3]
 332:Generated_Source\PSoC4/Cm0Start.c ****                 dst++;
 217              		.loc 1 332 0 discriminator 3
 218 0034 BB68     		ldr	r3, [r7, #8]
 219 0036 0433     		adds	r3, r3, #4
 220 0038 BB60     		str	r3, [r7, #8]
 333:Generated_Source\PSoC4/Cm0Start.c ****                 src++;
 221              		.loc 1 333 0 discriminator 3
 222 003a FB68     		ldr	r3, [r7, #12]
 223 003c 0433     		adds	r3, r3, #4
 224 003e FB60     		str	r3, [r7, #12]
 329:Generated_Source\PSoC4/Cm0Start.c ****             {
 225              		.loc 1 329 0 discriminator 3
 226 0040 7B68     		ldr	r3, [r7, #4]
 227 0042 0433     		adds	r3, r3, #4
 228 0044 7B60     		str	r3, [r7, #4]
 229              	.L14:
 329:Generated_Source\PSoC4/Cm0Start.c ****             {
 230              		.loc 1 329 0 is_stmt 0 discriminator 1
 231 0046 7A68     		ldr	r2, [r7, #4]
 232 0048 3B68     		ldr	r3, [r7]
 233 004a 9A42     		cmp	r2, r3
 234 004c EED1     		bne	.L15
 334:Generated_Source\PSoC4/Cm0Start.c ****             }
ARM GAS  C:\Users\diego\AppData\Local\Temp\cc4VDpYc.s 			page 11


 335:Generated_Source\PSoC4/Cm0Start.c ****             limit = rptr->zero_size;
 235              		.loc 1 335 0 is_stmt 1
 236 004e 3B69     		ldr	r3, [r7, #16]
 237 0050 DB68     		ldr	r3, [r3, #12]
 238 0052 3B60     		str	r3, [r7]
 336:Generated_Source\PSoC4/Cm0Start.c ****             for (count = 0u; count != limit; count += sizeof (uint32))
 239              		.loc 1 336 0
 240 0054 0023     		movs	r3, #0
 241 0056 7B60     		str	r3, [r7, #4]
 242 0058 08E0     		b	.L16
 243              	.L17:
 337:Generated_Source\PSoC4/Cm0Start.c ****             {
 338:Generated_Source\PSoC4/Cm0Start.c ****                 *dst = 0u;
 244              		.loc 1 338 0 discriminator 3
 245 005a BB68     		ldr	r3, [r7, #8]
 246 005c 0022     		movs	r2, #0
 247 005e 1A60     		str	r2, [r3]
 339:Generated_Source\PSoC4/Cm0Start.c ****                 dst++;
 248              		.loc 1 339 0 discriminator 3
 249 0060 BB68     		ldr	r3, [r7, #8]
 250 0062 0433     		adds	r3, r3, #4
 251 0064 BB60     		str	r3, [r7, #8]
 336:Generated_Source\PSoC4/Cm0Start.c ****             for (count = 0u; count != limit; count += sizeof (uint32))
 252              		.loc 1 336 0 discriminator 3
 253 0066 7B68     		ldr	r3, [r7, #4]
 254 0068 0433     		adds	r3, r3, #4
 255 006a 7B60     		str	r3, [r7, #4]
 256              	.L16:
 336:Generated_Source\PSoC4/Cm0Start.c ****             for (count = 0u; count != limit; count += sizeof (uint32))
 257              		.loc 1 336 0 is_stmt 0 discriminator 1
 258 006c 7A68     		ldr	r2, [r7, #4]
 259 006e 3B68     		ldr	r3, [r7]
 260 0070 9A42     		cmp	r2, r3
 261 0072 F2D1     		bne	.L17
 340:Generated_Source\PSoC4/Cm0Start.c ****             }
 341:Generated_Source\PSoC4/Cm0Start.c **** 
 342:Generated_Source\PSoC4/Cm0Start.c ****             rptr++;
 262              		.loc 1 342 0 is_stmt 1 discriminator 2
 263 0074 3B69     		ldr	r3, [r7, #16]
 264 0076 1033     		adds	r3, r3, #16
 265 0078 3B61     		str	r3, [r7, #16]
 266              	.LBE2:
 322:Generated_Source\PSoC4/Cm0Start.c ****         {
 267              		.loc 1 322 0 discriminator 2
 268 007a 7B69     		ldr	r3, [r7, #20]
 269 007c 013B     		subs	r3, r3, #1
 270 007e 7B61     		str	r3, [r7, #20]
 271              	.L13:
 322:Generated_Source\PSoC4/Cm0Start.c ****         {
 272              		.loc 1 322 0 is_stmt 0 discriminator 1
 273 0080 7B69     		ldr	r3, [r7, #20]
 274 0082 002B     		cmp	r3, #0
 275 0084 C6D1     		bne	.L18
 343:Generated_Source\PSoC4/Cm0Start.c ****         }
 344:Generated_Source\PSoC4/Cm0Start.c **** 
 345:Generated_Source\PSoC4/Cm0Start.c ****         /* Invoke static objects constructors */
 346:Generated_Source\PSoC4/Cm0Start.c ****         __libc_init_array();
ARM GAS  C:\Users\diego\AppData\Local\Temp\cc4VDpYc.s 			page 12


 276              		.loc 1 346 0 is_stmt 1
 277 0086 FFF7FEFF 		bl	__libc_init_array
 347:Generated_Source\PSoC4/Cm0Start.c ****         (void) main();
 278              		.loc 1 347 0
 279 008a FFF7FEFF 		bl	main
 280              	.L19:
 348:Generated_Source\PSoC4/Cm0Start.c **** 
 349:Generated_Source\PSoC4/Cm0Start.c ****         while (1)
 350:Generated_Source\PSoC4/Cm0Start.c ****         {
 351:Generated_Source\PSoC4/Cm0Start.c ****             /* If main returns, make sure we don't return. */
 352:Generated_Source\PSoC4/Cm0Start.c ****         }
 281              		.loc 1 352 0 discriminator 1
 282 008e FEE7     		b	.L19
 283              	.L21:
 284              		.align	2
 285              	.L20:
 286 0090 00000000 		.word	__cy_region_num
 287 0094 00000000 		.word	__cy_regions
 288              		.cfi_endproc
 289              	.LFE5:
 290              		.size	Start_c, .-Start_c
 291              		.section	.text.Reset,"ax",%progbits
 292              		.align	2
 293              		.global	Reset
 294              		.code	16
 295              		.thumb_func
 296              		.type	Reset, %function
 297              	Reset:
 298              	.LFB6:
 353:Generated_Source\PSoC4/Cm0Start.c **** 
 354:Generated_Source\PSoC4/Cm0Start.c ****     #endif /* CY_BOOT_START_C_CALLBACK */
 355:Generated_Source\PSoC4/Cm0Start.c **** }
 356:Generated_Source\PSoC4/Cm0Start.c **** 
 357:Generated_Source\PSoC4/Cm0Start.c **** 
 358:Generated_Source\PSoC4/Cm0Start.c **** /*******************************************************************************
 359:Generated_Source\PSoC4/Cm0Start.c **** * Function Name: Reset
 360:Generated_Source\PSoC4/Cm0Start.c **** ****************************************************************************//**
 361:Generated_Source\PSoC4/Cm0Start.c **** *
 362:Generated_Source\PSoC4/Cm0Start.c **** * This function handles the reset interrupt for the GCC toolchain.  This is
 363:Generated_Source\PSoC4/Cm0Start.c **** * the first bit of code that is executed at startup.
 364:Generated_Source\PSoC4/Cm0Start.c **** *
 365:Generated_Source\PSoC4/Cm0Start.c **** *******************************************************************************/
 366:Generated_Source\PSoC4/Cm0Start.c **** void Reset(void)
 367:Generated_Source\PSoC4/Cm0Start.c **** {
 299              		.loc 1 367 0
 300              		.cfi_startproc
 301              		@ args = 0, pretend = 0, frame = 0
 302              		@ frame_needed = 1, uses_anonymous_args = 0
 303 0000 80B5     		push	{r7, lr}
 304              		.cfi_def_cfa_offset 8
 305              		.cfi_offset 7, -8
 306              		.cfi_offset 14, -4
 307 0002 00AF     		add	r7, sp, #0
 308              		.cfi_def_cfa_register 7
 368:Generated_Source\PSoC4/Cm0Start.c ****     #if (CYDEV_PROJ_TYPE == CYDEV_PROJ_TYPE_LOADABLE || CYDEV_PROJ_TYPE == CYDEV_PROJ_TYPE_LOADABLE
 369:Generated_Source\PSoC4/Cm0Start.c **** 
 370:Generated_Source\PSoC4/Cm0Start.c ****         /* The bootloadable application image is started at Reset() handler
ARM GAS  C:\Users\diego\AppData\Local\Temp\cc4VDpYc.s 			page 13


 371:Generated_Source\PSoC4/Cm0Start.c ****         * as a result of a branch instruction execution from the bootloader.
 372:Generated_Source\PSoC4/Cm0Start.c ****         * So, the stack pointer needs to be reset to be sure that
 373:Generated_Source\PSoC4/Cm0Start.c ****         * there is no garbage in the stack.
 374:Generated_Source\PSoC4/Cm0Start.c ****         */
 375:Generated_Source\PSoC4/Cm0Start.c ****         __asm volatile ("MSR msp, %0\n" : : "r" ((uint32)&__cy_stack) : "sp");
 376:Generated_Source\PSoC4/Cm0Start.c ****     #endif /* CYDEV_PROJ_TYPE_LOADABLE */
 377:Generated_Source\PSoC4/Cm0Start.c **** 
 378:Generated_Source\PSoC4/Cm0Start.c ****     #if(CY_IP_SRSSLT)
 379:Generated_Source\PSoC4/Cm0Start.c ****         CySysWdtDisable();
 380:Generated_Source\PSoC4/Cm0Start.c ****     #endif  /* (CY_IP_SRSSLT) */
 381:Generated_Source\PSoC4/Cm0Start.c **** 
 382:Generated_Source\PSoC4/Cm0Start.c ****     #if ((CYDEV_BOOTLOADER_ENABLE) && (CYDEV_PROJ_TYPE != CYDEV_PROJ_TYPE_LOADABLEANDBOOTLOADER))
 383:Generated_Source\PSoC4/Cm0Start.c ****         CyBtldr_CheckLaunch();
 384:Generated_Source\PSoC4/Cm0Start.c ****     #endif /* ((CYDEV_BOOTLOADER_ENABLE) && (CYDEV_PROJ_TYPE != CYDEV_PROJ_TYPE_LOADABLEANDBOOTLOAD
 385:Generated_Source\PSoC4/Cm0Start.c ****     Start_c();
 309              		.loc 1 385 0
 310 0004 FFF7FEFF 		bl	Start_c
 311              		.cfi_endproc
 312              	.LFE6:
 313              		.size	Reset, .-Reset
 314              		.global	CyRamVectors
 315              		.section	.ramvectors,"aw",%progbits
 316              		.align	2
 317              		.type	CyRamVectors, %object
 318              		.size	CyRamVectors, 192
 319              	CyRamVectors:
 320 0000 00000000 		.space	192
 320      00000000 
 320      00000000 
 320      00000000 
 320      00000000 
 321              		.global	RomVectors
 322              		.section	.romvectors,"a",%progbits
 323              		.align	2
 324              		.type	RomVectors, %object
 325              		.size	RomVectors, 16
 326              	RomVectors:
 327 0000 00000000 		.word	__cy_stack
 328 0004 00000000 		.word	Reset
 329 0008 00000000 		.word	IntDefaultHandler
 330 000c 00000000 		.word	IntDefaultHandler
 331              		.section	.text.initialize_psoc,"ax",%progbits
 332              		.align	2
 333              		.global	initialize_psoc
 334              		.code	16
 335              		.thumb_func
 336              		.type	initialize_psoc, %function
 337              	initialize_psoc:
 338              	.LFB7:
 386:Generated_Source\PSoC4/Cm0Start.c **** }
 387:Generated_Source\PSoC4/Cm0Start.c **** 
 388:Generated_Source\PSoC4/Cm0Start.c **** #elif defined (__ICCARM__)
 389:Generated_Source\PSoC4/Cm0Start.c **** 
 390:Generated_Source\PSoC4/Cm0Start.c **** 
 391:Generated_Source\PSoC4/Cm0Start.c **** /*******************************************************************************
 392:Generated_Source\PSoC4/Cm0Start.c **** * Function Name: __low_level_init
 393:Generated_Source\PSoC4/Cm0Start.c **** ****************************************************************************//**
ARM GAS  C:\Users\diego\AppData\Local\Temp\cc4VDpYc.s 			page 14


 394:Generated_Source\PSoC4/Cm0Start.c **** *
 395:Generated_Source\PSoC4/Cm0Start.c **** * This function performs early initializations for the IAR Embedded
 396:Generated_Source\PSoC4/Cm0Start.c **** * Workbench IDE. It is executed in the context of reset interrupt handler
 397:Generated_Source\PSoC4/Cm0Start.c **** * before the data sections are initialized.
 398:Generated_Source\PSoC4/Cm0Start.c **** *
 399:Generated_Source\PSoC4/Cm0Start.c **** * \return The value that determines whether or not data sections should be
 400:Generated_Source\PSoC4/Cm0Start.c **** * initialized by the system startup code:
 401:Generated_Source\PSoC4/Cm0Start.c **** *    0 - skip data sections initialization;
 402:Generated_Source\PSoC4/Cm0Start.c **** *    1 - initialize data sections;
 403:Generated_Source\PSoC4/Cm0Start.c **** *
 404:Generated_Source\PSoC4/Cm0Start.c **** *******************************************************************************/
 405:Generated_Source\PSoC4/Cm0Start.c **** #pragma inline = never
 406:Generated_Source\PSoC4/Cm0Start.c **** int __low_level_init(void)
 407:Generated_Source\PSoC4/Cm0Start.c **** {
 408:Generated_Source\PSoC4/Cm0Start.c ****     #if(CY_IP_SRSSLT)
 409:Generated_Source\PSoC4/Cm0Start.c ****         CySysWdtDisable();
 410:Generated_Source\PSoC4/Cm0Start.c ****     #endif  /* (CY_IP_SRSSLT) */
 411:Generated_Source\PSoC4/Cm0Start.c **** 
 412:Generated_Source\PSoC4/Cm0Start.c **** #if ((CYDEV_BOOTLOADER_ENABLE) && (CYDEV_PROJ_TYPE != CYDEV_PROJ_TYPE_LOADABLEANDBOOTLOADER))
 413:Generated_Source\PSoC4/Cm0Start.c ****     CyBtldr_CheckLaunch();
 414:Generated_Source\PSoC4/Cm0Start.c **** #endif /* ((CYDEV_BOOTLOADER_ENABLE) && (CYDEV_PROJ_TYPE != CYDEV_PROJ_TYPE_LOADABLEANDBOOTLOADER))
 415:Generated_Source\PSoC4/Cm0Start.c **** 
 416:Generated_Source\PSoC4/Cm0Start.c ****     /* Initialize data sections */
 417:Generated_Source\PSoC4/Cm0Start.c ****     __iar_data_init3();
 418:Generated_Source\PSoC4/Cm0Start.c **** 
 419:Generated_Source\PSoC4/Cm0Start.c ****     initialize_psoc();
 420:Generated_Source\PSoC4/Cm0Start.c **** 
 421:Generated_Source\PSoC4/Cm0Start.c ****     return 0;
 422:Generated_Source\PSoC4/Cm0Start.c **** }
 423:Generated_Source\PSoC4/Cm0Start.c **** 
 424:Generated_Source\PSoC4/Cm0Start.c **** #endif /* __GNUC__ */
 425:Generated_Source\PSoC4/Cm0Start.c **** 
 426:Generated_Source\PSoC4/Cm0Start.c **** 
 427:Generated_Source\PSoC4/Cm0Start.c **** /*******************************************************************************
 428:Generated_Source\PSoC4/Cm0Start.c **** * Ram Interrupt Vector table storage area. Must be placed at 0x20000000.
 429:Generated_Source\PSoC4/Cm0Start.c **** *******************************************************************************/
 430:Generated_Source\PSoC4/Cm0Start.c **** 
 431:Generated_Source\PSoC4/Cm0Start.c **** #if defined (__ICCARM__)
 432:Generated_Source\PSoC4/Cm0Start.c ****     #pragma location=".ramvectors"
 433:Generated_Source\PSoC4/Cm0Start.c **** #elif defined (__ARMCC_VERSION)
 434:Generated_Source\PSoC4/Cm0Start.c ****     #ifndef CY_SYS_RAM_VECTOR_SECTION
 435:Generated_Source\PSoC4/Cm0Start.c ****         #define CY_SYS_RAM_VECTOR_SECTION __attribute__((section(".ramvectors"), zero_init))
 436:Generated_Source\PSoC4/Cm0Start.c ****     #endif /* CY_SYS_RAM_VECTOR_SECTION */
 437:Generated_Source\PSoC4/Cm0Start.c ****     CY_SYS_RAM_VECTOR_SECTION    
 438:Generated_Source\PSoC4/Cm0Start.c **** #else
 439:Generated_Source\PSoC4/Cm0Start.c ****     #ifndef CY_SYS_RAM_VECTOR_SECTION
 440:Generated_Source\PSoC4/Cm0Start.c ****         #define CY_SYS_RAM_VECTOR_SECTION CY_SECTION(".ramvectors")
 441:Generated_Source\PSoC4/Cm0Start.c ****     #endif /* CY_SYS_RAM_VECTOR_SECTION */
 442:Generated_Source\PSoC4/Cm0Start.c ****     CY_SYS_RAM_VECTOR_SECTION
 443:Generated_Source\PSoC4/Cm0Start.c **** #endif  /* defined (__ICCARM__) */
 444:Generated_Source\PSoC4/Cm0Start.c **** cyisraddress CyRamVectors[CY_NUM_VECTORS];
 445:Generated_Source\PSoC4/Cm0Start.c **** 
 446:Generated_Source\PSoC4/Cm0Start.c **** 
 447:Generated_Source\PSoC4/Cm0Start.c **** /*******************************************************************************
 448:Generated_Source\PSoC4/Cm0Start.c **** * Rom Interrupt Vector table storage area. Must be 256-byte aligned.
 449:Generated_Source\PSoC4/Cm0Start.c **** *******************************************************************************/
 450:Generated_Source\PSoC4/Cm0Start.c **** 
ARM GAS  C:\Users\diego\AppData\Local\Temp\cc4VDpYc.s 			page 15


 451:Generated_Source\PSoC4/Cm0Start.c **** #if defined(__ARMCC_VERSION)
 452:Generated_Source\PSoC4/Cm0Start.c ****     /* Suppress diagnostic message 1296-D: extended constant initialiser used */
 453:Generated_Source\PSoC4/Cm0Start.c ****     #pragma diag_suppress 1296
 454:Generated_Source\PSoC4/Cm0Start.c **** #endif  /* defined(__ARMCC_VERSION) */
 455:Generated_Source\PSoC4/Cm0Start.c **** 
 456:Generated_Source\PSoC4/Cm0Start.c **** #if defined (__ICCARM__)
 457:Generated_Source\PSoC4/Cm0Start.c ****     #pragma location=".romvectors"
 458:Generated_Source\PSoC4/Cm0Start.c ****     const intvec_elem __vector_table[CY_NUM_ROM_VECTORS] =
 459:Generated_Source\PSoC4/Cm0Start.c **** #else
 460:Generated_Source\PSoC4/Cm0Start.c ****     #ifndef CY_SYS_ROM_VECTOR_SECTION
 461:Generated_Source\PSoC4/Cm0Start.c ****         #define CY_SYS_ROM_VECTOR_SECTION CY_SECTION(".romvectors")
 462:Generated_Source\PSoC4/Cm0Start.c ****     #endif /* CY_SYS_ROM_VECTOR_SECTION */
 463:Generated_Source\PSoC4/Cm0Start.c ****     CY_SYS_ROM_VECTOR_SECTION
 464:Generated_Source\PSoC4/Cm0Start.c ****     const cyisraddress RomVectors[CY_NUM_ROM_VECTORS] =
 465:Generated_Source\PSoC4/Cm0Start.c **** #endif  /* defined (__ICCARM__) */
 466:Generated_Source\PSoC4/Cm0Start.c **** {
 467:Generated_Source\PSoC4/Cm0Start.c ****     CY_SYS_INITIAL_STACK_POINTER,   /* The initial stack pointer  0 */
 468:Generated_Source\PSoC4/Cm0Start.c ****     #if defined (__ICCARM__) /* The reset handler          1 */
 469:Generated_Source\PSoC4/Cm0Start.c ****         __iar_program_start,
 470:Generated_Source\PSoC4/Cm0Start.c ****     #else
 471:Generated_Source\PSoC4/Cm0Start.c ****         (cyisraddress)&Reset,
 472:Generated_Source\PSoC4/Cm0Start.c ****     #endif  /* defined (__ICCARM__) */
 473:Generated_Source\PSoC4/Cm0Start.c ****     &IntDefaultHandler,      /* The NMI handler            2 */
 474:Generated_Source\PSoC4/Cm0Start.c ****     &IntDefaultHandler,      /* The hard fault handler     3 */
 475:Generated_Source\PSoC4/Cm0Start.c **** };
 476:Generated_Source\PSoC4/Cm0Start.c **** 
 477:Generated_Source\PSoC4/Cm0Start.c **** #if defined(__ARMCC_VERSION)
 478:Generated_Source\PSoC4/Cm0Start.c ****     #pragma diag_default 1296
 479:Generated_Source\PSoC4/Cm0Start.c **** #endif  /* defined(__ARMCC_VERSION) */
 480:Generated_Source\PSoC4/Cm0Start.c **** 
 481:Generated_Source\PSoC4/Cm0Start.c **** 
 482:Generated_Source\PSoC4/Cm0Start.c **** /*******************************************************************************
 483:Generated_Source\PSoC4/Cm0Start.c **** * Function Name: initialize_psoc
 484:Generated_Source\PSoC4/Cm0Start.c **** ****************************************************************************//**
 485:Generated_Source\PSoC4/Cm0Start.c **** *
 486:Generated_Source\PSoC4/Cm0Start.c **** * This function is used to initialize the PSoC chip before calling main.
 487:Generated_Source\PSoC4/Cm0Start.c **** *
 488:Generated_Source\PSoC4/Cm0Start.c **** *******************************************************************************/
 489:Generated_Source\PSoC4/Cm0Start.c **** #if(defined(__GNUC__) && !defined(__ARMCC_VERSION))
 490:Generated_Source\PSoC4/Cm0Start.c **** __attribute__ ((constructor(101)))
 491:Generated_Source\PSoC4/Cm0Start.c **** #endif  /* (defined(__GNUC__) && !defined(__ARMCC_VERSION)) */
 492:Generated_Source\PSoC4/Cm0Start.c **** void initialize_psoc(void)
 493:Generated_Source\PSoC4/Cm0Start.c **** {
 339              		.loc 1 493 0
 340              		.cfi_startproc
 341              		@ args = 0, pretend = 0, frame = 8
 342              		@ frame_needed = 1, uses_anonymous_args = 0
 343 0000 80B5     		push	{r7, lr}
 344              		.cfi_def_cfa_offset 8
 345              		.cfi_offset 7, -8
 346              		.cfi_offset 14, -4
 347 0002 82B0     		sub	sp, sp, #8
 348              		.cfi_def_cfa_offset 16
 349 0004 00AF     		add	r7, sp, #0
 350              		.cfi_def_cfa_register 7
 494:Generated_Source\PSoC4/Cm0Start.c ****     uint32 indexInit;
 495:Generated_Source\PSoC4/Cm0Start.c **** 
ARM GAS  C:\Users\diego\AppData\Local\Temp\cc4VDpYc.s 			page 16


 496:Generated_Source\PSoC4/Cm0Start.c ****     #if(CY_IP_CPUSSV2)
 497:Generated_Source\PSoC4/Cm0Start.c ****         #if (CY_IP_CPUSS_CM0)
 498:Generated_Source\PSoC4/Cm0Start.c ****             /***********************************************************************
 499:Generated_Source\PSoC4/Cm0Start.c ****             * Make sure that Vector Table is located at 0000_0000 in Flash, before
 500:Generated_Source\PSoC4/Cm0Start.c ****             * accessing RomVectors or calling functions that may be placed in
 501:Generated_Source\PSoC4/Cm0Start.c ****             * .psocinit (cyfitter_cfg and ClockSetup). Note The CY_CPUSS_CONFIG_REG
 502:Generated_Source\PSoC4/Cm0Start.c ****             * register is retention for the specified device family.
 503:Generated_Source\PSoC4/Cm0Start.c ****             ***********************************************************************/
 504:Generated_Source\PSoC4/Cm0Start.c ****             CY_CPUSS_CONFIG_REG &= (uint32) ~CY_CPUSS_CONFIG_VECT_IN_RAM;
 351              		.loc 1 504 0
 352 0006 154B     		ldr	r3, .L28
 353 0008 144A     		ldr	r2, .L28
 354 000a 1268     		ldr	r2, [r2]
 355 000c 0121     		movs	r1, #1
 356 000e 8A43     		bics	r2, r1
 357 0010 1A60     		str	r2, [r3]
 505:Generated_Source\PSoC4/Cm0Start.c ****         #endif /* (CY_IP_CPUSS_CM0) */
 506:Generated_Source\PSoC4/Cm0Start.c ****     #endif  /* (CY_IP_CPUSSV2) */
 507:Generated_Source\PSoC4/Cm0Start.c **** 
 508:Generated_Source\PSoC4/Cm0Start.c ****     /* Set Ram interrupt vectors to default functions. */
 509:Generated_Source\PSoC4/Cm0Start.c ****     for (indexInit = 0u; indexInit < CY_NUM_VECTORS; indexInit++)
 358              		.loc 1 509 0
 359 0012 0023     		movs	r3, #0
 360 0014 7B60     		str	r3, [r7, #4]
 361 0016 0FE0     		b	.L24
 362              	.L27:
 510:Generated_Source\PSoC4/Cm0Start.c ****     {
 511:Generated_Source\PSoC4/Cm0Start.c ****         CyRamVectors[indexInit] = (indexInit < CY_NUM_ROM_VECTORS) ?
 512:Generated_Source\PSoC4/Cm0Start.c ****             #if defined (__ICCARM__)
 513:Generated_Source\PSoC4/Cm0Start.c ****                 __vector_table[indexInit].__fun : &IntDefaultHandler;
 514:Generated_Source\PSoC4/Cm0Start.c ****             #else
 515:Generated_Source\PSoC4/Cm0Start.c ****                 RomVectors[indexInit] : &IntDefaultHandler;
 363              		.loc 1 515 0
 364 0018 7B68     		ldr	r3, [r7, #4]
 365 001a 032B     		cmp	r3, #3
 366 001c 04D8     		bhi	.L25
 367              		.loc 1 515 0 is_stmt 0 discriminator 1
 368 001e 104B     		ldr	r3, .L28+4
 369 0020 7A68     		ldr	r2, [r7, #4]
 370 0022 9200     		lsls	r2, r2, #2
 371 0024 D358     		ldr	r3, [r2, r3]
 372 0026 00E0     		b	.L26
 373              	.L25:
 374              		.loc 1 515 0 discriminator 2
 375 0028 0E4B     		ldr	r3, .L28+8
 376              	.L26:
 511:Generated_Source\PSoC4/Cm0Start.c ****             #if defined (__ICCARM__)
 377              		.loc 1 511 0 is_stmt 1 discriminator 2
 378 002a 0F4A     		ldr	r2, .L28+12
 379 002c 7968     		ldr	r1, [r7, #4]
 380 002e 8900     		lsls	r1, r1, #2
 381 0030 8B50     		str	r3, [r1, r2]
 509:Generated_Source\PSoC4/Cm0Start.c ****     {
 382              		.loc 1 509 0 discriminator 2
 383 0032 7B68     		ldr	r3, [r7, #4]
 384 0034 0133     		adds	r3, r3, #1
 385 0036 7B60     		str	r3, [r7, #4]
ARM GAS  C:\Users\diego\AppData\Local\Temp\cc4VDpYc.s 			page 17


 386              	.L24:
 509:Generated_Source\PSoC4/Cm0Start.c ****     {
 387              		.loc 1 509 0 is_stmt 0 discriminator 1
 388 0038 7B68     		ldr	r3, [r7, #4]
 389 003a 2F2B     		cmp	r3, #47
 390 003c ECD9     		bls	.L27
 516:Generated_Source\PSoC4/Cm0Start.c ****             #endif  /* defined (__ICCARM__) */
 517:Generated_Source\PSoC4/Cm0Start.c ****     }
 518:Generated_Source\PSoC4/Cm0Start.c **** 
 519:Generated_Source\PSoC4/Cm0Start.c ****     /* Initialize configuration registers. */
 520:Generated_Source\PSoC4/Cm0Start.c ****     cyfitter_cfg();
 391              		.loc 1 520 0 is_stmt 1
 392 003e FFF7FEFF 		bl	cyfitter_cfg
 521:Generated_Source\PSoC4/Cm0Start.c **** 
 522:Generated_Source\PSoC4/Cm0Start.c ****     #if !defined (__ICCARM__)
 523:Generated_Source\PSoC4/Cm0Start.c ****         /* Actually, no need to clean this variable, just to make compiler happy. */
 524:Generated_Source\PSoC4/Cm0Start.c ****         cySysNoInitDataValid = 0u;
 393              		.loc 1 524 0
 394 0042 0A4B     		ldr	r3, .L28+16
 395 0044 0022     		movs	r2, #0
 396 0046 1A60     		str	r2, [r3]
 525:Generated_Source\PSoC4/Cm0Start.c ****     #endif  /* !defined (__ICCARM__) */
 526:Generated_Source\PSoC4/Cm0Start.c **** 
 527:Generated_Source\PSoC4/Cm0Start.c ****     #if (CYDEV_PROJ_TYPE != CYDEV_PROJ_TYPE_STANDARD)
 528:Generated_Source\PSoC4/Cm0Start.c **** 
 529:Generated_Source\PSoC4/Cm0Start.c ****         /* Need to make sure that this variable will not be optimized out */
 530:Generated_Source\PSoC4/Cm0Start.c ****         if (0u == cyBtldrRunType)
 531:Generated_Source\PSoC4/Cm0Start.c ****         {
 532:Generated_Source\PSoC4/Cm0Start.c ****             cyBtldrRunType = 0u;
 533:Generated_Source\PSoC4/Cm0Start.c ****         }
 534:Generated_Source\PSoC4/Cm0Start.c **** 
 535:Generated_Source\PSoC4/Cm0Start.c ****     #endif  /* (CYDEV_PROJ_TYPE != CYDEV_PROJ_TYPE_STANDARD) */
 536:Generated_Source\PSoC4/Cm0Start.c **** 
 537:Generated_Source\PSoC4/Cm0Start.c ****     #if (CY_IP_CPUSS_CM0)
 538:Generated_Source\PSoC4/Cm0Start.c ****         /* Vector Table is located at 0x2000:0000 in SRAM */
 539:Generated_Source\PSoC4/Cm0Start.c ****         CY_CPUSS_CONFIG_REG |= CY_CPUSS_CONFIG_VECT_IN_RAM;
 397              		.loc 1 539 0
 398 0048 044B     		ldr	r3, .L28
 399 004a 044A     		ldr	r2, .L28
 400 004c 1268     		ldr	r2, [r2]
 401 004e 0121     		movs	r1, #1
 402 0050 0A43     		orrs	r2, r1
 403 0052 1A60     		str	r2, [r3]
 540:Generated_Source\PSoC4/Cm0Start.c **** 	#else
 541:Generated_Source\PSoC4/Cm0Start.c **** 		(*(uint32 *)CYREG_CM0P_VTOR) = CY_CPUSS_CONFIG_VECT_ADDR_IN_RAM;
 542:Generated_Source\PSoC4/Cm0Start.c ****     #endif /* (CY_IP_CPUSS_CM0) */
 543:Generated_Source\PSoC4/Cm0Start.c **** }
 404              		.loc 1 543 0
 405 0054 C046     		nop
 406 0056 BD46     		mov	sp, r7
 407 0058 02B0     		add	sp, sp, #8
 408              		@ sp needed
 409 005a 80BD     		pop	{r7, pc}
 410              	.L29:
 411              		.align	2
 412              	.L28:
 413 005c 00001040 		.word	1074790400
ARM GAS  C:\Users\diego\AppData\Local\Temp\cc4VDpYc.s 			page 18


 414 0060 00000000 		.word	RomVectors
 415 0064 00000000 		.word	IntDefaultHandler
 416 0068 00000000 		.word	CyRamVectors
 417 006c 00000000 		.word	cySysNoInitDataValid
 418              		.cfi_endproc
 419              	.LFE7:
 420              		.size	initialize_psoc, .-initialize_psoc
 421              		.section	.init_array,"aw",%init_array
 422              		.align	2
 423 0000 00000000 		.word	initialize_psoc(target1)
 424              		.data
 425              		.align	2
 426              		.type	heapPointer.4884, %object
 427              		.size	heapPointer.4884, 4
 428              	heapPointer.4884:
 429 0000 00000000 		.word	end
 430              		.weak	__cy_region_num
 431              		.text
 432              	.Letext0:
 433              		.file 2 "e:\\cypress\\psoc creator\\4.3\\psoc creator\\import\\gnu\\arm\\5.4.1\\lib\\gcc\\arm-none
 434              		.file 3 "Generated_Source\\PSoC4\\cytypes.h"
 435              		.section	.debug_info,"",%progbits
 436              	.Ldebug_info0:
 437 0000 0E030000 		.4byte	0x30e
 438 0004 0400     		.2byte	0x4
 439 0006 00000000 		.4byte	.Ldebug_abbrev0
 440 000a 04       		.byte	0x4
 441 000b 01       		.uleb128 0x1
 442 000c 0B010000 		.4byte	.LASF41
 443 0010 0C       		.byte	0xc
 444 0011 CE010000 		.4byte	.LASF42
 445 0015 06000000 		.4byte	.LASF43
 446 0019 00000000 		.4byte	.Ldebug_ranges0+0
 447 001d 00000000 		.4byte	0
 448 0021 00000000 		.4byte	.Ldebug_line0
 449 0025 02       		.uleb128 0x2
 450 0026 01       		.byte	0x1
 451 0027 06       		.byte	0x6
 452 0028 8E020000 		.4byte	.LASF0
 453 002c 02       		.uleb128 0x2
 454 002d 01       		.byte	0x1
 455 002e 08       		.byte	0x8
 456 002f B3000000 		.4byte	.LASF1
 457 0033 02       		.uleb128 0x2
 458 0034 02       		.byte	0x2
 459 0035 05       		.byte	0x5
 460 0036 6F020000 		.4byte	.LASF2
 461 003a 02       		.uleb128 0x2
 462 003b 02       		.byte	0x2
 463 003c 07       		.byte	0x7
 464 003d 6A000000 		.4byte	.LASF3
 465 0041 02       		.uleb128 0x2
 466 0042 04       		.byte	0x4
 467 0043 05       		.byte	0x5
 468 0044 79020000 		.4byte	.LASF4
 469 0048 02       		.uleb128 0x2
 470 0049 04       		.byte	0x4
ARM GAS  C:\Users\diego\AppData\Local\Temp\cc4VDpYc.s 			page 19


 471 004a 07       		.byte	0x7
 472 004b D8000000 		.4byte	.LASF5
 473 004f 02       		.uleb128 0x2
 474 0050 08       		.byte	0x8
 475 0051 05       		.byte	0x5
 476 0052 5C020000 		.4byte	.LASF6
 477 0056 02       		.uleb128 0x2
 478 0057 08       		.byte	0x8
 479 0058 07       		.byte	0x7
 480 0059 0E020000 		.4byte	.LASF7
 481 005d 03       		.uleb128 0x3
 482 005e 04       		.byte	0x4
 483 005f 05       		.byte	0x5
 484 0060 696E7400 		.ascii	"int\000"
 485 0064 02       		.uleb128 0x2
 486 0065 04       		.byte	0x4
 487 0066 07       		.byte	0x7
 488 0067 01020000 		.4byte	.LASF8
 489 006b 04       		.uleb128 0x4
 490 006c 3C000000 		.4byte	.LASF10
 491 0070 02       		.byte	0x2
 492 0071 D8       		.byte	0xd8
 493 0072 64000000 		.4byte	0x64
 494 0076 02       		.uleb128 0x2
 495 0077 08       		.byte	0x8
 496 0078 04       		.byte	0x4
 497 0079 82020000 		.4byte	.LASF9
 498 007d 05       		.uleb128 0x5
 499 007e FF000000 		.4byte	.LASF11
 500 0082 03       		.byte	0x3
 501 0083 D201     		.2byte	0x1d2
 502 0085 2C000000 		.4byte	0x2c
 503 0089 05       		.uleb128 0x5
 504 008a F0010000 		.4byte	.LASF12
 505 008e 03       		.byte	0x3
 506 008f D401     		.2byte	0x1d4
 507 0091 48000000 		.4byte	0x48
 508 0095 02       		.uleb128 0x2
 509 0096 04       		.byte	0x4
 510 0097 04       		.byte	0x4
 511 0098 A8000000 		.4byte	.LASF13
 512 009c 02       		.uleb128 0x2
 513 009d 08       		.byte	0x8
 514 009e 04       		.byte	0x4
 515 009f B7010000 		.4byte	.LASF14
 516 00a3 02       		.uleb128 0x2
 517 00a4 01       		.byte	0x1
 518 00a5 08       		.byte	0x8
 519 00a6 6A020000 		.4byte	.LASF15
 520 00aa 05       		.uleb128 0x5
 521 00ab 00000000 		.4byte	.LASF16
 522 00af 03       		.byte	0x3
 523 00b0 7E02     		.2byte	0x27e
 524 00b2 B6000000 		.4byte	0xb6
 525 00b6 06       		.uleb128 0x6
 526 00b7 89000000 		.4byte	0x89
 527 00bb 05       		.uleb128 0x5
ARM GAS  C:\Users\diego\AppData\Local\Temp\cc4VDpYc.s 			page 20


 528 00bc 2B020000 		.4byte	.LASF17
 529 00c0 03       		.byte	0x3
 530 00c1 8E02     		.2byte	0x28e
 531 00c3 C7000000 		.4byte	0xc7
 532 00c7 07       		.uleb128 0x7
 533 00c8 04       		.byte	0x4
 534 00c9 CD000000 		.4byte	0xcd
 535 00cd 08       		.uleb128 0x8
 536 00ce 02       		.uleb128 0x2
 537 00cf 04       		.byte	0x4
 538 00d0 07       		.byte	0x7
 539 00d1 53020000 		.4byte	.LASF18
 540 00d5 09       		.uleb128 0x9
 541 00d6 04       		.byte	0x4
 542 00d7 0A       		.uleb128 0xa
 543 00d8 A3000000 		.4byte	0xa3
 544 00dc 04       		.uleb128 0x4
 545 00dd 42020000 		.4byte	.LASF19
 546 00e1 01       		.byte	0x1
 547 00e2 DE       		.byte	0xde
 548 00e3 2C000000 		.4byte	0x2c
 549 00e7 0B       		.uleb128 0xb
 550 00e8 B6020000 		.4byte	.LASF44
 551 00ec 10       		.byte	0x10
 552 00ed 01       		.byte	0x1
 553 00ee E0       		.byte	0xe0
 554 00ef 24010000 		.4byte	0x124
 555 00f3 0C       		.uleb128 0xc
 556 00f4 8D000000 		.4byte	.LASF20
 557 00f8 01       		.byte	0x1
 558 00f9 E2       		.byte	0xe2
 559 00fa 24010000 		.4byte	0x124
 560 00fe 00       		.byte	0
 561 00ff 0C       		.uleb128 0xc
 562 0100 AE000000 		.4byte	.LASF21
 563 0104 01       		.byte	0x1
 564 0105 E3       		.byte	0xe3
 565 0106 24010000 		.4byte	0x124
 566 010a 04       		.byte	0x4
 567 010b 0C       		.uleb128 0xc
 568 010c 38020000 		.4byte	.LASF22
 569 0110 01       		.byte	0x1
 570 0111 E4       		.byte	0xe4
 571 0112 6B000000 		.4byte	0x6b
 572 0116 08       		.byte	0x8
 573 0117 0C       		.uleb128 0xc
 574 0118 99000000 		.4byte	.LASF23
 575 011c 01       		.byte	0x1
 576 011d E5       		.byte	0xe5
 577 011e 6B000000 		.4byte	0x6b
 578 0122 0C       		.byte	0xc
 579 0123 00       		.byte	0
 580 0124 07       		.uleb128 0x7
 581 0125 04       		.byte	0x4
 582 0126 DC000000 		.4byte	0xdc
 583 012a 0D       		.uleb128 0xd
 584 012b 9F010000 		.4byte	.LASF45
ARM GAS  C:\Users\diego\AppData\Local\Temp\cc4VDpYc.s 			page 21


 585 012f 01       		.byte	0x1
 586 0130 6D       		.byte	0x6d
 587 0131 00000000 		.4byte	.LFB2
 588 0135 14000000 		.4byte	.LFE2-.LFB2
 589 0139 01       		.uleb128 0x1
 590 013a 9C       		.byte	0x9c
 591 013b 0E       		.uleb128 0xe
 592 013c 99010000 		.4byte	.LASF24
 593 0140 01       		.byte	0x1
 594 0141 FE       		.byte	0xfe
 595 0142 00000000 		.4byte	.LFB3
 596 0146 14000000 		.4byte	.LFE3-.LFB3
 597 014a 01       		.uleb128 0x1
 598 014b 9C       		.byte	0x9c
 599 014c 5F010000 		.4byte	0x15f
 600 0150 0F       		.uleb128 0xf
 601 0151 92000000 		.4byte	.LASF26
 602 0155 01       		.byte	0x1
 603 0156 FE       		.byte	0xfe
 604 0157 5D000000 		.4byte	0x5d
 605 015b 02       		.uleb128 0x2
 606 015c 91       		.byte	0x91
 607 015d 74       		.sleb128 -12
 608 015e 00       		.byte	0
 609 015f 10       		.uleb128 0x10
 610 0160 B1010000 		.4byte	.LASF25
 611 0164 01       		.byte	0x1
 612 0165 1801     		.2byte	0x118
 613 0167 D5000000 		.4byte	0xd5
 614 016b 00000000 		.4byte	.LFB4
 615 016f 54000000 		.4byte	.LFE4-.LFB4
 616 0173 01       		.uleb128 0x1
 617 0174 9C       		.byte	0x9c
 618 0175 B6010000 		.4byte	0x1b6
 619 0179 11       		.uleb128 0x11
 620 017a AF020000 		.4byte	.LASF27
 621 017e 01       		.byte	0x1
 622 017f 1801     		.2byte	0x118
 623 0181 5D000000 		.4byte	0x5d
 624 0185 02       		.uleb128 0x2
 625 0186 91       		.byte	0x91
 626 0187 6C       		.sleb128 -20
 627 0188 12       		.uleb128 0x12
 628 0189 656E6400 		.ascii	"end\000"
 629 018d 01       		.byte	0x1
 630 018e 1A01     		.2byte	0x11a
 631 0190 5D000000 		.4byte	0x5d
 632 0194 13       		.uleb128 0x13
 633 0195 C1000000 		.4byte	.LASF28
 634 0199 01       		.byte	0x1
 635 019a 1B01     		.2byte	0x11b
 636 019c D5000000 		.4byte	0xd5
 637 01a0 02       		.uleb128 0x2
 638 01a1 91       		.byte	0x91
 639 01a2 74       		.sleb128 -12
 640 01a3 13       		.uleb128 0x13
 641 01a4 5E000000 		.4byte	.LASF29
ARM GAS  C:\Users\diego\AppData\Local\Temp\cc4VDpYc.s 			page 22


 642 01a8 01       		.byte	0x1
 643 01a9 1E01     		.2byte	0x11e
 644 01ab B6010000 		.4byte	0x1b6
 645 01af 05       		.uleb128 0x5
 646 01b0 03       		.byte	0x3
 647 01b1 00000000 		.4byte	heapPointer.4884
 648 01b5 00       		.byte	0
 649 01b6 07       		.uleb128 0x7
 650 01b7 04       		.byte	0x4
 651 01b8 7D000000 		.4byte	0x7d
 652 01bc 14       		.uleb128 0x14
 653 01bd 50000000 		.4byte	.LASF30
 654 01c1 01       		.byte	0x1
 655 01c2 3901     		.2byte	0x139
 656 01c4 00000000 		.4byte	.LFB5
 657 01c8 98000000 		.4byte	.LFE5-.LFB5
 658 01cc 01       		.uleb128 0x1
 659 01cd 9C       		.byte	0x9c
 660 01ce 37020000 		.4byte	0x237
 661 01d2 13       		.uleb128 0x13
 662 01d3 A7020000 		.4byte	.LASF31
 663 01d7 01       		.byte	0x1
 664 01d8 3E01     		.2byte	0x13e
 665 01da 64000000 		.4byte	0x64
 666 01de 02       		.uleb128 0x2
 667 01df 91       		.byte	0x91
 668 01e0 74       		.sleb128 -12
 669 01e1 13       		.uleb128 0x13
 670 01e2 A3000000 		.4byte	.LASF32
 671 01e6 01       		.byte	0x1
 672 01e7 3F01     		.2byte	0x13f
 673 01e9 37020000 		.4byte	0x237
 674 01ed 02       		.uleb128 0x2
 675 01ee 91       		.byte	0x91
 676 01ef 70       		.sleb128 -16
 677 01f0 15       		.uleb128 0x15
 678 01f1 14000000 		.4byte	.LBB2
 679 01f5 66000000 		.4byte	.LBE2-.LBB2
 680 01f9 16       		.uleb128 0x16
 681 01fa 73726300 		.ascii	"src\000"
 682 01fe 01       		.byte	0x1
 683 01ff 4401     		.2byte	0x144
 684 0201 42020000 		.4byte	0x242
 685 0205 02       		.uleb128 0x2
 686 0206 91       		.byte	0x91
 687 0207 6C       		.sleb128 -20
 688 0208 16       		.uleb128 0x16
 689 0209 64737400 		.ascii	"dst\000"
 690 020d 01       		.byte	0x1
 691 020e 4501     		.2byte	0x145
 692 0210 42020000 		.4byte	0x242
 693 0214 02       		.uleb128 0x2
 694 0215 91       		.byte	0x91
 695 0216 68       		.sleb128 -24
 696 0217 13       		.uleb128 0x13
 697 0218 25020000 		.4byte	.LASF33
 698 021c 01       		.byte	0x1
ARM GAS  C:\Users\diego\AppData\Local\Temp\cc4VDpYc.s 			page 23


 699 021d 4601     		.2byte	0x146
 700 021f 64000000 		.4byte	0x64
 701 0223 02       		.uleb128 0x2
 702 0224 91       		.byte	0x91
 703 0225 60       		.sleb128 -32
 704 0226 13       		.uleb128 0x13
 705 0227 58000000 		.4byte	.LASF34
 706 022b 01       		.byte	0x1
 707 022c 4701     		.2byte	0x147
 708 022e 64000000 		.4byte	0x64
 709 0232 02       		.uleb128 0x2
 710 0233 91       		.byte	0x91
 711 0234 64       		.sleb128 -28
 712 0235 00       		.byte	0
 713 0236 00       		.byte	0
 714 0237 07       		.uleb128 0x7
 715 0238 04       		.byte	0x4
 716 0239 3D020000 		.4byte	0x23d
 717 023d 0A       		.uleb128 0xa
 718 023e E7000000 		.4byte	0xe7
 719 0242 07       		.uleb128 0x7
 720 0243 04       		.byte	0x4
 721 0244 89000000 		.4byte	0x89
 722 0248 17       		.uleb128 0x17
 723 0249 05010000 		.4byte	.LASF46
 724 024d 01       		.byte	0x1
 725 024e 6E01     		.2byte	0x16e
 726 0250 00000000 		.4byte	.LFB6
 727 0254 08000000 		.4byte	.LFE6-.LFB6
 728 0258 01       		.uleb128 0x1
 729 0259 9C       		.byte	0x9c
 730 025a 18       		.uleb128 0x18
 731 025b BE010000 		.4byte	.LASF47
 732 025f 01       		.byte	0x1
 733 0260 EC01     		.2byte	0x1ec
 734 0262 00000000 		.4byte	.LFB7
 735 0266 70000000 		.4byte	.LFE7-.LFB7
 736 026a 01       		.uleb128 0x1
 737 026b 9C       		.byte	0x9c
 738 026c 80020000 		.4byte	0x280
 739 0270 13       		.uleb128 0x13
 740 0271 F7010000 		.4byte	.LASF35
 741 0275 01       		.byte	0x1
 742 0276 EE01     		.2byte	0x1ee
 743 0278 89000000 		.4byte	0x89
 744 027c 02       		.uleb128 0x2
 745 027d 91       		.byte	0x91
 746 027e 74       		.sleb128 -12
 747 027f 00       		.byte	0
 748 0280 19       		.uleb128 0x19
 749 0281 EA000000 		.4byte	.LASF36
 750 0285 01       		.byte	0x1
 751 0286 4E       		.byte	0x4e
 752 0287 89000000 		.4byte	0x89
 753 028b 05       		.uleb128 0x5
 754 028c 03       		.byte	0x3
 755 028d 00000000 		.4byte	cySysNoInitDataValid
ARM GAS  C:\Users\diego\AppData\Local\Temp\cc4VDpYc.s 			page 24


 756 0291 12       		.uleb128 0x12
 757 0292 656E6400 		.ascii	"end\000"
 758 0296 01       		.byte	0x1
 759 0297 1A01     		.2byte	0x11a
 760 0299 5D000000 		.4byte	0x5d
 761 029d 1A       		.uleb128 0x1a
 762 029e 3D020000 		.4byte	0x23d
 763 02a2 A8020000 		.4byte	0x2a8
 764 02a6 1B       		.uleb128 0x1b
 765 02a7 00       		.byte	0
 766 02a8 1C       		.uleb128 0x1c
 767 02a9 9A020000 		.4byte	.LASF37
 768 02ad 01       		.byte	0x1
 769 02ae E8       		.byte	0xe8
 770 02af B3020000 		.4byte	0x2b3
 771 02b3 0A       		.uleb128 0xa
 772 02b4 9D020000 		.4byte	0x29d
 773 02b8 1C       		.uleb128 0x1c
 774 02b9 7D000000 		.4byte	.LASF38
 775 02bd 01       		.byte	0x1
 776 02be E9       		.byte	0xe9
 777 02bf D7000000 		.4byte	0xd7
 778 02c3 1A       		.uleb128 0x1a
 779 02c4 BB000000 		.4byte	0xbb
 780 02c8 D3020000 		.4byte	0x2d3
 781 02cc 1D       		.uleb128 0x1d
 782 02cd CE000000 		.4byte	0xce
 783 02d1 2F       		.byte	0x2f
 784 02d2 00       		.byte	0
 785 02d3 1E       		.uleb128 0x1e
 786 02d4 43000000 		.4byte	.LASF39
 787 02d8 01       		.byte	0x1
 788 02d9 BC01     		.2byte	0x1bc
 789 02db C3020000 		.4byte	0x2c3
 790 02df 05       		.uleb128 0x5
 791 02e0 03       		.byte	0x3
 792 02e1 00000000 		.4byte	CyRamVectors
 793 02e5 1A       		.uleb128 0x1a
 794 02e6 F5020000 		.4byte	0x2f5
 795 02ea F5020000 		.4byte	0x2f5
 796 02ee 1D       		.uleb128 0x1d
 797 02ef CE000000 		.4byte	0xce
 798 02f3 03       		.byte	0x3
 799 02f4 00       		.byte	0
 800 02f5 0A       		.uleb128 0xa
 801 02f6 BB000000 		.4byte	0xbb
 802 02fa 1E       		.uleb128 0x1e
 803 02fb CD000000 		.4byte	.LASF40
 804 02ff 01       		.byte	0x1
 805 0300 D001     		.2byte	0x1d0
 806 0302 0C030000 		.4byte	0x30c
 807 0306 05       		.uleb128 0x5
 808 0307 03       		.byte	0x3
 809 0308 00000000 		.4byte	RomVectors
 810 030c 0A       		.uleb128 0xa
 811 030d E5020000 		.4byte	0x2e5
 812 0311 00       		.byte	0
ARM GAS  C:\Users\diego\AppData\Local\Temp\cc4VDpYc.s 			page 25


 813              		.section	.debug_abbrev,"",%progbits
 814              	.Ldebug_abbrev0:
 815 0000 01       		.uleb128 0x1
 816 0001 11       		.uleb128 0x11
 817 0002 01       		.byte	0x1
 818 0003 25       		.uleb128 0x25
 819 0004 0E       		.uleb128 0xe
 820 0005 13       		.uleb128 0x13
 821 0006 0B       		.uleb128 0xb
 822 0007 03       		.uleb128 0x3
 823 0008 0E       		.uleb128 0xe
 824 0009 1B       		.uleb128 0x1b
 825 000a 0E       		.uleb128 0xe
 826 000b 55       		.uleb128 0x55
 827 000c 17       		.uleb128 0x17
 828 000d 11       		.uleb128 0x11
 829 000e 01       		.uleb128 0x1
 830 000f 10       		.uleb128 0x10
 831 0010 17       		.uleb128 0x17
 832 0011 00       		.byte	0
 833 0012 00       		.byte	0
 834 0013 02       		.uleb128 0x2
 835 0014 24       		.uleb128 0x24
 836 0015 00       		.byte	0
 837 0016 0B       		.uleb128 0xb
 838 0017 0B       		.uleb128 0xb
 839 0018 3E       		.uleb128 0x3e
 840 0019 0B       		.uleb128 0xb
 841 001a 03       		.uleb128 0x3
 842 001b 0E       		.uleb128 0xe
 843 001c 00       		.byte	0
 844 001d 00       		.byte	0
 845 001e 03       		.uleb128 0x3
 846 001f 24       		.uleb128 0x24
 847 0020 00       		.byte	0
 848 0021 0B       		.uleb128 0xb
 849 0022 0B       		.uleb128 0xb
 850 0023 3E       		.uleb128 0x3e
 851 0024 0B       		.uleb128 0xb
 852 0025 03       		.uleb128 0x3
 853 0026 08       		.uleb128 0x8
 854 0027 00       		.byte	0
 855 0028 00       		.byte	0
 856 0029 04       		.uleb128 0x4
 857 002a 16       		.uleb128 0x16
 858 002b 00       		.byte	0
 859 002c 03       		.uleb128 0x3
 860 002d 0E       		.uleb128 0xe
 861 002e 3A       		.uleb128 0x3a
 862 002f 0B       		.uleb128 0xb
 863 0030 3B       		.uleb128 0x3b
 864 0031 0B       		.uleb128 0xb
 865 0032 49       		.uleb128 0x49
 866 0033 13       		.uleb128 0x13
 867 0034 00       		.byte	0
 868 0035 00       		.byte	0
 869 0036 05       		.uleb128 0x5
ARM GAS  C:\Users\diego\AppData\Local\Temp\cc4VDpYc.s 			page 26


 870 0037 16       		.uleb128 0x16
 871 0038 00       		.byte	0
 872 0039 03       		.uleb128 0x3
 873 003a 0E       		.uleb128 0xe
 874 003b 3A       		.uleb128 0x3a
 875 003c 0B       		.uleb128 0xb
 876 003d 3B       		.uleb128 0x3b
 877 003e 05       		.uleb128 0x5
 878 003f 49       		.uleb128 0x49
 879 0040 13       		.uleb128 0x13
 880 0041 00       		.byte	0
 881 0042 00       		.byte	0
 882 0043 06       		.uleb128 0x6
 883 0044 35       		.uleb128 0x35
 884 0045 00       		.byte	0
 885 0046 49       		.uleb128 0x49
 886 0047 13       		.uleb128 0x13
 887 0048 00       		.byte	0
 888 0049 00       		.byte	0
 889 004a 07       		.uleb128 0x7
 890 004b 0F       		.uleb128 0xf
 891 004c 00       		.byte	0
 892 004d 0B       		.uleb128 0xb
 893 004e 0B       		.uleb128 0xb
 894 004f 49       		.uleb128 0x49
 895 0050 13       		.uleb128 0x13
 896 0051 00       		.byte	0
 897 0052 00       		.byte	0
 898 0053 08       		.uleb128 0x8
 899 0054 15       		.uleb128 0x15
 900 0055 00       		.byte	0
 901 0056 27       		.uleb128 0x27
 902 0057 19       		.uleb128 0x19
 903 0058 00       		.byte	0
 904 0059 00       		.byte	0
 905 005a 09       		.uleb128 0x9
 906 005b 0F       		.uleb128 0xf
 907 005c 00       		.byte	0
 908 005d 0B       		.uleb128 0xb
 909 005e 0B       		.uleb128 0xb
 910 005f 00       		.byte	0
 911 0060 00       		.byte	0
 912 0061 0A       		.uleb128 0xa
 913 0062 26       		.uleb128 0x26
 914 0063 00       		.byte	0
 915 0064 49       		.uleb128 0x49
 916 0065 13       		.uleb128 0x13
 917 0066 00       		.byte	0
 918 0067 00       		.byte	0
 919 0068 0B       		.uleb128 0xb
 920 0069 13       		.uleb128 0x13
 921 006a 01       		.byte	0x1
 922 006b 03       		.uleb128 0x3
 923 006c 0E       		.uleb128 0xe
 924 006d 0B       		.uleb128 0xb
 925 006e 0B       		.uleb128 0xb
 926 006f 3A       		.uleb128 0x3a
ARM GAS  C:\Users\diego\AppData\Local\Temp\cc4VDpYc.s 			page 27


 927 0070 0B       		.uleb128 0xb
 928 0071 3B       		.uleb128 0x3b
 929 0072 0B       		.uleb128 0xb
 930 0073 01       		.uleb128 0x1
 931 0074 13       		.uleb128 0x13
 932 0075 00       		.byte	0
 933 0076 00       		.byte	0
 934 0077 0C       		.uleb128 0xc
 935 0078 0D       		.uleb128 0xd
 936 0079 00       		.byte	0
 937 007a 03       		.uleb128 0x3
 938 007b 0E       		.uleb128 0xe
 939 007c 3A       		.uleb128 0x3a
 940 007d 0B       		.uleb128 0xb
 941 007e 3B       		.uleb128 0x3b
 942 007f 0B       		.uleb128 0xb
 943 0080 49       		.uleb128 0x49
 944 0081 13       		.uleb128 0x13
 945 0082 38       		.uleb128 0x38
 946 0083 0B       		.uleb128 0xb
 947 0084 00       		.byte	0
 948 0085 00       		.byte	0
 949 0086 0D       		.uleb128 0xd
 950 0087 2E       		.uleb128 0x2e
 951 0088 00       		.byte	0
 952 0089 3F       		.uleb128 0x3f
 953 008a 19       		.uleb128 0x19
 954 008b 03       		.uleb128 0x3
 955 008c 0E       		.uleb128 0xe
 956 008d 3A       		.uleb128 0x3a
 957 008e 0B       		.uleb128 0xb
 958 008f 3B       		.uleb128 0x3b
 959 0090 0B       		.uleb128 0xb
 960 0091 27       		.uleb128 0x27
 961 0092 19       		.uleb128 0x19
 962 0093 8701     		.uleb128 0x87
 963 0095 19       		.uleb128 0x19
 964 0096 11       		.uleb128 0x11
 965 0097 01       		.uleb128 0x1
 966 0098 12       		.uleb128 0x12
 967 0099 06       		.uleb128 0x6
 968 009a 40       		.uleb128 0x40
 969 009b 18       		.uleb128 0x18
 970 009c 9642     		.uleb128 0x2116
 971 009e 19       		.uleb128 0x19
 972 009f 00       		.byte	0
 973 00a0 00       		.byte	0
 974 00a1 0E       		.uleb128 0xe
 975 00a2 2E       		.uleb128 0x2e
 976 00a3 01       		.byte	0x1
 977 00a4 3F       		.uleb128 0x3f
 978 00a5 19       		.uleb128 0x19
 979 00a6 03       		.uleb128 0x3
 980 00a7 0E       		.uleb128 0xe
 981 00a8 3A       		.uleb128 0x3a
 982 00a9 0B       		.uleb128 0xb
 983 00aa 3B       		.uleb128 0x3b
ARM GAS  C:\Users\diego\AppData\Local\Temp\cc4VDpYc.s 			page 28


 984 00ab 0B       		.uleb128 0xb
 985 00ac 27       		.uleb128 0x27
 986 00ad 19       		.uleb128 0x19
 987 00ae 8701     		.uleb128 0x87
 988 00b0 19       		.uleb128 0x19
 989 00b1 11       		.uleb128 0x11
 990 00b2 01       		.uleb128 0x1
 991 00b3 12       		.uleb128 0x12
 992 00b4 06       		.uleb128 0x6
 993 00b5 40       		.uleb128 0x40
 994 00b6 18       		.uleb128 0x18
 995 00b7 9642     		.uleb128 0x2116
 996 00b9 19       		.uleb128 0x19
 997 00ba 01       		.uleb128 0x1
 998 00bb 13       		.uleb128 0x13
 999 00bc 00       		.byte	0
 1000 00bd 00       		.byte	0
 1001 00be 0F       		.uleb128 0xf
 1002 00bf 05       		.uleb128 0x5
 1003 00c0 00       		.byte	0
 1004 00c1 03       		.uleb128 0x3
 1005 00c2 0E       		.uleb128 0xe
 1006 00c3 3A       		.uleb128 0x3a
 1007 00c4 0B       		.uleb128 0xb
 1008 00c5 3B       		.uleb128 0x3b
 1009 00c6 0B       		.uleb128 0xb
 1010 00c7 49       		.uleb128 0x49
 1011 00c8 13       		.uleb128 0x13
 1012 00c9 02       		.uleb128 0x2
 1013 00ca 18       		.uleb128 0x18
 1014 00cb 00       		.byte	0
 1015 00cc 00       		.byte	0
 1016 00cd 10       		.uleb128 0x10
 1017 00ce 2E       		.uleb128 0x2e
 1018 00cf 01       		.byte	0x1
 1019 00d0 3F       		.uleb128 0x3f
 1020 00d1 19       		.uleb128 0x19
 1021 00d2 03       		.uleb128 0x3
 1022 00d3 0E       		.uleb128 0xe
 1023 00d4 3A       		.uleb128 0x3a
 1024 00d5 0B       		.uleb128 0xb
 1025 00d6 3B       		.uleb128 0x3b
 1026 00d7 05       		.uleb128 0x5
 1027 00d8 27       		.uleb128 0x27
 1028 00d9 19       		.uleb128 0x19
 1029 00da 49       		.uleb128 0x49
 1030 00db 13       		.uleb128 0x13
 1031 00dc 11       		.uleb128 0x11
 1032 00dd 01       		.uleb128 0x1
 1033 00de 12       		.uleb128 0x12
 1034 00df 06       		.uleb128 0x6
 1035 00e0 40       		.uleb128 0x40
 1036 00e1 18       		.uleb128 0x18
 1037 00e2 9642     		.uleb128 0x2116
 1038 00e4 19       		.uleb128 0x19
 1039 00e5 01       		.uleb128 0x1
 1040 00e6 13       		.uleb128 0x13
ARM GAS  C:\Users\diego\AppData\Local\Temp\cc4VDpYc.s 			page 29


 1041 00e7 00       		.byte	0
 1042 00e8 00       		.byte	0
 1043 00e9 11       		.uleb128 0x11
 1044 00ea 05       		.uleb128 0x5
 1045 00eb 00       		.byte	0
 1046 00ec 03       		.uleb128 0x3
 1047 00ed 0E       		.uleb128 0xe
 1048 00ee 3A       		.uleb128 0x3a
 1049 00ef 0B       		.uleb128 0xb
 1050 00f0 3B       		.uleb128 0x3b
 1051 00f1 05       		.uleb128 0x5
 1052 00f2 49       		.uleb128 0x49
 1053 00f3 13       		.uleb128 0x13
 1054 00f4 02       		.uleb128 0x2
 1055 00f5 18       		.uleb128 0x18
 1056 00f6 00       		.byte	0
 1057 00f7 00       		.byte	0
 1058 00f8 12       		.uleb128 0x12
 1059 00f9 34       		.uleb128 0x34
 1060 00fa 00       		.byte	0
 1061 00fb 03       		.uleb128 0x3
 1062 00fc 08       		.uleb128 0x8
 1063 00fd 3A       		.uleb128 0x3a
 1064 00fe 0B       		.uleb128 0xb
 1065 00ff 3B       		.uleb128 0x3b
 1066 0100 05       		.uleb128 0x5
 1067 0101 49       		.uleb128 0x49
 1068 0102 13       		.uleb128 0x13
 1069 0103 3F       		.uleb128 0x3f
 1070 0104 19       		.uleb128 0x19
 1071 0105 3C       		.uleb128 0x3c
 1072 0106 19       		.uleb128 0x19
 1073 0107 00       		.byte	0
 1074 0108 00       		.byte	0
 1075 0109 13       		.uleb128 0x13
 1076 010a 34       		.uleb128 0x34
 1077 010b 00       		.byte	0
 1078 010c 03       		.uleb128 0x3
 1079 010d 0E       		.uleb128 0xe
 1080 010e 3A       		.uleb128 0x3a
 1081 010f 0B       		.uleb128 0xb
 1082 0110 3B       		.uleb128 0x3b
 1083 0111 05       		.uleb128 0x5
 1084 0112 49       		.uleb128 0x49
 1085 0113 13       		.uleb128 0x13
 1086 0114 02       		.uleb128 0x2
 1087 0115 18       		.uleb128 0x18
 1088 0116 00       		.byte	0
 1089 0117 00       		.byte	0
 1090 0118 14       		.uleb128 0x14
 1091 0119 2E       		.uleb128 0x2e
 1092 011a 01       		.byte	0x1
 1093 011b 3F       		.uleb128 0x3f
 1094 011c 19       		.uleb128 0x19
 1095 011d 03       		.uleb128 0x3
 1096 011e 0E       		.uleb128 0xe
 1097 011f 3A       		.uleb128 0x3a
ARM GAS  C:\Users\diego\AppData\Local\Temp\cc4VDpYc.s 			page 30


 1098 0120 0B       		.uleb128 0xb
 1099 0121 3B       		.uleb128 0x3b
 1100 0122 05       		.uleb128 0x5
 1101 0123 27       		.uleb128 0x27
 1102 0124 19       		.uleb128 0x19
 1103 0125 8701     		.uleb128 0x87
 1104 0127 19       		.uleb128 0x19
 1105 0128 11       		.uleb128 0x11
 1106 0129 01       		.uleb128 0x1
 1107 012a 12       		.uleb128 0x12
 1108 012b 06       		.uleb128 0x6
 1109 012c 40       		.uleb128 0x40
 1110 012d 18       		.uleb128 0x18
 1111 012e 9642     		.uleb128 0x2116
 1112 0130 19       		.uleb128 0x19
 1113 0131 01       		.uleb128 0x1
 1114 0132 13       		.uleb128 0x13
 1115 0133 00       		.byte	0
 1116 0134 00       		.byte	0
 1117 0135 15       		.uleb128 0x15
 1118 0136 0B       		.uleb128 0xb
 1119 0137 01       		.byte	0x1
 1120 0138 11       		.uleb128 0x11
 1121 0139 01       		.uleb128 0x1
 1122 013a 12       		.uleb128 0x12
 1123 013b 06       		.uleb128 0x6
 1124 013c 00       		.byte	0
 1125 013d 00       		.byte	0
 1126 013e 16       		.uleb128 0x16
 1127 013f 34       		.uleb128 0x34
 1128 0140 00       		.byte	0
 1129 0141 03       		.uleb128 0x3
 1130 0142 08       		.uleb128 0x8
 1131 0143 3A       		.uleb128 0x3a
 1132 0144 0B       		.uleb128 0xb
 1133 0145 3B       		.uleb128 0x3b
 1134 0146 05       		.uleb128 0x5
 1135 0147 49       		.uleb128 0x49
 1136 0148 13       		.uleb128 0x13
 1137 0149 02       		.uleb128 0x2
 1138 014a 18       		.uleb128 0x18
 1139 014b 00       		.byte	0
 1140 014c 00       		.byte	0
 1141 014d 17       		.uleb128 0x17
 1142 014e 2E       		.uleb128 0x2e
 1143 014f 00       		.byte	0
 1144 0150 3F       		.uleb128 0x3f
 1145 0151 19       		.uleb128 0x19
 1146 0152 03       		.uleb128 0x3
 1147 0153 0E       		.uleb128 0xe
 1148 0154 3A       		.uleb128 0x3a
 1149 0155 0B       		.uleb128 0xb
 1150 0156 3B       		.uleb128 0x3b
 1151 0157 05       		.uleb128 0x5
 1152 0158 27       		.uleb128 0x27
 1153 0159 19       		.uleb128 0x19
 1154 015a 11       		.uleb128 0x11
ARM GAS  C:\Users\diego\AppData\Local\Temp\cc4VDpYc.s 			page 31


 1155 015b 01       		.uleb128 0x1
 1156 015c 12       		.uleb128 0x12
 1157 015d 06       		.uleb128 0x6
 1158 015e 40       		.uleb128 0x40
 1159 015f 18       		.uleb128 0x18
 1160 0160 9642     		.uleb128 0x2116
 1161 0162 19       		.uleb128 0x19
 1162 0163 00       		.byte	0
 1163 0164 00       		.byte	0
 1164 0165 18       		.uleb128 0x18
 1165 0166 2E       		.uleb128 0x2e
 1166 0167 01       		.byte	0x1
 1167 0168 3F       		.uleb128 0x3f
 1168 0169 19       		.uleb128 0x19
 1169 016a 03       		.uleb128 0x3
 1170 016b 0E       		.uleb128 0xe
 1171 016c 3A       		.uleb128 0x3a
 1172 016d 0B       		.uleb128 0xb
 1173 016e 3B       		.uleb128 0x3b
 1174 016f 05       		.uleb128 0x5
 1175 0170 27       		.uleb128 0x27
 1176 0171 19       		.uleb128 0x19
 1177 0172 11       		.uleb128 0x11
 1178 0173 01       		.uleb128 0x1
 1179 0174 12       		.uleb128 0x12
 1180 0175 06       		.uleb128 0x6
 1181 0176 40       		.uleb128 0x40
 1182 0177 18       		.uleb128 0x18
 1183 0178 9642     		.uleb128 0x2116
 1184 017a 19       		.uleb128 0x19
 1185 017b 01       		.uleb128 0x1
 1186 017c 13       		.uleb128 0x13
 1187 017d 00       		.byte	0
 1188 017e 00       		.byte	0
 1189 017f 19       		.uleb128 0x19
 1190 0180 34       		.uleb128 0x34
 1191 0181 00       		.byte	0
 1192 0182 03       		.uleb128 0x3
 1193 0183 0E       		.uleb128 0xe
 1194 0184 3A       		.uleb128 0x3a
 1195 0185 0B       		.uleb128 0xb
 1196 0186 3B       		.uleb128 0x3b
 1197 0187 0B       		.uleb128 0xb
 1198 0188 49       		.uleb128 0x49
 1199 0189 13       		.uleb128 0x13
 1200 018a 02       		.uleb128 0x2
 1201 018b 18       		.uleb128 0x18
 1202 018c 00       		.byte	0
 1203 018d 00       		.byte	0
 1204 018e 1A       		.uleb128 0x1a
 1205 018f 01       		.uleb128 0x1
 1206 0190 01       		.byte	0x1
 1207 0191 49       		.uleb128 0x49
 1208 0192 13       		.uleb128 0x13
 1209 0193 01       		.uleb128 0x1
 1210 0194 13       		.uleb128 0x13
 1211 0195 00       		.byte	0
ARM GAS  C:\Users\diego\AppData\Local\Temp\cc4VDpYc.s 			page 32


 1212 0196 00       		.byte	0
 1213 0197 1B       		.uleb128 0x1b
 1214 0198 21       		.uleb128 0x21
 1215 0199 00       		.byte	0
 1216 019a 00       		.byte	0
 1217 019b 00       		.byte	0
 1218 019c 1C       		.uleb128 0x1c
 1219 019d 34       		.uleb128 0x34
 1220 019e 00       		.byte	0
 1221 019f 03       		.uleb128 0x3
 1222 01a0 0E       		.uleb128 0xe
 1223 01a1 3A       		.uleb128 0x3a
 1224 01a2 0B       		.uleb128 0xb
 1225 01a3 3B       		.uleb128 0x3b
 1226 01a4 0B       		.uleb128 0xb
 1227 01a5 49       		.uleb128 0x49
 1228 01a6 13       		.uleb128 0x13
 1229 01a7 3F       		.uleb128 0x3f
 1230 01a8 19       		.uleb128 0x19
 1231 01a9 3C       		.uleb128 0x3c
 1232 01aa 19       		.uleb128 0x19
 1233 01ab 00       		.byte	0
 1234 01ac 00       		.byte	0
 1235 01ad 1D       		.uleb128 0x1d
 1236 01ae 21       		.uleb128 0x21
 1237 01af 00       		.byte	0
 1238 01b0 49       		.uleb128 0x49
 1239 01b1 13       		.uleb128 0x13
 1240 01b2 2F       		.uleb128 0x2f
 1241 01b3 0B       		.uleb128 0xb
 1242 01b4 00       		.byte	0
 1243 01b5 00       		.byte	0
 1244 01b6 1E       		.uleb128 0x1e
 1245 01b7 34       		.uleb128 0x34
 1246 01b8 00       		.byte	0
 1247 01b9 03       		.uleb128 0x3
 1248 01ba 0E       		.uleb128 0xe
 1249 01bb 3A       		.uleb128 0x3a
 1250 01bc 0B       		.uleb128 0xb
 1251 01bd 3B       		.uleb128 0x3b
 1252 01be 05       		.uleb128 0x5
 1253 01bf 49       		.uleb128 0x49
 1254 01c0 13       		.uleb128 0x13
 1255 01c1 3F       		.uleb128 0x3f
 1256 01c2 19       		.uleb128 0x19
 1257 01c3 02       		.uleb128 0x2
 1258 01c4 18       		.uleb128 0x18
 1259 01c5 00       		.byte	0
 1260 01c6 00       		.byte	0
 1261 01c7 00       		.byte	0
 1262              		.section	.debug_aranges,"",%progbits
 1263 0000 44000000 		.4byte	0x44
 1264 0004 0200     		.2byte	0x2
 1265 0006 00000000 		.4byte	.Ldebug_info0
 1266 000a 04       		.byte	0x4
 1267 000b 00       		.byte	0
 1268 000c 0000     		.2byte	0
ARM GAS  C:\Users\diego\AppData\Local\Temp\cc4VDpYc.s 			page 33


 1269 000e 0000     		.2byte	0
 1270 0010 00000000 		.4byte	.LFB2
 1271 0014 14000000 		.4byte	.LFE2-.LFB2
 1272 0018 00000000 		.4byte	.LFB3
 1273 001c 14000000 		.4byte	.LFE3-.LFB3
 1274 0020 00000000 		.4byte	.LFB4
 1275 0024 54000000 		.4byte	.LFE4-.LFB4
 1276 0028 00000000 		.4byte	.LFB5
 1277 002c 98000000 		.4byte	.LFE5-.LFB5
 1278 0030 00000000 		.4byte	.LFB6
 1279 0034 08000000 		.4byte	.LFE6-.LFB6
 1280 0038 00000000 		.4byte	.LFB7
 1281 003c 70000000 		.4byte	.LFE7-.LFB7
 1282 0040 00000000 		.4byte	0
 1283 0044 00000000 		.4byte	0
 1284              		.section	.debug_ranges,"",%progbits
 1285              	.Ldebug_ranges0:
 1286 0000 00000000 		.4byte	.LFB2
 1287 0004 14000000 		.4byte	.LFE2
 1288 0008 00000000 		.4byte	.LFB3
 1289 000c 14000000 		.4byte	.LFE3
 1290 0010 00000000 		.4byte	.LFB4
 1291 0014 54000000 		.4byte	.LFE4
 1292 0018 00000000 		.4byte	.LFB5
 1293 001c 98000000 		.4byte	.LFE5
 1294 0020 00000000 		.4byte	.LFB6
 1295 0024 08000000 		.4byte	.LFE6
 1296 0028 00000000 		.4byte	.LFB7
 1297 002c 70000000 		.4byte	.LFE7
 1298 0030 00000000 		.4byte	0
 1299 0034 00000000 		.4byte	0
 1300              		.section	.debug_line,"",%progbits
 1301              	.Ldebug_line0:
 1302 0000 B8010000 		.section	.debug_str,"MS",%progbits,1
 1302      0200B300 
 1302      00000201 
 1302      FB0E0D00 
 1302      01010101 
 1303              	.LASF16:
 1304 0000 72656733 		.ascii	"reg32\000"
 1304      3200
 1305              	.LASF43:
 1306 0006 453A5C50 		.ascii	"E:\\Progetti\\Cypress\\Test\\BLE_Accelerometer_cell"
 1306      726F6765 
 1306      7474695C 
 1306      43797072 
 1306      6573735C 
 1307 0035 2E637964 		.ascii	".cydsn\000"
 1307      736E00
 1308              	.LASF10:
 1309 003c 73697A65 		.ascii	"size_t\000"
 1309      5F7400
 1310              	.LASF39:
 1311 0043 43795261 		.ascii	"CyRamVectors\000"
 1311      6D566563 
 1311      746F7273 
 1311      00
ARM GAS  C:\Users\diego\AppData\Local\Temp\cc4VDpYc.s 			page 34


 1312              	.LASF30:
 1313 0050 53746172 		.ascii	"Start_c\000"
 1313      745F6300 
 1314              	.LASF34:
 1315 0058 636F756E 		.ascii	"count\000"
 1315      7400
 1316              	.LASF29:
 1317 005e 68656170 		.ascii	"heapPointer\000"
 1317      506F696E 
 1317      74657200 
 1318              	.LASF3:
 1319 006a 73686F72 		.ascii	"short unsigned int\000"
 1319      7420756E 
 1319      7369676E 
 1319      65642069 
 1319      6E7400
 1320              	.LASF38:
 1321 007d 5F5F6379 		.ascii	"__cy_region_num\000"
 1321      5F726567 
 1321      696F6E5F 
 1321      6E756D00 
 1322              	.LASF20:
 1323 008d 696E6974 		.ascii	"init\000"
 1323      00
 1324              	.LASF26:
 1325 0092 73746174 		.ascii	"status\000"
 1325      757300
 1326              	.LASF23:
 1327 0099 7A65726F 		.ascii	"zero_size\000"
 1327      5F73697A 
 1327      6500
 1328              	.LASF32:
 1329 00a3 72707472 		.ascii	"rptr\000"
 1329      00
 1330              	.LASF13:
 1331 00a8 666C6F61 		.ascii	"float\000"
 1331      7400
 1332              	.LASF21:
 1333 00ae 64617461 		.ascii	"data\000"
 1333      00
 1334              	.LASF1:
 1335 00b3 756E7369 		.ascii	"unsigned char\000"
 1335      676E6564 
 1335      20636861 
 1335      7200
 1336              	.LASF28:
 1337 00c1 72657475 		.ascii	"returnValue\000"
 1337      726E5661 
 1337      6C756500 
 1338              	.LASF40:
 1339 00cd 526F6D56 		.ascii	"RomVectors\000"
 1339      6563746F 
 1339      727300
 1340              	.LASF5:
 1341 00d8 6C6F6E67 		.ascii	"long unsigned int\000"
 1341      20756E73 
 1341      69676E65 
ARM GAS  C:\Users\diego\AppData\Local\Temp\cc4VDpYc.s 			page 35


 1341      6420696E 
 1341      7400
 1342              	.LASF36:
 1343 00ea 63795379 		.ascii	"cySysNoInitDataValid\000"
 1343      734E6F49 
 1343      6E697444 
 1343      61746156 
 1343      616C6964 
 1344              	.LASF11:
 1345 00ff 75696E74 		.ascii	"uint8\000"
 1345      3800
 1346              	.LASF46:
 1347 0105 52657365 		.ascii	"Reset\000"
 1347      7400
 1348              	.LASF41:
 1349 010b 474E5520 		.ascii	"GNU C11 5.4.1 20160609 (release) [ARM/embedded-5-br"
 1349      43313120 
 1349      352E342E 
 1349      31203230 
 1349      31363036 
 1350 013e 616E6368 		.ascii	"anch revision 237715] -mcpu=cortex-m0 -mthumb -g -O"
 1350      20726576 
 1350      6973696F 
 1350      6E203233 
 1350      37373135 
 1351 0171 30202D66 		.ascii	"0 -ffunction-sections -ffat-lto-objects\000"
 1351      66756E63 
 1351      74696F6E 
 1351      2D736563 
 1351      74696F6E 
 1352              	.LASF24:
 1353 0199 5F657869 		.ascii	"_exit\000"
 1353      7400
 1354              	.LASF45:
 1355 019f 496E7444 		.ascii	"IntDefaultHandler\000"
 1355      65666175 
 1355      6C744861 
 1355      6E646C65 
 1355      7200
 1356              	.LASF25:
 1357 01b1 5F736272 		.ascii	"_sbrk\000"
 1357      6B00
 1358              	.LASF14:
 1359 01b7 646F7562 		.ascii	"double\000"
 1359      6C6500
 1360              	.LASF47:
 1361 01be 696E6974 		.ascii	"initialize_psoc\000"
 1361      69616C69 
 1361      7A655F70 
 1361      736F6300 
 1362              	.LASF42:
 1363 01ce 47656E65 		.ascii	"Generated_Source\\PSoC4\\Cm0Start.c\000"
 1363      72617465 
 1363      645F536F 
 1363      75726365 
 1363      5C50536F 
 1364              	.LASF12:
ARM GAS  C:\Users\diego\AppData\Local\Temp\cc4VDpYc.s 			page 36


 1365 01f0 75696E74 		.ascii	"uint32\000"
 1365      333200
 1366              	.LASF35:
 1367 01f7 696E6465 		.ascii	"indexInit\000"
 1367      78496E69 
 1367      7400
 1368              	.LASF8:
 1369 0201 756E7369 		.ascii	"unsigned int\000"
 1369      676E6564 
 1369      20696E74 
 1369      00
 1370              	.LASF7:
 1371 020e 6C6F6E67 		.ascii	"long long unsigned int\000"
 1371      206C6F6E 
 1371      6720756E 
 1371      7369676E 
 1371      65642069 
 1372              	.LASF33:
 1373 0225 6C696D69 		.ascii	"limit\000"
 1373      7400
 1374              	.LASF17:
 1375 022b 63796973 		.ascii	"cyisraddress\000"
 1375      72616464 
 1375      72657373 
 1375      00
 1376              	.LASF22:
 1377 0238 696E6974 		.ascii	"init_size\000"
 1377      5F73697A 
 1377      6500
 1378              	.LASF19:
 1379 0242 5F5F6379 		.ascii	"__cy_byte_align8\000"
 1379      5F627974 
 1379      655F616C 
 1379      69676E38 
 1379      00
 1380              	.LASF18:
 1381 0253 73697A65 		.ascii	"sizetype\000"
 1381      74797065 
 1381      00
 1382              	.LASF6:
 1383 025c 6C6F6E67 		.ascii	"long long int\000"
 1383      206C6F6E 
 1383      6720696E 
 1383      7400
 1384              	.LASF15:
 1385 026a 63686172 		.ascii	"char\000"
 1385      00
 1386              	.LASF2:
 1387 026f 73686F72 		.ascii	"short int\000"
 1387      7420696E 
 1387      7400
 1388              	.LASF4:
 1389 0279 6C6F6E67 		.ascii	"long int\000"
 1389      20696E74 
 1389      00
 1390              	.LASF9:
 1391 0282 6C6F6E67 		.ascii	"long double\000"
ARM GAS  C:\Users\diego\AppData\Local\Temp\cc4VDpYc.s 			page 37


 1391      20646F75 
 1391      626C6500 
 1392              	.LASF0:
 1393 028e 7369676E 		.ascii	"signed char\000"
 1393      65642063 
 1393      68617200 
 1394              	.LASF37:
 1395 029a 5F5F6379 		.ascii	"__cy_regions\000"
 1395      5F726567 
 1395      696F6E73 
 1395      00
 1396              	.LASF31:
 1397 02a7 72656769 		.ascii	"regions\000"
 1397      6F6E7300 
 1398              	.LASF27:
 1399 02af 6E627974 		.ascii	"nbytes\000"
 1399      657300
 1400              	.LASF44:
 1401 02b6 5F5F6379 		.ascii	"__cy_region\000"
 1401      5F726567 
 1401      696F6E00 
 1402              		.ident	"GCC: (GNU Tools for ARM Embedded Processors) 5.4.1 20160609 (release) [ARM/embedded-5-bran
