ARM GAS  C:\Users\diego\AppData\Local\Temp\ccGfyfKg.s 			page 1


   1              		.syntax unified
   2              		.cpu cortex-m0
   3              		.fpu softvfp
   4              		.eabi_attribute 20, 1
   5              		.eabi_attribute 21, 1
   6              		.eabi_attribute 23, 3
   7              		.eabi_attribute 24, 1
   8              		.eabi_attribute 25, 1
   9              		.eabi_attribute 26, 1
  10              		.eabi_attribute 30, 6
  11              		.eabi_attribute 34, 0
  12              		.eabi_attribute 18, 4
  13              		.thumb
  14              		.syntax unified
  15              		.file	"m95020.c"
  16              		.text
  17              	.Ltext0:
  18              		.cfi_sections	.debug_frame
  19              		.comm	status_reg,4,4
  20              		.comm	arr,100,4
  21              		.section	.text.fram_init,"ax",%progbits
  22              		.align	2
  23              		.global	fram_init
  24              		.code	16
  25              		.thumb_func
  26              		.type	fram_init, %function
  27              	fram_init:
  28              	.LFB2:
  29              		.file 1 "m95020.c"
   1:m95020.c      **** /* ========================================
   2:m95020.c      ****  *
   3:m95020.c      ****  * Copyright YOUR COMPANY, THE YEAR
   4:m95020.c      ****  * All Rights Reserved
   5:m95020.c      ****  * UNPUBLISHED, LICENSED SOFTWARE.
   6:m95020.c      ****  *
   7:m95020.c      ****  * CONFIDENTIAL AND PROPRIETARY INFORMATION
   8:m95020.c      ****  * WHICH IS THE PROPERTY OF your company.
   9:m95020.c      ****  *
  10:m95020.c      ****  * ========================================
  11:m95020.c      **** */
  12:m95020.c      **** 
  13:m95020.c      **** /* [] END OF FILE */
  14:m95020.c      **** 
  15:m95020.c      **** #include "m95020.h"
  16:m95020.c      **** 
  17:m95020.c      **** #include "SPIM.h"
  18:m95020.c      **** #include "SPIM_SPI_UART.h"
  19:m95020.c      **** #include "SPIM_PINS.h"
  20:m95020.c      **** #include "SPIM_SPI_UART_PVT.h"
  21:m95020.c      **** #include "SPIM_PVT.h"
  22:m95020.c      **** #include "SPIM_BOOT.h"
  23:m95020.c      **** 
  24:m95020.c      **** #include "cs_ee.h"
  25:m95020.c      **** 
  26:m95020.c      **** void    fram_write_enable();
  27:m95020.c      **** uint8_t fram_write_isenable();
  28:m95020.c      **** uint8_t fram_read_statusreg();
ARM GAS  C:\Users\diego\AppData\Local\Temp\ccGfyfKg.s 			page 2


  29:m95020.c      **** 
  30:m95020.c      **** statusreg_u status_reg;
  31:m95020.c      **** 
  32:m95020.c      **** uint8_t arr[100];
  33:m95020.c      **** 
  34:m95020.c      **** uint8_t fram_init()
  35:m95020.c      **** {
  30              		.loc 1 35 0
  31              		.cfi_startproc
  32              		@ args = 0, pretend = 0, frame = 8
  33              		@ frame_needed = 1, uses_anonymous_args = 0
  34 0000 80B5     		push	{r7, lr}
  35              		.cfi_def_cfa_offset 8
  36              		.cfi_offset 7, -8
  37              		.cfi_offset 14, -4
  38 0002 82B0     		sub	sp, sp, #8
  39              		.cfi_def_cfa_offset 16
  40 0004 00AF     		add	r7, sp, #0
  41              		.cfi_def_cfa_register 7
  36:m95020.c      ****     
  37:m95020.c      ****     uint8_t test = 0xaa;
  42              		.loc 1 37 0
  43 0006 FB1D     		adds	r3, r7, #7
  44 0008 AA22     		movs	r2, #170
  45 000a 1A70     		strb	r2, [r3]
  38:m95020.c      ****     
  39:m95020.c      ****     fram_write_byte(0,test);
  46              		.loc 1 39 0
  47 000c FB1D     		adds	r3, r7, #7
  48 000e 1B78     		ldrb	r3, [r3]
  49 0010 1900     		movs	r1, r3
  50 0012 0020     		movs	r0, #0
  51 0014 FFF7FEFF 		bl	fram_write_byte
  40:m95020.c      ****     
  41:m95020.c      ****     test = 0;
  52              		.loc 1 41 0
  53 0018 FB1D     		adds	r3, r7, #7
  54 001a 0022     		movs	r2, #0
  55 001c 1A70     		strb	r2, [r3]
  42:m95020.c      ****     
  43:m95020.c      ****     fram_read_byte(0,&test);
  56              		.loc 1 43 0
  57 001e FB1D     		adds	r3, r7, #7
  58 0020 1900     		movs	r1, r3
  59 0022 0020     		movs	r0, #0
  60 0024 FFF7FEFF 		bl	fram_read_byte
  44:m95020.c      **** 
  45:m95020.c      ****     
  46:m95020.c      **** //    for( test = 0; test < 100; test++)
  47:m95020.c      **** //    {
  48:m95020.c      **** //        if( (test %2) == 0 )
  49:m95020.c      **** //            arr[test] = 0x55;    
  50:m95020.c      **** //        else arr[test] = 0xaa;    
  51:m95020.c      **** //    }
  52:m95020.c      **** //    
  53:m95020.c      **** //    fram_write_array( 1, arr , 100 );
  54:m95020.c      **** //    
ARM GAS  C:\Users\diego\AppData\Local\Temp\ccGfyfKg.s 			page 3


  55:m95020.c      **** //    for( test = 0; test < 100; test++)
  56:m95020.c      **** //    {
  57:m95020.c      **** //        arr[test] = 0;    
  58:m95020.c      **** //    }
  59:m95020.c      **** //
  60:m95020.c      **** //    fram_read_array(1,arr,100);
  61:m95020.c      ****     
  62:m95020.c      ****     if( test == 0xAA ) return 1;
  61              		.loc 1 62 0
  62 0028 FB1D     		adds	r3, r7, #7
  63 002a 1B78     		ldrb	r3, [r3]
  64 002c AA2B     		cmp	r3, #170
  65 002e 01D1     		bne	.L2
  66              		.loc 1 62 0 is_stmt 0 discriminator 1
  67 0030 0123     		movs	r3, #1
  68 0032 00E0     		b	.L4
  69              	.L2:
  63:m95020.c      ****     else               return 0;
  70              		.loc 1 63 0 is_stmt 1
  71 0034 0023     		movs	r3, #0
  72              	.L4:
  64:m95020.c      ****     
  65:m95020.c      **** }
  73              		.loc 1 65 0 discriminator 1
  74 0036 1800     		movs	r0, r3
  75 0038 BD46     		mov	sp, r7
  76 003a 02B0     		add	sp, sp, #8
  77              		@ sp needed
  78 003c 80BD     		pop	{r7, pc}
  79              		.cfi_endproc
  80              	.LFE2:
  81              		.size	fram_init, .-fram_init
  82 003e C046     		.section	.text.fram_write_byte,"ax",%progbits
  83              		.align	2
  84              		.global	fram_write_byte
  85              		.code	16
  86              		.thumb_func
  87              		.type	fram_write_byte, %function
  88              	fram_write_byte:
  89              	.LFB3:
  66:m95020.c      **** 
  67:m95020.c      **** 
  68:m95020.c      **** void fram_write_byte( uint8_t address, uint8_t val )
  69:m95020.c      **** {
  90              		.loc 1 69 0
  91              		.cfi_startproc
  92              		@ args = 0, pretend = 0, frame = 16
  93              		@ frame_needed = 1, uses_anonymous_args = 0
  94 0000 80B5     		push	{r7, lr}
  95              		.cfi_def_cfa_offset 8
  96              		.cfi_offset 7, -8
  97              		.cfi_offset 14, -4
  98 0002 84B0     		sub	sp, sp, #16
  99              		.cfi_def_cfa_offset 24
 100 0004 00AF     		add	r7, sp, #0
 101              		.cfi_def_cfa_register 7
 102 0006 0200     		movs	r2, r0
ARM GAS  C:\Users\diego\AppData\Local\Temp\ccGfyfKg.s 			page 4


 103 0008 FB1D     		adds	r3, r7, #7
 104 000a 1A70     		strb	r2, [r3]
 105 000c BB1D     		adds	r3, r7, #6
 106 000e 0A1C     		adds	r2, r1, #0
 107 0010 1A70     		strb	r2, [r3]
  70:m95020.c      ****     uint8_t buf[3];
  71:m95020.c      ****     fram_write_enable();
 108              		.loc 1 71 0
 109 0012 FFF7FEFF 		bl	fram_write_enable
  72:m95020.c      **** 
  73:m95020.c      ****     buf[0] = WRITE;
 110              		.loc 1 73 0
 111 0016 0C23     		movs	r3, #12
 112 0018 FB18     		adds	r3, r7, r3
 113 001a 0222     		movs	r2, #2
 114 001c 1A70     		strb	r2, [r3]
  74:m95020.c      ****     buf[1] = address;
 115              		.loc 1 74 0
 116 001e 0C23     		movs	r3, #12
 117 0020 FB18     		adds	r3, r7, r3
 118 0022 FA1D     		adds	r2, r7, #7
 119 0024 1278     		ldrb	r2, [r2]
 120 0026 5A70     		strb	r2, [r3, #1]
  75:m95020.c      ****     buf[2] = val;
 121              		.loc 1 75 0
 122 0028 0C23     		movs	r3, #12
 123 002a FB18     		adds	r3, r7, r3
 124 002c BA1D     		adds	r2, r7, #6
 125 002e 1278     		ldrb	r2, [r2]
 126 0030 9A70     		strb	r2, [r3, #2]
  76:m95020.c      ****     
  77:m95020.c      ****     SPIM_SpiUartClearRxBuffer();
 127              		.loc 1 77 0
 128 0032 FFF7FEFF 		bl	SPIM_SpiUartClearRxBuffer
  78:m95020.c      ****     
  79:m95020.c      ****     cs_ee_Write(0);
 129              		.loc 1 79 0
 130 0036 0020     		movs	r0, #0
 131 0038 FFF7FEFF 		bl	cs_ee_Write
  80:m95020.c      ****     
  81:m95020.c      ****     CyDelayUs(5);
 132              		.loc 1 81 0
 133 003c 0520     		movs	r0, #5
 134 003e FFF7FEFF 		bl	CyDelayUs
  82:m95020.c      ****     
  83:m95020.c      ****     SPIM_SpiUartPutArray(buf,3);
 135              		.loc 1 83 0
 136 0042 0C23     		movs	r3, #12
 137 0044 FB18     		adds	r3, r7, r3
 138 0046 0321     		movs	r1, #3
 139 0048 1800     		movs	r0, r3
 140 004a FFF7FEFF 		bl	SPIM_SpiUartPutArray
  84:m95020.c      ****         
  85:m95020.c      ****     while (SPIM_SpiUartGetRxBufferSize() != 3 )
 141              		.loc 1 85 0
 142 004e C046     		nop
 143              	.L6:
ARM GAS  C:\Users\diego\AppData\Local\Temp\ccGfyfKg.s 			page 5


 144              		.loc 1 85 0 is_stmt 0 discriminator 1
 145 0050 FFF7FEFF 		bl	SPIM_SpiUartGetRxBufferSize
 146 0054 0300     		movs	r3, r0
 147 0056 032B     		cmp	r3, #3
 148 0058 FAD1     		bne	.L6
  86:m95020.c      ****     {
  87:m95020.c      ****     }
  88:m95020.c      **** 
  89:m95020.c      ****     cs_ee_Write(1);
 149              		.loc 1 89 0 is_stmt 1
 150 005a 0120     		movs	r0, #1
 151 005c FFF7FEFF 		bl	cs_ee_Write
  90:m95020.c      ****     
  91:m95020.c      ****     SPIM_SpiUartClearTxBuffer();
 152              		.loc 1 91 0
 153 0060 FFF7FEFF 		bl	SPIM_SpiUartClearTxBuffer
 154              	.L7:
  92:m95020.c      ****     
  93:m95020.c      ****     do 
  94:m95020.c      ****     {
  95:m95020.c      ****         fram_read_statusreg();
 155              		.loc 1 95 0 discriminator 1
 156 0064 FFF7FEFF 		bl	fram_read_statusreg
  96:m95020.c      ****         CyDelay(1);
 157              		.loc 1 96 0 discriminator 1
 158 0068 0120     		movs	r0, #1
 159 006a FFF7FEFF 		bl	CyDelay
  97:m95020.c      ****     }while( status_reg.b.WIP );
 160              		.loc 1 97 0 discriminator 1
 161 006e 054B     		ldr	r3, .L8
 162 0070 1B78     		ldrb	r3, [r3]
 163 0072 0122     		movs	r2, #1
 164 0074 1340     		ands	r3, r2
 165 0076 DBB2     		uxtb	r3, r3
 166 0078 002B     		cmp	r3, #0
 167 007a F3D1     		bne	.L7
  98:m95020.c      **** 
  99:m95020.c      **** }
 168              		.loc 1 99 0
 169 007c C046     		nop
 170 007e BD46     		mov	sp, r7
 171 0080 04B0     		add	sp, sp, #16
 172              		@ sp needed
 173 0082 80BD     		pop	{r7, pc}
 174              	.L9:
 175              		.align	2
 176              	.L8:
 177 0084 00000000 		.word	status_reg
 178              		.cfi_endproc
 179              	.LFE3:
 180              		.size	fram_write_byte, .-fram_write_byte
 181              		.section	.text.fram_read_byte,"ax",%progbits
 182              		.align	2
 183              		.global	fram_read_byte
 184              		.code	16
 185              		.thumb_func
 186              		.type	fram_read_byte, %function
ARM GAS  C:\Users\diego\AppData\Local\Temp\ccGfyfKg.s 			page 6


 187              	fram_read_byte:
 188              	.LFB4:
 100:m95020.c      **** 
 101:m95020.c      **** void fram_read_byte( uint8_t address, uint8_t* val )
 102:m95020.c      **** {
 189              		.loc 1 102 0
 190              		.cfi_startproc
 191              		@ args = 0, pretend = 0, frame = 16
 192              		@ frame_needed = 1, uses_anonymous_args = 0
 193 0000 80B5     		push	{r7, lr}
 194              		.cfi_def_cfa_offset 8
 195              		.cfi_offset 7, -8
 196              		.cfi_offset 14, -4
 197 0002 84B0     		sub	sp, sp, #16
 198              		.cfi_def_cfa_offset 24
 199 0004 00AF     		add	r7, sp, #0
 200              		.cfi_def_cfa_register 7
 201 0006 0200     		movs	r2, r0
 202 0008 3960     		str	r1, [r7]
 203 000a FB1D     		adds	r3, r7, #7
 204 000c 1A70     		strb	r2, [r3]
 103:m95020.c      ****     uint8_t buf[3];
 104:m95020.c      ****     fram_write_enable();
 205              		.loc 1 104 0
 206 000e FFF7FEFF 		bl	fram_write_enable
 105:m95020.c      **** 
 106:m95020.c      ****     buf[0] = READ;
 207              		.loc 1 106 0
 208 0012 0C23     		movs	r3, #12
 209 0014 FB18     		adds	r3, r7, r3
 210 0016 0322     		movs	r2, #3
 211 0018 1A70     		strb	r2, [r3]
 107:m95020.c      ****     buf[1] = address;
 212              		.loc 1 107 0
 213 001a 0C23     		movs	r3, #12
 214 001c FB18     		adds	r3, r7, r3
 215 001e FA1D     		adds	r2, r7, #7
 216 0020 1278     		ldrb	r2, [r2]
 217 0022 5A70     		strb	r2, [r3, #1]
 108:m95020.c      ****     buf[2] = 0;
 218              		.loc 1 108 0
 219 0024 0C23     		movs	r3, #12
 220 0026 FB18     		adds	r3, r7, r3
 221 0028 0022     		movs	r2, #0
 222 002a 9A70     		strb	r2, [r3, #2]
 109:m95020.c      ****     
 110:m95020.c      ****     SPIM_SpiUartClearRxBuffer();
 223              		.loc 1 110 0
 224 002c FFF7FEFF 		bl	SPIM_SpiUartClearRxBuffer
 111:m95020.c      ****     
 112:m95020.c      ****     cs_ee_Write(0);
 225              		.loc 1 112 0
 226 0030 0020     		movs	r0, #0
 227 0032 FFF7FEFF 		bl	cs_ee_Write
 113:m95020.c      ****     
 114:m95020.c      ****     CyDelayUs(5);
 228              		.loc 1 114 0
ARM GAS  C:\Users\diego\AppData\Local\Temp\ccGfyfKg.s 			page 7


 229 0036 0520     		movs	r0, #5
 230 0038 FFF7FEFF 		bl	CyDelayUs
 115:m95020.c      ****     
 116:m95020.c      ****     SPIM_SpiUartPutArray(buf,3);
 231              		.loc 1 116 0
 232 003c 0C23     		movs	r3, #12
 233 003e FB18     		adds	r3, r7, r3
 234 0040 0321     		movs	r1, #3
 235 0042 1800     		movs	r0, r3
 236 0044 FFF7FEFF 		bl	SPIM_SpiUartPutArray
 117:m95020.c      ****         
 118:m95020.c      ****     while (SPIM_SpiUartGetRxBufferSize() != 3 )
 237              		.loc 1 118 0
 238 0048 C046     		nop
 239              	.L11:
 240              		.loc 1 118 0 is_stmt 0 discriminator 1
 241 004a FFF7FEFF 		bl	SPIM_SpiUartGetRxBufferSize
 242 004e 0300     		movs	r3, r0
 243 0050 032B     		cmp	r3, #3
 244 0052 FAD1     		bne	.L11
 119:m95020.c      ****     {
 120:m95020.c      ****     }
 121:m95020.c      ****     
 122:m95020.c      ****     cs_ee_Write(1);
 245              		.loc 1 122 0 is_stmt 1
 246 0054 0120     		movs	r0, #1
 247 0056 FFF7FEFF 		bl	cs_ee_Write
 123:m95020.c      **** 
 124:m95020.c      ****     buf[0] = SPIM_SpiUartReadRxData();
 248              		.loc 1 124 0
 249 005a FFF7FEFF 		bl	SPIM_SpiUartReadRxData
 250 005e 0300     		movs	r3, r0
 251 0060 DAB2     		uxtb	r2, r3
 252 0062 0C23     		movs	r3, #12
 253 0064 FB18     		adds	r3, r7, r3
 254 0066 1A70     		strb	r2, [r3]
 125:m95020.c      ****     buf[1] = SPIM_SpiUartReadRxData();
 255              		.loc 1 125 0
 256 0068 FFF7FEFF 		bl	SPIM_SpiUartReadRxData
 257 006c 0300     		movs	r3, r0
 258 006e DAB2     		uxtb	r2, r3
 259 0070 0C23     		movs	r3, #12
 260 0072 FB18     		adds	r3, r7, r3
 261 0074 5A70     		strb	r2, [r3, #1]
 126:m95020.c      **** 
 127:m95020.c      ****     *val = SPIM_SpiUartReadRxData();
 262              		.loc 1 127 0
 263 0076 FFF7FEFF 		bl	SPIM_SpiUartReadRxData
 264 007a 0300     		movs	r3, r0
 265 007c DAB2     		uxtb	r2, r3
 266 007e 3B68     		ldr	r3, [r7]
 267 0080 1A70     		strb	r2, [r3]
 128:m95020.c      ****     
 129:m95020.c      ****     SPIM_SpiUartClearTxBuffer();
 268              		.loc 1 129 0
 269 0082 FFF7FEFF 		bl	SPIM_SpiUartClearTxBuffer
 130:m95020.c      ****     
ARM GAS  C:\Users\diego\AppData\Local\Temp\ccGfyfKg.s 			page 8


 131:m95020.c      **** }
 270              		.loc 1 131 0
 271 0086 C046     		nop
 272 0088 BD46     		mov	sp, r7
 273 008a 04B0     		add	sp, sp, #16
 274              		@ sp needed
 275 008c 80BD     		pop	{r7, pc}
 276              		.cfi_endproc
 277              	.LFE4:
 278              		.size	fram_read_byte, .-fram_read_byte
 279              		.section	.text.fram_write_array,"ax",%progbits
 280              		.align	2
 281              		.global	fram_write_array
 282              		.code	16
 283              		.thumb_func
 284              		.type	fram_write_array, %function
 285              	fram_write_array:
 286              	.LFB5:
 132:m95020.c      **** 
 133:m95020.c      **** uint8_t fram_write_array( uint8_t address, uint8_t* array, uint8_t len)
 134:m95020.c      **** {
 287              		.loc 1 134 0
 288              		.cfi_startproc
 289              		@ args = 0, pretend = 0, frame = 16
 290              		@ frame_needed = 1, uses_anonymous_args = 0
 291 0000 80B5     		push	{r7, lr}
 292              		.cfi_def_cfa_offset 8
 293              		.cfi_offset 7, -8
 294              		.cfi_offset 14, -4
 295 0002 84B0     		sub	sp, sp, #16
 296              		.cfi_def_cfa_offset 24
 297 0004 00AF     		add	r7, sp, #0
 298              		.cfi_def_cfa_register 7
 299 0006 3960     		str	r1, [r7]
 300 0008 1100     		movs	r1, r2
 301 000a FB1D     		adds	r3, r7, #7
 302 000c 021C     		adds	r2, r0, #0
 303 000e 1A70     		strb	r2, [r3]
 304 0010 BB1D     		adds	r3, r7, #6
 305 0012 0A1C     		adds	r2, r1, #0
 306 0014 1A70     		strb	r2, [r3]
 135:m95020.c      ****     uint8_t buf[2];
 136:m95020.c      ****     
 137:m95020.c      ****     if( ((uint16_t)address + (uint16_t)len) > 254 ) return 0;
 307              		.loc 1 137 0
 308 0016 FB1D     		adds	r3, r7, #7
 309 0018 1A78     		ldrb	r2, [r3]
 310 001a BB1D     		adds	r3, r7, #6
 311 001c 1B78     		ldrb	r3, [r3]
 312 001e D318     		adds	r3, r2, r3
 313 0020 FE2B     		cmp	r3, #254
 314 0022 16DD     		ble	.L15
 315              		.loc 1 137 0 is_stmt 0 discriminator 1
 316 0024 0023     		movs	r3, #0
 317 0026 19E0     		b	.L17
 318              	.L16:
 138:m95020.c      ****     
ARM GAS  C:\Users\diego\AppData\Local\Temp\ccGfyfKg.s 			page 9


 139:m95020.c      **** //    fram_write_enable();
 140:m95020.c      **** //    
 141:m95020.c      **** //    buf[0] = WRITE;
 142:m95020.c      **** //    buf[1] = address;
 143:m95020.c      **** //    
 144:m95020.c      **** //    SPIM_SpiUartClearRxBuffer();
 145:m95020.c      ****     
 146:m95020.c      ****     while(len)
 147:m95020.c      ****     {
 148:m95020.c      ****         fram_write_byte(address,*array);
 319              		.loc 1 148 0 is_stmt 1
 320 0028 3B68     		ldr	r3, [r7]
 321 002a 1A78     		ldrb	r2, [r3]
 322 002c FB1D     		adds	r3, r7, #7
 323 002e 1B78     		ldrb	r3, [r3]
 324 0030 1100     		movs	r1, r2
 325 0032 1800     		movs	r0, r3
 326 0034 FFF7FEFF 		bl	fram_write_byte
 149:m95020.c      ****         ++address;
 327              		.loc 1 149 0
 328 0038 FB1D     		adds	r3, r7, #7
 329 003a FA1D     		adds	r2, r7, #7
 330 003c 1278     		ldrb	r2, [r2]
 331 003e 0132     		adds	r2, r2, #1
 332 0040 1A70     		strb	r2, [r3]
 150:m95020.c      ****         ++array;
 333              		.loc 1 150 0
 334 0042 3B68     		ldr	r3, [r7]
 335 0044 0133     		adds	r3, r3, #1
 336 0046 3B60     		str	r3, [r7]
 151:m95020.c      ****         --len;        
 337              		.loc 1 151 0
 338 0048 BB1D     		adds	r3, r7, #6
 339 004a BA1D     		adds	r2, r7, #6
 340 004c 1278     		ldrb	r2, [r2]
 341 004e 013A     		subs	r2, r2, #1
 342 0050 1A70     		strb	r2, [r3]
 343              	.L15:
 146:m95020.c      ****     {
 344              		.loc 1 146 0
 345 0052 BB1D     		adds	r3, r7, #6
 346 0054 1B78     		ldrb	r3, [r3]
 347 0056 002B     		cmp	r3, #0
 348 0058 E6D1     		bne	.L16
 152:m95020.c      ****     }
 153:m95020.c      ****     
 154:m95020.c      **** //    cs_ee_Write(0);
 155:m95020.c      **** //    
 156:m95020.c      **** //    CyDelayUs(5);
 157:m95020.c      **** //    
 158:m95020.c      **** //    SPIM_SpiUartPutArray( buf, 2);  
 159:m95020.c      **** //    SPIM_SpiUartPutArray( array, len);
 160:m95020.c      **** //
 161:m95020.c      **** //    cs_ee_Write(1);
 162:m95020.c      **** //
 163:m95020.c      **** //    SPIM_SpiUartClearTxBuffer();
 164:m95020.c      ****     
ARM GAS  C:\Users\diego\AppData\Local\Temp\ccGfyfKg.s 			page 10


 165:m95020.c      **** //    do 
 166:m95020.c      **** //    {
 167:m95020.c      **** //        fram_read_statusreg();
 168:m95020.c      **** //        CyDelay(1);
 169:m95020.c      **** //    }while( status_reg.b.WIP );
 170:m95020.c      ****     
 171:m95020.c      ****     return 1;
 349              		.loc 1 171 0
 350 005a 0123     		movs	r3, #1
 351              	.L17:
 172:m95020.c      ****     
 173:m95020.c      **** }
 352              		.loc 1 173 0 discriminator 1
 353 005c 1800     		movs	r0, r3
 354 005e BD46     		mov	sp, r7
 355 0060 04B0     		add	sp, sp, #16
 356              		@ sp needed
 357 0062 80BD     		pop	{r7, pc}
 358              		.cfi_endproc
 359              	.LFE5:
 360              		.size	fram_write_array, .-fram_write_array
 361              		.section	.text.fram_read_array,"ax",%progbits
 362              		.align	2
 363              		.global	fram_read_array
 364              		.code	16
 365              		.thumb_func
 366              		.type	fram_read_array, %function
 367              	fram_read_array:
 368              	.LFB6:
 174:m95020.c      **** 
 175:m95020.c      **** uint8_t fram_read_array( uint8_t address, uint8_t* array, uint8_t len)
 176:m95020.c      **** {
 369              		.loc 1 176 0
 370              		.cfi_startproc
 371              		@ args = 0, pretend = 0, frame = 16
 372              		@ frame_needed = 1, uses_anonymous_args = 0
 373 0000 80B5     		push	{r7, lr}
 374              		.cfi_def_cfa_offset 8
 375              		.cfi_offset 7, -8
 376              		.cfi_offset 14, -4
 377 0002 84B0     		sub	sp, sp, #16
 378              		.cfi_def_cfa_offset 24
 379 0004 00AF     		add	r7, sp, #0
 380              		.cfi_def_cfa_register 7
 381 0006 3960     		str	r1, [r7]
 382 0008 1100     		movs	r1, r2
 383 000a FB1D     		adds	r3, r7, #7
 384 000c 021C     		adds	r2, r0, #0
 385 000e 1A70     		strb	r2, [r3]
 386 0010 BB1D     		adds	r3, r7, #6
 387 0012 0A1C     		adds	r2, r1, #0
 388 0014 1A70     		strb	r2, [r3]
 177:m95020.c      ****     uint8_t buf[2];
 178:m95020.c      ****     
 179:m95020.c      ****     if( ((uint16_t)address + (uint16_t)len) > 254 ) return 0;
 389              		.loc 1 179 0
 390 0016 FB1D     		adds	r3, r7, #7
ARM GAS  C:\Users\diego\AppData\Local\Temp\ccGfyfKg.s 			page 11


 391 0018 1A78     		ldrb	r2, [r3]
 392 001a BB1D     		adds	r3, r7, #6
 393 001c 1B78     		ldrb	r3, [r3]
 394 001e D318     		adds	r3, r2, r3
 395 0020 FE2B     		cmp	r3, #254
 396 0022 15DD     		ble	.L21
 397              		.loc 1 179 0 is_stmt 0 discriminator 1
 398 0024 0023     		movs	r3, #0
 399 0026 18E0     		b	.L23
 400              	.L22:
 180:m95020.c      ****     
 181:m95020.c      ****     while(len)
 182:m95020.c      ****     {
 183:m95020.c      ****         fram_read_byte(address,array);
 401              		.loc 1 183 0 is_stmt 1
 402 0028 3A68     		ldr	r2, [r7]
 403 002a FB1D     		adds	r3, r7, #7
 404 002c 1B78     		ldrb	r3, [r3]
 405 002e 1100     		movs	r1, r2
 406 0030 1800     		movs	r0, r3
 407 0032 FFF7FEFF 		bl	fram_read_byte
 184:m95020.c      ****         ++address;
 408              		.loc 1 184 0
 409 0036 FB1D     		adds	r3, r7, #7
 410 0038 FA1D     		adds	r2, r7, #7
 411 003a 1278     		ldrb	r2, [r2]
 412 003c 0132     		adds	r2, r2, #1
 413 003e 1A70     		strb	r2, [r3]
 185:m95020.c      ****         ++array;
 414              		.loc 1 185 0
 415 0040 3B68     		ldr	r3, [r7]
 416 0042 0133     		adds	r3, r3, #1
 417 0044 3B60     		str	r3, [r7]
 186:m95020.c      ****         --len;    
 418              		.loc 1 186 0
 419 0046 BB1D     		adds	r3, r7, #6
 420 0048 BA1D     		adds	r2, r7, #6
 421 004a 1278     		ldrb	r2, [r2]
 422 004c 013A     		subs	r2, r2, #1
 423 004e 1A70     		strb	r2, [r3]
 424              	.L21:
 181:m95020.c      ****     {
 425              		.loc 1 181 0
 426 0050 BB1D     		adds	r3, r7, #6
 427 0052 1B78     		ldrb	r3, [r3]
 428 0054 002B     		cmp	r3, #0
 429 0056 E7D1     		bne	.L22
 187:m95020.c      ****     }    
 188:m95020.c      ****     return 1;
 430              		.loc 1 188 0
 431 0058 0123     		movs	r3, #1
 432              	.L23:
 189:m95020.c      **** }
 433              		.loc 1 189 0 discriminator 1
 434 005a 1800     		movs	r0, r3
 435 005c BD46     		mov	sp, r7
 436 005e 04B0     		add	sp, sp, #16
ARM GAS  C:\Users\diego\AppData\Local\Temp\ccGfyfKg.s 			page 12


 437              		@ sp needed
 438 0060 80BD     		pop	{r7, pc}
 439              		.cfi_endproc
 440              	.LFE6:
 441              		.size	fram_read_array, .-fram_read_array
 442 0062 C046     		.section	.text.fram_write_enable,"ax",%progbits
 443              		.align	2
 444              		.global	fram_write_enable
 445              		.code	16
 446              		.thumb_func
 447              		.type	fram_write_enable, %function
 448              	fram_write_enable:
 449              	.LFB7:
 190:m95020.c      **** 
 191:m95020.c      **** void fram_write_enable()
 192:m95020.c      **** {
 450              		.loc 1 192 0
 451              		.cfi_startproc
 452              		@ args = 0, pretend = 0, frame = 8
 453              		@ frame_needed = 1, uses_anonymous_args = 0
 454 0000 80B5     		push	{r7, lr}
 455              		.cfi_def_cfa_offset 8
 456              		.cfi_offset 7, -8
 457              		.cfi_offset 14, -4
 458 0002 82B0     		sub	sp, sp, #8
 459              		.cfi_def_cfa_offset 16
 460 0004 00AF     		add	r7, sp, #0
 461              		.cfi_def_cfa_register 7
 193:m95020.c      ****     uint8_t reg = WREN;    
 462              		.loc 1 193 0
 463 0006 FB1D     		adds	r3, r7, #7
 464 0008 0622     		movs	r2, #6
 465 000a 1A70     		strb	r2, [r3]
 194:m95020.c      ****     
 195:m95020.c      ****     SPIM_SpiUartClearRxBuffer();
 466              		.loc 1 195 0
 467 000c FFF7FEFF 		bl	SPIM_SpiUartClearRxBuffer
 196:m95020.c      ****     
 197:m95020.c      ****     cs_ee_Write(0);
 468              		.loc 1 197 0
 469 0010 0020     		movs	r0, #0
 470 0012 FFF7FEFF 		bl	cs_ee_Write
 198:m95020.c      ****     
 199:m95020.c      ****     CyDelayUs(5);
 471              		.loc 1 199 0
 472 0016 0520     		movs	r0, #5
 473 0018 FFF7FEFF 		bl	CyDelayUs
 200:m95020.c      ****     
 201:m95020.c      ****     SPIM_SpiUartWriteTxData( (uint32_t)reg );
 474              		.loc 1 201 0
 475 001c FB1D     		adds	r3, r7, #7
 476 001e 1B78     		ldrb	r3, [r3]
 477 0020 1800     		movs	r0, r3
 478 0022 FFF7FEFF 		bl	SPIM_SpiUartWriteTxData
 202:m95020.c      ****     
 203:m95020.c      ****     CyDelayUs(5);
 479              		.loc 1 203 0
ARM GAS  C:\Users\diego\AppData\Local\Temp\ccGfyfKg.s 			page 13


 480 0026 0520     		movs	r0, #5
 481 0028 FFF7FEFF 		bl	CyDelayUs
 204:m95020.c      **** 
 205:m95020.c      ****     cs_ee_Write(1);
 482              		.loc 1 205 0
 483 002c 0120     		movs	r0, #1
 484 002e FFF7FEFF 		bl	cs_ee_Write
 206:m95020.c      **** }
 485              		.loc 1 206 0
 486 0032 C046     		nop
 487 0034 BD46     		mov	sp, r7
 488 0036 02B0     		add	sp, sp, #8
 489              		@ sp needed
 490 0038 80BD     		pop	{r7, pc}
 491              		.cfi_endproc
 492              	.LFE7:
 493              		.size	fram_write_enable, .-fram_write_enable
 494 003a C046     		.section	.text.fram_write_isenable,"ax",%progbits
 495              		.align	2
 496              		.global	fram_write_isenable
 497              		.code	16
 498              		.thumb_func
 499              		.type	fram_write_isenable, %function
 500              	fram_write_isenable:
 501              	.LFB8:
 207:m95020.c      **** 
 208:m95020.c      **** uint8_t fram_write_isenable()
 209:m95020.c      **** {
 502              		.loc 1 209 0
 503              		.cfi_startproc
 504              		@ args = 0, pretend = 0, frame = 0
 505              		@ frame_needed = 1, uses_anonymous_args = 0
 506 0000 80B5     		push	{r7, lr}
 507              		.cfi_def_cfa_offset 8
 508              		.cfi_offset 7, -8
 509              		.cfi_offset 14, -4
 510 0002 00AF     		add	r7, sp, #0
 511              		.cfi_def_cfa_register 7
 210:m95020.c      ****     fram_read_statusreg();
 512              		.loc 1 210 0
 513 0004 FFF7FEFF 		bl	fram_read_statusreg
 211:m95020.c      ****     
 212:m95020.c      ****     return status_reg.b.WEL;
 514              		.loc 1 212 0
 515 0008 034B     		ldr	r3, .L27
 516 000a 1B78     		ldrb	r3, [r3]
 517 000c 9B07     		lsls	r3, r3, #30
 518 000e DB0F     		lsrs	r3, r3, #31
 519 0010 DBB2     		uxtb	r3, r3
 213:m95020.c      **** }
 520              		.loc 1 213 0
 521 0012 1800     		movs	r0, r3
 522 0014 BD46     		mov	sp, r7
 523              		@ sp needed
 524 0016 80BD     		pop	{r7, pc}
 525              	.L28:
 526              		.align	2
ARM GAS  C:\Users\diego\AppData\Local\Temp\ccGfyfKg.s 			page 14


 527              	.L27:
 528 0018 00000000 		.word	status_reg
 529              		.cfi_endproc
 530              	.LFE8:
 531              		.size	fram_write_isenable, .-fram_write_isenable
 532              		.section	.text.fram_write_inprogress,"ax",%progbits
 533              		.align	2
 534              		.global	fram_write_inprogress
 535              		.code	16
 536              		.thumb_func
 537              		.type	fram_write_inprogress, %function
 538              	fram_write_inprogress:
 539              	.LFB9:
 214:m95020.c      **** 
 215:m95020.c      **** uint8_t fram_write_inprogress()
 216:m95020.c      **** {
 540              		.loc 1 216 0
 541              		.cfi_startproc
 542              		@ args = 0, pretend = 0, frame = 0
 543              		@ frame_needed = 1, uses_anonymous_args = 0
 544 0000 80B5     		push	{r7, lr}
 545              		.cfi_def_cfa_offset 8
 546              		.cfi_offset 7, -8
 547              		.cfi_offset 14, -4
 548 0002 00AF     		add	r7, sp, #0
 549              		.cfi_def_cfa_register 7
 217:m95020.c      ****     fram_read_statusreg();
 550              		.loc 1 217 0
 551 0004 FFF7FEFF 		bl	fram_read_statusreg
 218:m95020.c      ****     
 219:m95020.c      ****     return status_reg.b.WIP;    
 552              		.loc 1 219 0
 553 0008 034B     		ldr	r3, .L31
 554 000a 1B78     		ldrb	r3, [r3]
 555 000c DB07     		lsls	r3, r3, #31
 556 000e DB0F     		lsrs	r3, r3, #31
 557 0010 DBB2     		uxtb	r3, r3
 220:m95020.c      **** }
 558              		.loc 1 220 0
 559 0012 1800     		movs	r0, r3
 560 0014 BD46     		mov	sp, r7
 561              		@ sp needed
 562 0016 80BD     		pop	{r7, pc}
 563              	.L32:
 564              		.align	2
 565              	.L31:
 566 0018 00000000 		.word	status_reg
 567              		.cfi_endproc
 568              	.LFE9:
 569              		.size	fram_write_inprogress, .-fram_write_inprogress
 570              		.section	.text.fram_read_statusreg,"ax",%progbits
 571              		.align	2
 572              		.global	fram_read_statusreg
 573              		.code	16
 574              		.thumb_func
 575              		.type	fram_read_statusreg, %function
 576              	fram_read_statusreg:
ARM GAS  C:\Users\diego\AppData\Local\Temp\ccGfyfKg.s 			page 15


 577              	.LFB10:
 221:m95020.c      **** 
 222:m95020.c      **** uint8_t fram_read_statusreg()
 223:m95020.c      **** {
 578              		.loc 1 223 0
 579              		.cfi_startproc
 580              		@ args = 0, pretend = 0, frame = 8
 581              		@ frame_needed = 1, uses_anonymous_args = 0
 582 0000 80B5     		push	{r7, lr}
 583              		.cfi_def_cfa_offset 8
 584              		.cfi_offset 7, -8
 585              		.cfi_offset 14, -4
 586 0002 82B0     		sub	sp, sp, #8
 587              		.cfi_def_cfa_offset 16
 588 0004 00AF     		add	r7, sp, #0
 589              		.cfi_def_cfa_register 7
 224:m95020.c      ****     uint8_t buf[2];
 225:m95020.c      ****     buf[0] = RDSR;    
 590              		.loc 1 225 0
 591 0006 3B1D     		adds	r3, r7, #4
 592 0008 0522     		movs	r2, #5
 593 000a 1A70     		strb	r2, [r3]
 226:m95020.c      ****     
 227:m95020.c      ****     SPIM_SpiUartClearRxBuffer();
 594              		.loc 1 227 0
 595 000c FFF7FEFF 		bl	SPIM_SpiUartClearRxBuffer
 228:m95020.c      ****     
 229:m95020.c      ****     cs_ee_Write(0);
 596              		.loc 1 229 0
 597 0010 0020     		movs	r0, #0
 598 0012 FFF7FEFF 		bl	cs_ee_Write
 230:m95020.c      ****     
 231:m95020.c      ****     CyDelayUs(5);
 599              		.loc 1 231 0
 600 0016 0520     		movs	r0, #5
 601 0018 FFF7FEFF 		bl	CyDelayUs
 232:m95020.c      ****     
 233:m95020.c      ****     SPIM_SpiUartPutArray(buf,2);
 602              		.loc 1 233 0
 603 001c 3B1D     		adds	r3, r7, #4
 604 001e 0221     		movs	r1, #2
 605 0020 1800     		movs	r0, r3
 606 0022 FFF7FEFF 		bl	SPIM_SpiUartPutArray
 234:m95020.c      ****         
 235:m95020.c      ****     while (SPIM_SpiUartGetRxBufferSize() != 2 )
 607              		.loc 1 235 0
 608 0026 C046     		nop
 609              	.L34:
 610              		.loc 1 235 0 is_stmt 0 discriminator 1
 611 0028 FFF7FEFF 		bl	SPIM_SpiUartGetRxBufferSize
 612 002c 0300     		movs	r3, r0
 613 002e 022B     		cmp	r3, #2
 614 0030 FAD1     		bne	.L34
 236:m95020.c      ****     {
 237:m95020.c      ****     }
 238:m95020.c      **** 
 239:m95020.c      ****     SPIM_SpiUartClearTxBuffer();
ARM GAS  C:\Users\diego\AppData\Local\Temp\ccGfyfKg.s 			page 16


 615              		.loc 1 239 0 is_stmt 1
 616 0032 FFF7FEFF 		bl	SPIM_SpiUartClearTxBuffer
 240:m95020.c      ****     
 241:m95020.c      ****     buf[0] = SPIM_SpiUartReadRxData();
 617              		.loc 1 241 0
 618 0036 FFF7FEFF 		bl	SPIM_SpiUartReadRxData
 619 003a 0300     		movs	r3, r0
 620 003c DAB2     		uxtb	r2, r3
 621 003e 3B1D     		adds	r3, r7, #4
 622 0040 1A70     		strb	r2, [r3]
 242:m95020.c      ****     buf[1] = SPIM_SpiUartReadRxData();
 623              		.loc 1 242 0
 624 0042 FFF7FEFF 		bl	SPIM_SpiUartReadRxData
 625 0046 0300     		movs	r3, r0
 626 0048 DAB2     		uxtb	r2, r3
 627 004a 3B1D     		adds	r3, r7, #4
 628 004c 5A70     		strb	r2, [r3, #1]
 243:m95020.c      ****     
 244:m95020.c      ****     cs_ee_Write(1);
 629              		.loc 1 244 0
 630 004e 0120     		movs	r0, #1
 631 0050 FFF7FEFF 		bl	cs_ee_Write
 245:m95020.c      **** 
 246:m95020.c      ****     SPIM_SpiUartClearTxBuffer();
 632              		.loc 1 246 0
 633 0054 FFF7FEFF 		bl	SPIM_SpiUartClearTxBuffer
 247:m95020.c      ****     
 248:m95020.c      ****     status_reg.val = buf[1];
 634              		.loc 1 248 0
 635 0058 3B1D     		adds	r3, r7, #4
 636 005a 5A78     		ldrb	r2, [r3, #1]
 637 005c 034B     		ldr	r3, .L36
 638 005e 1A70     		strb	r2, [r3]
 249:m95020.c      ****     
 250:m95020.c      ****     return 1;
 639              		.loc 1 250 0
 640 0060 0123     		movs	r3, #1
 251:m95020.c      ****     
 252:m95020.c      **** }
 641              		.loc 1 252 0
 642 0062 1800     		movs	r0, r3
 643 0064 BD46     		mov	sp, r7
 644 0066 02B0     		add	sp, sp, #8
 645              		@ sp needed
 646 0068 80BD     		pop	{r7, pc}
 647              	.L37:
 648 006a C046     		.align	2
 649              	.L36:
 650 006c 00000000 		.word	status_reg
 651              		.cfi_endproc
 652              	.LFE10:
 653              		.size	fram_read_statusreg, .-fram_read_statusreg
 654              		.text
 655              	.Letext0:
 656              		.file 2 "e:\\cypress\\psoc creator\\4.3\\psoc creator\\import\\gnu\\arm\\5.4.1\\arm-none-eabi\\inc
 657              		.file 3 "e:\\cypress\\psoc creator\\4.3\\psoc creator\\import\\gnu\\arm\\5.4.1\\arm-none-eabi\\inc
 658              		.file 4 "m95020.h"
ARM GAS  C:\Users\diego\AppData\Local\Temp\ccGfyfKg.s 			page 17


 659              		.section	.debug_info,"",%progbits
 660              	.Ldebug_info0:
 661 0000 5D030000 		.4byte	0x35d
 662 0004 0400     		.2byte	0x4
 663 0006 00000000 		.4byte	.Ldebug_abbrev0
 664 000a 04       		.byte	0x4
 665 000b 01       		.uleb128 0x1
 666 000c 23010000 		.4byte	.LASF34
 667 0010 0C       		.byte	0xc
 668 0011 79020000 		.4byte	.LASF35
 669 0015 54000000 		.4byte	.LASF36
 670 0019 00000000 		.4byte	.Ldebug_ranges0+0
 671 001d 00000000 		.4byte	0
 672 0021 00000000 		.4byte	.Ldebug_line0
 673 0025 02       		.uleb128 0x2
 674 0026 01       		.byte	0x1
 675 0027 06       		.byte	0x6
 676 0028 6D020000 		.4byte	.LASF0
 677 002c 03       		.uleb128 0x3
 678 002d 00000000 		.4byte	.LASF3
 679 0031 02       		.byte	0x2
 680 0032 1D       		.byte	0x1d
 681 0033 37000000 		.4byte	0x37
 682 0037 02       		.uleb128 0x2
 683 0038 01       		.byte	0x1
 684 0039 08       		.byte	0x8
 685 003a 90000000 		.4byte	.LASF1
 686 003e 02       		.uleb128 0x2
 687 003f 02       		.byte	0x2
 688 0040 05       		.byte	0x5
 689 0041 30020000 		.4byte	.LASF2
 690 0045 03       		.uleb128 0x3
 691 0046 E0000000 		.4byte	.LASF4
 692 004a 02       		.byte	0x2
 693 004b 2B       		.byte	0x2b
 694 004c 50000000 		.4byte	0x50
 695 0050 02       		.uleb128 0x2
 696 0051 02       		.byte	0x2
 697 0052 07       		.byte	0x7
 698 0053 C7000000 		.4byte	.LASF5
 699 0057 02       		.uleb128 0x2
 700 0058 04       		.byte	0x4
 701 0059 05       		.byte	0x5
 702 005a 58020000 		.4byte	.LASF6
 703 005e 03       		.uleb128 0x3
 704 005f F2000000 		.4byte	.LASF7
 705 0063 02       		.byte	0x2
 706 0064 41       		.byte	0x41
 707 0065 69000000 		.4byte	0x69
 708 0069 02       		.uleb128 0x2
 709 006a 04       		.byte	0x4
 710 006b 07       		.byte	0x7
 711 006c B5000000 		.4byte	.LASF8
 712 0070 02       		.uleb128 0x2
 713 0071 08       		.byte	0x8
 714 0072 05       		.byte	0x5
 715 0073 09020000 		.4byte	.LASF9
ARM GAS  C:\Users\diego\AppData\Local\Temp\ccGfyfKg.s 			page 18


 716 0077 02       		.uleb128 0x2
 717 0078 08       		.byte	0x8
 718 0079 07       		.byte	0x7
 719 007a B1010000 		.4byte	.LASF10
 720 007e 04       		.uleb128 0x4
 721 007f 04       		.byte	0x4
 722 0080 05       		.byte	0x5
 723 0081 696E7400 		.ascii	"int\000"
 724 0085 02       		.uleb128 0x2
 725 0086 04       		.byte	0x4
 726 0087 07       		.byte	0x7
 727 0088 16010000 		.4byte	.LASF11
 728 008c 03       		.uleb128 0x3
 729 008d C8010000 		.4byte	.LASF12
 730 0091 03       		.byte	0x3
 731 0092 18       		.byte	0x18
 732 0093 2C000000 		.4byte	0x2c
 733 0097 03       		.uleb128 0x3
 734 0098 3A020000 		.4byte	.LASF13
 735 009c 03       		.byte	0x3
 736 009d 24       		.byte	0x24
 737 009e 45000000 		.4byte	0x45
 738 00a2 03       		.uleb128 0x3
 739 00a3 4F020000 		.4byte	.LASF14
 740 00a7 03       		.byte	0x3
 741 00a8 30       		.byte	0x30
 742 00a9 5E000000 		.4byte	0x5e
 743 00ad 05       		.uleb128 0x5
 744 00ae 04       		.byte	0x4
 745 00af 04       		.byte	0x4
 746 00b0 22       		.byte	0x22
 747 00b1 F0000000 		.4byte	0xf0
 748 00b5 06       		.uleb128 0x6
 749 00b6 57495000 		.ascii	"WIP\000"
 750 00ba 04       		.byte	0x4
 751 00bb 24       		.byte	0x24
 752 00bc 85000000 		.4byte	0x85
 753 00c0 04       		.byte	0x4
 754 00c1 01       		.byte	0x1
 755 00c2 1F       		.byte	0x1f
 756 00c3 00       		.byte	0
 757 00c4 06       		.uleb128 0x6
 758 00c5 57454C00 		.ascii	"WEL\000"
 759 00c9 04       		.byte	0x4
 760 00ca 25       		.byte	0x25
 761 00cb 85000000 		.4byte	0x85
 762 00cf 04       		.byte	0x4
 763 00d0 01       		.byte	0x1
 764 00d1 1E       		.byte	0x1e
 765 00d2 00       		.byte	0
 766 00d3 06       		.uleb128 0x6
 767 00d4 425000   		.ascii	"BP\000"
 768 00d7 04       		.byte	0x4
 769 00d8 26       		.byte	0x26
 770 00d9 85000000 		.4byte	0x85
 771 00dd 04       		.byte	0x4
 772 00de 02       		.byte	0x2
ARM GAS  C:\Users\diego\AppData\Local\Temp\ccGfyfKg.s 			page 19


 773 00df 1C       		.byte	0x1c
 774 00e0 00       		.byte	0
 775 00e1 06       		.uleb128 0x6
 776 00e2 4E4300   		.ascii	"NC\000"
 777 00e5 04       		.byte	0x4
 778 00e6 27       		.byte	0x27
 779 00e7 85000000 		.4byte	0x85
 780 00eb 04       		.byte	0x4
 781 00ec 04       		.byte	0x4
 782 00ed 18       		.byte	0x18
 783 00ee 00       		.byte	0
 784 00ef 00       		.byte	0
 785 00f0 03       		.uleb128 0x3
 786 00f1 43020000 		.4byte	.LASF15
 787 00f5 04       		.byte	0x4
 788 00f6 28       		.byte	0x28
 789 00f7 AD000000 		.4byte	0xad
 790 00fb 07       		.uleb128 0x7
 791 00fc 04       		.byte	0x4
 792 00fd 04       		.byte	0x4
 793 00fe 2A       		.byte	0x2a
 794 00ff 18010000 		.4byte	0x118
 795 0103 08       		.uleb128 0x8
 796 0104 76616C00 		.ascii	"val\000"
 797 0108 04       		.byte	0x4
 798 0109 2C       		.byte	0x2c
 799 010a 8C000000 		.4byte	0x8c
 800 010e 08       		.uleb128 0x8
 801 010f 6200     		.ascii	"b\000"
 802 0111 04       		.byte	0x4
 803 0112 2D       		.byte	0x2d
 804 0113 F0000000 		.4byte	0xf0
 805 0117 00       		.byte	0
 806 0118 03       		.uleb128 0x3
 807 0119 0A000000 		.4byte	.LASF16
 808 011d 04       		.byte	0x4
 809 011e 2E       		.byte	0x2e
 810 011f FB000000 		.4byte	0xfb
 811 0123 02       		.uleb128 0x2
 812 0124 04       		.byte	0x4
 813 0125 04       		.byte	0x4
 814 0126 8A000000 		.4byte	.LASF17
 815 012a 02       		.uleb128 0x2
 816 012b 08       		.byte	0x8
 817 012c 04       		.byte	0x4
 818 012d EB000000 		.4byte	.LASF18
 819 0131 02       		.uleb128 0x2
 820 0132 01       		.byte	0x1
 821 0133 08       		.byte	0x8
 822 0134 17020000 		.4byte	.LASF19
 823 0138 02       		.uleb128 0x2
 824 0139 08       		.byte	0x8
 825 013a 04       		.byte	0x4
 826 013b 61020000 		.4byte	.LASF20
 827 013f 02       		.uleb128 0x2
 828 0140 04       		.byte	0x4
 829 0141 07       		.byte	0x7
ARM GAS  C:\Users\diego\AppData\Local\Temp\ccGfyfKg.s 			page 20


 830 0142 00020000 		.4byte	.LASF21
 831 0146 09       		.uleb128 0x9
 832 0147 F6010000 		.4byte	.LASF22
 833 014b 01       		.byte	0x1
 834 014c 22       		.byte	0x22
 835 014d 8C000000 		.4byte	0x8c
 836 0151 00000000 		.4byte	.LFB2
 837 0155 3E000000 		.4byte	.LFE2-.LFB2
 838 0159 01       		.uleb128 0x1
 839 015a 9C       		.byte	0x9c
 840 015b 6E010000 		.4byte	0x16e
 841 015f 0A       		.uleb128 0xa
 842 0160 11010000 		.4byte	.LASF25
 843 0164 01       		.byte	0x1
 844 0165 25       		.byte	0x25
 845 0166 8C000000 		.4byte	0x8c
 846 016a 02       		.uleb128 0x2
 847 016b 91       		.byte	0x91
 848 016c 77       		.sleb128 -9
 849 016d 00       		.byte	0
 850 016e 0B       		.uleb128 0xb
 851 016f E6010000 		.4byte	.LASF23
 852 0173 01       		.byte	0x1
 853 0174 44       		.byte	0x44
 854 0175 00000000 		.4byte	.LFB3
 855 0179 88000000 		.4byte	.LFE3-.LFB3
 856 017d 01       		.uleb128 0x1
 857 017e 9C       		.byte	0x9c
 858 017f AE010000 		.4byte	0x1ae
 859 0183 0C       		.uleb128 0xc
 860 0184 AD000000 		.4byte	.LASF24
 861 0188 01       		.byte	0x1
 862 0189 44       		.byte	0x44
 863 018a 8C000000 		.4byte	0x8c
 864 018e 02       		.uleb128 0x2
 865 018f 91       		.byte	0x91
 866 0190 6F       		.sleb128 -17
 867 0191 0D       		.uleb128 0xd
 868 0192 76616C00 		.ascii	"val\000"
 869 0196 01       		.byte	0x1
 870 0197 44       		.byte	0x44
 871 0198 8C000000 		.4byte	0x8c
 872 019c 02       		.uleb128 0x2
 873 019d 91       		.byte	0x91
 874 019e 6E       		.sleb128 -18
 875 019f 0E       		.uleb128 0xe
 876 01a0 62756600 		.ascii	"buf\000"
 877 01a4 01       		.byte	0x1
 878 01a5 46       		.byte	0x46
 879 01a6 AE010000 		.4byte	0x1ae
 880 01aa 02       		.uleb128 0x2
 881 01ab 91       		.byte	0x91
 882 01ac 74       		.sleb128 -12
 883 01ad 00       		.byte	0
 884 01ae 0F       		.uleb128 0xf
 885 01af 8C000000 		.4byte	0x8c
 886 01b3 BE010000 		.4byte	0x1be
ARM GAS  C:\Users\diego\AppData\Local\Temp\ccGfyfKg.s 			page 21


 887 01b7 10       		.uleb128 0x10
 888 01b8 3F010000 		.4byte	0x13f
 889 01bc 02       		.byte	0x2
 890 01bd 00       		.byte	0
 891 01be 0B       		.uleb128 0xb
 892 01bf 9E000000 		.4byte	.LASF26
 893 01c3 01       		.byte	0x1
 894 01c4 65       		.byte	0x65
 895 01c5 00000000 		.4byte	.LFB4
 896 01c9 8E000000 		.4byte	.LFE4-.LFB4
 897 01cd 01       		.uleb128 0x1
 898 01ce 9C       		.byte	0x9c
 899 01cf FE010000 		.4byte	0x1fe
 900 01d3 0C       		.uleb128 0xc
 901 01d4 AD000000 		.4byte	.LASF24
 902 01d8 01       		.byte	0x1
 903 01d9 65       		.byte	0x65
 904 01da 8C000000 		.4byte	0x8c
 905 01de 02       		.uleb128 0x2
 906 01df 91       		.byte	0x91
 907 01e0 6F       		.sleb128 -17
 908 01e1 0D       		.uleb128 0xd
 909 01e2 76616C00 		.ascii	"val\000"
 910 01e6 01       		.byte	0x1
 911 01e7 65       		.byte	0x65
 912 01e8 FE010000 		.4byte	0x1fe
 913 01ec 02       		.uleb128 0x2
 914 01ed 91       		.byte	0x91
 915 01ee 68       		.sleb128 -24
 916 01ef 0E       		.uleb128 0xe
 917 01f0 62756600 		.ascii	"buf\000"
 918 01f4 01       		.byte	0x1
 919 01f5 67       		.byte	0x67
 920 01f6 AE010000 		.4byte	0x1ae
 921 01fa 02       		.uleb128 0x2
 922 01fb 91       		.byte	0x91
 923 01fc 74       		.sleb128 -12
 924 01fd 00       		.byte	0
 925 01fe 11       		.uleb128 0x11
 926 01ff 04       		.byte	0x4
 927 0200 8C000000 		.4byte	0x8c
 928 0204 12       		.uleb128 0x12
 929 0205 43000000 		.4byte	.LASF28
 930 0209 01       		.byte	0x1
 931 020a 85       		.byte	0x85
 932 020b 8C000000 		.4byte	0x8c
 933 020f 00000000 		.4byte	.LFB5
 934 0213 64000000 		.4byte	.LFE5-.LFB5
 935 0217 01       		.uleb128 0x1
 936 0218 9C       		.byte	0x9c
 937 0219 56020000 		.4byte	0x256
 938 021d 0C       		.uleb128 0xc
 939 021e AD000000 		.4byte	.LASF24
 940 0222 01       		.byte	0x1
 941 0223 85       		.byte	0x85
 942 0224 8C000000 		.4byte	0x8c
 943 0228 02       		.uleb128 0x2
ARM GAS  C:\Users\diego\AppData\Local\Temp\ccGfyfKg.s 			page 22


 944 0229 91       		.byte	0x91
 945 022a 6F       		.sleb128 -17
 946 022b 0C       		.uleb128 0xc
 947 022c DA000000 		.4byte	.LASF27
 948 0230 01       		.byte	0x1
 949 0231 85       		.byte	0x85
 950 0232 FE010000 		.4byte	0x1fe
 951 0236 02       		.uleb128 0x2
 952 0237 91       		.byte	0x91
 953 0238 68       		.sleb128 -24
 954 0239 0D       		.uleb128 0xd
 955 023a 6C656E00 		.ascii	"len\000"
 956 023e 01       		.byte	0x1
 957 023f 85       		.byte	0x85
 958 0240 8C000000 		.4byte	0x8c
 959 0244 02       		.uleb128 0x2
 960 0245 91       		.byte	0x91
 961 0246 6E       		.sleb128 -18
 962 0247 0E       		.uleb128 0xe
 963 0248 62756600 		.ascii	"buf\000"
 964 024c 01       		.byte	0x1
 965 024d 87       		.byte	0x87
 966 024e 56020000 		.4byte	0x256
 967 0252 02       		.uleb128 0x2
 968 0253 91       		.byte	0x91
 969 0254 74       		.sleb128 -12
 970 0255 00       		.byte	0
 971 0256 0F       		.uleb128 0xf
 972 0257 8C000000 		.4byte	0x8c
 973 025b 66020000 		.4byte	0x266
 974 025f 10       		.uleb128 0x10
 975 0260 3F010000 		.4byte	0x13f
 976 0264 01       		.byte	0x1
 977 0265 00       		.byte	0
 978 0266 12       		.uleb128 0x12
 979 0267 33000000 		.4byte	.LASF29
 980 026b 01       		.byte	0x1
 981 026c AF       		.byte	0xaf
 982 026d 8C000000 		.4byte	0x8c
 983 0271 00000000 		.4byte	.LFB6
 984 0275 62000000 		.4byte	.LFE6-.LFB6
 985 0279 01       		.uleb128 0x1
 986 027a 9C       		.byte	0x9c
 987 027b B8020000 		.4byte	0x2b8
 988 027f 0C       		.uleb128 0xc
 989 0280 AD000000 		.4byte	.LASF24
 990 0284 01       		.byte	0x1
 991 0285 AF       		.byte	0xaf
 992 0286 8C000000 		.4byte	0x8c
 993 028a 02       		.uleb128 0x2
 994 028b 91       		.byte	0x91
 995 028c 6F       		.sleb128 -17
 996 028d 0C       		.uleb128 0xc
 997 028e DA000000 		.4byte	.LASF27
 998 0292 01       		.byte	0x1
 999 0293 AF       		.byte	0xaf
 1000 0294 FE010000 		.4byte	0x1fe
ARM GAS  C:\Users\diego\AppData\Local\Temp\ccGfyfKg.s 			page 23


 1001 0298 02       		.uleb128 0x2
 1002 0299 91       		.byte	0x91
 1003 029a 68       		.sleb128 -24
 1004 029b 0D       		.uleb128 0xd
 1005 029c 6C656E00 		.ascii	"len\000"
 1006 02a0 01       		.byte	0x1
 1007 02a1 AF       		.byte	0xaf
 1008 02a2 8C000000 		.4byte	0x8c
 1009 02a6 02       		.uleb128 0x2
 1010 02a7 91       		.byte	0x91
 1011 02a8 6E       		.sleb128 -18
 1012 02a9 0E       		.uleb128 0xe
 1013 02aa 62756600 		.ascii	"buf\000"
 1014 02ae 01       		.byte	0x1
 1015 02af B1       		.byte	0xb1
 1016 02b0 56020000 		.4byte	0x256
 1017 02b4 02       		.uleb128 0x2
 1018 02b5 91       		.byte	0x91
 1019 02b6 74       		.sleb128 -12
 1020 02b7 00       		.byte	0
 1021 02b8 13       		.uleb128 0x13
 1022 02b9 21000000 		.4byte	.LASF37
 1023 02bd 01       		.byte	0x1
 1024 02be BF       		.byte	0xbf
 1025 02bf 00000000 		.4byte	.LFB7
 1026 02c3 3A000000 		.4byte	.LFE7-.LFB7
 1027 02c7 01       		.uleb128 0x1
 1028 02c8 9C       		.byte	0x9c
 1029 02c9 DC020000 		.4byte	0x2dc
 1030 02cd 0E       		.uleb128 0xe
 1031 02ce 72656700 		.ascii	"reg\000"
 1032 02d2 01       		.byte	0x1
 1033 02d3 C1       		.byte	0xc1
 1034 02d4 8C000000 		.4byte	0x8c
 1035 02d8 02       		.uleb128 0x2
 1036 02d9 91       		.byte	0x91
 1037 02da 77       		.sleb128 -9
 1038 02db 00       		.byte	0
 1039 02dc 14       		.uleb128 0x14
 1040 02dd FD000000 		.4byte	.LASF30
 1041 02e1 01       		.byte	0x1
 1042 02e2 D0       		.byte	0xd0
 1043 02e3 8C000000 		.4byte	0x8c
 1044 02e7 00000000 		.4byte	.LFB8
 1045 02eb 1C000000 		.4byte	.LFE8-.LFB8
 1046 02ef 01       		.uleb128 0x1
 1047 02f0 9C       		.byte	0x9c
 1048 02f1 14       		.uleb128 0x14
 1049 02f2 D0010000 		.4byte	.LASF31
 1050 02f6 01       		.byte	0x1
 1051 02f7 D7       		.byte	0xd7
 1052 02f8 8C000000 		.4byte	0x8c
 1053 02fc 00000000 		.4byte	.LFB9
 1054 0300 1C000000 		.4byte	.LFE9-.LFB9
 1055 0304 01       		.uleb128 0x1
 1056 0305 9C       		.byte	0x9c
 1057 0306 09       		.uleb128 0x9
ARM GAS  C:\Users\diego\AppData\Local\Temp\ccGfyfKg.s 			page 24


 1058 0307 1C020000 		.4byte	.LASF32
 1059 030b 01       		.byte	0x1
 1060 030c DE       		.byte	0xde
 1061 030d 8C000000 		.4byte	0x8c
 1062 0311 00000000 		.4byte	.LFB10
 1063 0315 70000000 		.4byte	.LFE10-.LFB10
 1064 0319 01       		.uleb128 0x1
 1065 031a 9C       		.byte	0x9c
 1066 031b 2E030000 		.4byte	0x32e
 1067 031f 0E       		.uleb128 0xe
 1068 0320 62756600 		.ascii	"buf\000"
 1069 0324 01       		.byte	0x1
 1070 0325 E0       		.byte	0xe0
 1071 0326 56020000 		.4byte	0x256
 1072 032a 02       		.uleb128 0x2
 1073 032b 91       		.byte	0x91
 1074 032c 74       		.sleb128 -12
 1075 032d 00       		.byte	0
 1076 032e 15       		.uleb128 0x15
 1077 032f 16000000 		.4byte	.LASF33
 1078 0333 01       		.byte	0x1
 1079 0334 1E       		.byte	0x1e
 1080 0335 18010000 		.4byte	0x118
 1081 0339 05       		.uleb128 0x5
 1082 033a 03       		.byte	0x3
 1083 033b 00000000 		.4byte	status_reg
 1084 033f 0F       		.uleb128 0xf
 1085 0340 8C000000 		.4byte	0x8c
 1086 0344 4F030000 		.4byte	0x34f
 1087 0348 10       		.uleb128 0x10
 1088 0349 3F010000 		.4byte	0x13f
 1089 034d 63       		.byte	0x63
 1090 034e 00       		.byte	0
 1091 034f 16       		.uleb128 0x16
 1092 0350 61727200 		.ascii	"arr\000"
 1093 0354 01       		.byte	0x1
 1094 0355 20       		.byte	0x20
 1095 0356 3F030000 		.4byte	0x33f
 1096 035a 05       		.uleb128 0x5
 1097 035b 03       		.byte	0x3
 1098 035c 00000000 		.4byte	arr
 1099 0360 00       		.byte	0
 1100              		.section	.debug_abbrev,"",%progbits
 1101              	.Ldebug_abbrev0:
 1102 0000 01       		.uleb128 0x1
 1103 0001 11       		.uleb128 0x11
 1104 0002 01       		.byte	0x1
 1105 0003 25       		.uleb128 0x25
 1106 0004 0E       		.uleb128 0xe
 1107 0005 13       		.uleb128 0x13
 1108 0006 0B       		.uleb128 0xb
 1109 0007 03       		.uleb128 0x3
 1110 0008 0E       		.uleb128 0xe
 1111 0009 1B       		.uleb128 0x1b
 1112 000a 0E       		.uleb128 0xe
 1113 000b 55       		.uleb128 0x55
 1114 000c 17       		.uleb128 0x17
ARM GAS  C:\Users\diego\AppData\Local\Temp\ccGfyfKg.s 			page 25


 1115 000d 11       		.uleb128 0x11
 1116 000e 01       		.uleb128 0x1
 1117 000f 10       		.uleb128 0x10
 1118 0010 17       		.uleb128 0x17
 1119 0011 00       		.byte	0
 1120 0012 00       		.byte	0
 1121 0013 02       		.uleb128 0x2
 1122 0014 24       		.uleb128 0x24
 1123 0015 00       		.byte	0
 1124 0016 0B       		.uleb128 0xb
 1125 0017 0B       		.uleb128 0xb
 1126 0018 3E       		.uleb128 0x3e
 1127 0019 0B       		.uleb128 0xb
 1128 001a 03       		.uleb128 0x3
 1129 001b 0E       		.uleb128 0xe
 1130 001c 00       		.byte	0
 1131 001d 00       		.byte	0
 1132 001e 03       		.uleb128 0x3
 1133 001f 16       		.uleb128 0x16
 1134 0020 00       		.byte	0
 1135 0021 03       		.uleb128 0x3
 1136 0022 0E       		.uleb128 0xe
 1137 0023 3A       		.uleb128 0x3a
 1138 0024 0B       		.uleb128 0xb
 1139 0025 3B       		.uleb128 0x3b
 1140 0026 0B       		.uleb128 0xb
 1141 0027 49       		.uleb128 0x49
 1142 0028 13       		.uleb128 0x13
 1143 0029 00       		.byte	0
 1144 002a 00       		.byte	0
 1145 002b 04       		.uleb128 0x4
 1146 002c 24       		.uleb128 0x24
 1147 002d 00       		.byte	0
 1148 002e 0B       		.uleb128 0xb
 1149 002f 0B       		.uleb128 0xb
 1150 0030 3E       		.uleb128 0x3e
 1151 0031 0B       		.uleb128 0xb
 1152 0032 03       		.uleb128 0x3
 1153 0033 08       		.uleb128 0x8
 1154 0034 00       		.byte	0
 1155 0035 00       		.byte	0
 1156 0036 05       		.uleb128 0x5
 1157 0037 13       		.uleb128 0x13
 1158 0038 01       		.byte	0x1
 1159 0039 0B       		.uleb128 0xb
 1160 003a 0B       		.uleb128 0xb
 1161 003b 3A       		.uleb128 0x3a
 1162 003c 0B       		.uleb128 0xb
 1163 003d 3B       		.uleb128 0x3b
 1164 003e 0B       		.uleb128 0xb
 1165 003f 01       		.uleb128 0x1
 1166 0040 13       		.uleb128 0x13
 1167 0041 00       		.byte	0
 1168 0042 00       		.byte	0
 1169 0043 06       		.uleb128 0x6
 1170 0044 0D       		.uleb128 0xd
 1171 0045 00       		.byte	0
ARM GAS  C:\Users\diego\AppData\Local\Temp\ccGfyfKg.s 			page 26


 1172 0046 03       		.uleb128 0x3
 1173 0047 08       		.uleb128 0x8
 1174 0048 3A       		.uleb128 0x3a
 1175 0049 0B       		.uleb128 0xb
 1176 004a 3B       		.uleb128 0x3b
 1177 004b 0B       		.uleb128 0xb
 1178 004c 49       		.uleb128 0x49
 1179 004d 13       		.uleb128 0x13
 1180 004e 0B       		.uleb128 0xb
 1181 004f 0B       		.uleb128 0xb
 1182 0050 0D       		.uleb128 0xd
 1183 0051 0B       		.uleb128 0xb
 1184 0052 0C       		.uleb128 0xc
 1185 0053 0B       		.uleb128 0xb
 1186 0054 38       		.uleb128 0x38
 1187 0055 0B       		.uleb128 0xb
 1188 0056 00       		.byte	0
 1189 0057 00       		.byte	0
 1190 0058 07       		.uleb128 0x7
 1191 0059 17       		.uleb128 0x17
 1192 005a 01       		.byte	0x1
 1193 005b 0B       		.uleb128 0xb
 1194 005c 0B       		.uleb128 0xb
 1195 005d 3A       		.uleb128 0x3a
 1196 005e 0B       		.uleb128 0xb
 1197 005f 3B       		.uleb128 0x3b
 1198 0060 0B       		.uleb128 0xb
 1199 0061 01       		.uleb128 0x1
 1200 0062 13       		.uleb128 0x13
 1201 0063 00       		.byte	0
 1202 0064 00       		.byte	0
 1203 0065 08       		.uleb128 0x8
 1204 0066 0D       		.uleb128 0xd
 1205 0067 00       		.byte	0
 1206 0068 03       		.uleb128 0x3
 1207 0069 08       		.uleb128 0x8
 1208 006a 3A       		.uleb128 0x3a
 1209 006b 0B       		.uleb128 0xb
 1210 006c 3B       		.uleb128 0x3b
 1211 006d 0B       		.uleb128 0xb
 1212 006e 49       		.uleb128 0x49
 1213 006f 13       		.uleb128 0x13
 1214 0070 00       		.byte	0
 1215 0071 00       		.byte	0
 1216 0072 09       		.uleb128 0x9
 1217 0073 2E       		.uleb128 0x2e
 1218 0074 01       		.byte	0x1
 1219 0075 3F       		.uleb128 0x3f
 1220 0076 19       		.uleb128 0x19
 1221 0077 03       		.uleb128 0x3
 1222 0078 0E       		.uleb128 0xe
 1223 0079 3A       		.uleb128 0x3a
 1224 007a 0B       		.uleb128 0xb
 1225 007b 3B       		.uleb128 0x3b
 1226 007c 0B       		.uleb128 0xb
 1227 007d 49       		.uleb128 0x49
 1228 007e 13       		.uleb128 0x13
ARM GAS  C:\Users\diego\AppData\Local\Temp\ccGfyfKg.s 			page 27


 1229 007f 11       		.uleb128 0x11
 1230 0080 01       		.uleb128 0x1
 1231 0081 12       		.uleb128 0x12
 1232 0082 06       		.uleb128 0x6
 1233 0083 40       		.uleb128 0x40
 1234 0084 18       		.uleb128 0x18
 1235 0085 9642     		.uleb128 0x2116
 1236 0087 19       		.uleb128 0x19
 1237 0088 01       		.uleb128 0x1
 1238 0089 13       		.uleb128 0x13
 1239 008a 00       		.byte	0
 1240 008b 00       		.byte	0
 1241 008c 0A       		.uleb128 0xa
 1242 008d 34       		.uleb128 0x34
 1243 008e 00       		.byte	0
 1244 008f 03       		.uleb128 0x3
 1245 0090 0E       		.uleb128 0xe
 1246 0091 3A       		.uleb128 0x3a
 1247 0092 0B       		.uleb128 0xb
 1248 0093 3B       		.uleb128 0x3b
 1249 0094 0B       		.uleb128 0xb
 1250 0095 49       		.uleb128 0x49
 1251 0096 13       		.uleb128 0x13
 1252 0097 02       		.uleb128 0x2
 1253 0098 18       		.uleb128 0x18
 1254 0099 00       		.byte	0
 1255 009a 00       		.byte	0
 1256 009b 0B       		.uleb128 0xb
 1257 009c 2E       		.uleb128 0x2e
 1258 009d 01       		.byte	0x1
 1259 009e 3F       		.uleb128 0x3f
 1260 009f 19       		.uleb128 0x19
 1261 00a0 03       		.uleb128 0x3
 1262 00a1 0E       		.uleb128 0xe
 1263 00a2 3A       		.uleb128 0x3a
 1264 00a3 0B       		.uleb128 0xb
 1265 00a4 3B       		.uleb128 0x3b
 1266 00a5 0B       		.uleb128 0xb
 1267 00a6 27       		.uleb128 0x27
 1268 00a7 19       		.uleb128 0x19
 1269 00a8 11       		.uleb128 0x11
 1270 00a9 01       		.uleb128 0x1
 1271 00aa 12       		.uleb128 0x12
 1272 00ab 06       		.uleb128 0x6
 1273 00ac 40       		.uleb128 0x40
 1274 00ad 18       		.uleb128 0x18
 1275 00ae 9642     		.uleb128 0x2116
 1276 00b0 19       		.uleb128 0x19
 1277 00b1 01       		.uleb128 0x1
 1278 00b2 13       		.uleb128 0x13
 1279 00b3 00       		.byte	0
 1280 00b4 00       		.byte	0
 1281 00b5 0C       		.uleb128 0xc
 1282 00b6 05       		.uleb128 0x5
 1283 00b7 00       		.byte	0
 1284 00b8 03       		.uleb128 0x3
 1285 00b9 0E       		.uleb128 0xe
ARM GAS  C:\Users\diego\AppData\Local\Temp\ccGfyfKg.s 			page 28


 1286 00ba 3A       		.uleb128 0x3a
 1287 00bb 0B       		.uleb128 0xb
 1288 00bc 3B       		.uleb128 0x3b
 1289 00bd 0B       		.uleb128 0xb
 1290 00be 49       		.uleb128 0x49
 1291 00bf 13       		.uleb128 0x13
 1292 00c0 02       		.uleb128 0x2
 1293 00c1 18       		.uleb128 0x18
 1294 00c2 00       		.byte	0
 1295 00c3 00       		.byte	0
 1296 00c4 0D       		.uleb128 0xd
 1297 00c5 05       		.uleb128 0x5
 1298 00c6 00       		.byte	0
 1299 00c7 03       		.uleb128 0x3
 1300 00c8 08       		.uleb128 0x8
 1301 00c9 3A       		.uleb128 0x3a
 1302 00ca 0B       		.uleb128 0xb
 1303 00cb 3B       		.uleb128 0x3b
 1304 00cc 0B       		.uleb128 0xb
 1305 00cd 49       		.uleb128 0x49
 1306 00ce 13       		.uleb128 0x13
 1307 00cf 02       		.uleb128 0x2
 1308 00d0 18       		.uleb128 0x18
 1309 00d1 00       		.byte	0
 1310 00d2 00       		.byte	0
 1311 00d3 0E       		.uleb128 0xe
 1312 00d4 34       		.uleb128 0x34
 1313 00d5 00       		.byte	0
 1314 00d6 03       		.uleb128 0x3
 1315 00d7 08       		.uleb128 0x8
 1316 00d8 3A       		.uleb128 0x3a
 1317 00d9 0B       		.uleb128 0xb
 1318 00da 3B       		.uleb128 0x3b
 1319 00db 0B       		.uleb128 0xb
 1320 00dc 49       		.uleb128 0x49
 1321 00dd 13       		.uleb128 0x13
 1322 00de 02       		.uleb128 0x2
 1323 00df 18       		.uleb128 0x18
 1324 00e0 00       		.byte	0
 1325 00e1 00       		.byte	0
 1326 00e2 0F       		.uleb128 0xf
 1327 00e3 01       		.uleb128 0x1
 1328 00e4 01       		.byte	0x1
 1329 00e5 49       		.uleb128 0x49
 1330 00e6 13       		.uleb128 0x13
 1331 00e7 01       		.uleb128 0x1
 1332 00e8 13       		.uleb128 0x13
 1333 00e9 00       		.byte	0
 1334 00ea 00       		.byte	0
 1335 00eb 10       		.uleb128 0x10
 1336 00ec 21       		.uleb128 0x21
 1337 00ed 00       		.byte	0
 1338 00ee 49       		.uleb128 0x49
 1339 00ef 13       		.uleb128 0x13
 1340 00f0 2F       		.uleb128 0x2f
 1341 00f1 0B       		.uleb128 0xb
 1342 00f2 00       		.byte	0
ARM GAS  C:\Users\diego\AppData\Local\Temp\ccGfyfKg.s 			page 29


 1343 00f3 00       		.byte	0
 1344 00f4 11       		.uleb128 0x11
 1345 00f5 0F       		.uleb128 0xf
 1346 00f6 00       		.byte	0
 1347 00f7 0B       		.uleb128 0xb
 1348 00f8 0B       		.uleb128 0xb
 1349 00f9 49       		.uleb128 0x49
 1350 00fa 13       		.uleb128 0x13
 1351 00fb 00       		.byte	0
 1352 00fc 00       		.byte	0
 1353 00fd 12       		.uleb128 0x12
 1354 00fe 2E       		.uleb128 0x2e
 1355 00ff 01       		.byte	0x1
 1356 0100 3F       		.uleb128 0x3f
 1357 0101 19       		.uleb128 0x19
 1358 0102 03       		.uleb128 0x3
 1359 0103 0E       		.uleb128 0xe
 1360 0104 3A       		.uleb128 0x3a
 1361 0105 0B       		.uleb128 0xb
 1362 0106 3B       		.uleb128 0x3b
 1363 0107 0B       		.uleb128 0xb
 1364 0108 27       		.uleb128 0x27
 1365 0109 19       		.uleb128 0x19
 1366 010a 49       		.uleb128 0x49
 1367 010b 13       		.uleb128 0x13
 1368 010c 11       		.uleb128 0x11
 1369 010d 01       		.uleb128 0x1
 1370 010e 12       		.uleb128 0x12
 1371 010f 06       		.uleb128 0x6
 1372 0110 40       		.uleb128 0x40
 1373 0111 18       		.uleb128 0x18
 1374 0112 9642     		.uleb128 0x2116
 1375 0114 19       		.uleb128 0x19
 1376 0115 01       		.uleb128 0x1
 1377 0116 13       		.uleb128 0x13
 1378 0117 00       		.byte	0
 1379 0118 00       		.byte	0
 1380 0119 13       		.uleb128 0x13
 1381 011a 2E       		.uleb128 0x2e
 1382 011b 01       		.byte	0x1
 1383 011c 3F       		.uleb128 0x3f
 1384 011d 19       		.uleb128 0x19
 1385 011e 03       		.uleb128 0x3
 1386 011f 0E       		.uleb128 0xe
 1387 0120 3A       		.uleb128 0x3a
 1388 0121 0B       		.uleb128 0xb
 1389 0122 3B       		.uleb128 0x3b
 1390 0123 0B       		.uleb128 0xb
 1391 0124 11       		.uleb128 0x11
 1392 0125 01       		.uleb128 0x1
 1393 0126 12       		.uleb128 0x12
 1394 0127 06       		.uleb128 0x6
 1395 0128 40       		.uleb128 0x40
 1396 0129 18       		.uleb128 0x18
 1397 012a 9642     		.uleb128 0x2116
 1398 012c 19       		.uleb128 0x19
 1399 012d 01       		.uleb128 0x1
ARM GAS  C:\Users\diego\AppData\Local\Temp\ccGfyfKg.s 			page 30


 1400 012e 13       		.uleb128 0x13
 1401 012f 00       		.byte	0
 1402 0130 00       		.byte	0
 1403 0131 14       		.uleb128 0x14
 1404 0132 2E       		.uleb128 0x2e
 1405 0133 00       		.byte	0
 1406 0134 3F       		.uleb128 0x3f
 1407 0135 19       		.uleb128 0x19
 1408 0136 03       		.uleb128 0x3
 1409 0137 0E       		.uleb128 0xe
 1410 0138 3A       		.uleb128 0x3a
 1411 0139 0B       		.uleb128 0xb
 1412 013a 3B       		.uleb128 0x3b
 1413 013b 0B       		.uleb128 0xb
 1414 013c 49       		.uleb128 0x49
 1415 013d 13       		.uleb128 0x13
 1416 013e 11       		.uleb128 0x11
 1417 013f 01       		.uleb128 0x1
 1418 0140 12       		.uleb128 0x12
 1419 0141 06       		.uleb128 0x6
 1420 0142 40       		.uleb128 0x40
 1421 0143 18       		.uleb128 0x18
 1422 0144 9642     		.uleb128 0x2116
 1423 0146 19       		.uleb128 0x19
 1424 0147 00       		.byte	0
 1425 0148 00       		.byte	0
 1426 0149 15       		.uleb128 0x15
 1427 014a 34       		.uleb128 0x34
 1428 014b 00       		.byte	0
 1429 014c 03       		.uleb128 0x3
 1430 014d 0E       		.uleb128 0xe
 1431 014e 3A       		.uleb128 0x3a
 1432 014f 0B       		.uleb128 0xb
 1433 0150 3B       		.uleb128 0x3b
 1434 0151 0B       		.uleb128 0xb
 1435 0152 49       		.uleb128 0x49
 1436 0153 13       		.uleb128 0x13
 1437 0154 3F       		.uleb128 0x3f
 1438 0155 19       		.uleb128 0x19
 1439 0156 02       		.uleb128 0x2
 1440 0157 18       		.uleb128 0x18
 1441 0158 00       		.byte	0
 1442 0159 00       		.byte	0
 1443 015a 16       		.uleb128 0x16
 1444 015b 34       		.uleb128 0x34
 1445 015c 00       		.byte	0
 1446 015d 03       		.uleb128 0x3
 1447 015e 08       		.uleb128 0x8
 1448 015f 3A       		.uleb128 0x3a
 1449 0160 0B       		.uleb128 0xb
 1450 0161 3B       		.uleb128 0x3b
 1451 0162 0B       		.uleb128 0xb
 1452 0163 49       		.uleb128 0x49
 1453 0164 13       		.uleb128 0x13
 1454 0165 3F       		.uleb128 0x3f
 1455 0166 19       		.uleb128 0x19
 1456 0167 02       		.uleb128 0x2
ARM GAS  C:\Users\diego\AppData\Local\Temp\ccGfyfKg.s 			page 31


 1457 0168 18       		.uleb128 0x18
 1458 0169 00       		.byte	0
 1459 016a 00       		.byte	0
 1460 016b 00       		.byte	0
 1461              		.section	.debug_aranges,"",%progbits
 1462 0000 5C000000 		.4byte	0x5c
 1463 0004 0200     		.2byte	0x2
 1464 0006 00000000 		.4byte	.Ldebug_info0
 1465 000a 04       		.byte	0x4
 1466 000b 00       		.byte	0
 1467 000c 0000     		.2byte	0
 1468 000e 0000     		.2byte	0
 1469 0010 00000000 		.4byte	.LFB2
 1470 0014 3E000000 		.4byte	.LFE2-.LFB2
 1471 0018 00000000 		.4byte	.LFB3
 1472 001c 88000000 		.4byte	.LFE3-.LFB3
 1473 0020 00000000 		.4byte	.LFB4
 1474 0024 8E000000 		.4byte	.LFE4-.LFB4
 1475 0028 00000000 		.4byte	.LFB5
 1476 002c 64000000 		.4byte	.LFE5-.LFB5
 1477 0030 00000000 		.4byte	.LFB6
 1478 0034 62000000 		.4byte	.LFE6-.LFB6
 1479 0038 00000000 		.4byte	.LFB7
 1480 003c 3A000000 		.4byte	.LFE7-.LFB7
 1481 0040 00000000 		.4byte	.LFB8
 1482 0044 1C000000 		.4byte	.LFE8-.LFB8
 1483 0048 00000000 		.4byte	.LFB9
 1484 004c 1C000000 		.4byte	.LFE9-.LFB9
 1485 0050 00000000 		.4byte	.LFB10
 1486 0054 70000000 		.4byte	.LFE10-.LFB10
 1487 0058 00000000 		.4byte	0
 1488 005c 00000000 		.4byte	0
 1489              		.section	.debug_ranges,"",%progbits
 1490              	.Ldebug_ranges0:
 1491 0000 00000000 		.4byte	.LFB2
 1492 0004 3E000000 		.4byte	.LFE2
 1493 0008 00000000 		.4byte	.LFB3
 1494 000c 88000000 		.4byte	.LFE3
 1495 0010 00000000 		.4byte	.LFB4
 1496 0014 8E000000 		.4byte	.LFE4
 1497 0018 00000000 		.4byte	.LFB5
 1498 001c 64000000 		.4byte	.LFE5
 1499 0020 00000000 		.4byte	.LFB6
 1500 0024 62000000 		.4byte	.LFE6
 1501 0028 00000000 		.4byte	.LFB7
 1502 002c 3A000000 		.4byte	.LFE7
 1503 0030 00000000 		.4byte	.LFB8
 1504 0034 1C000000 		.4byte	.LFE8
 1505 0038 00000000 		.4byte	.LFB9
 1506 003c 1C000000 		.4byte	.LFE9
 1507 0040 00000000 		.4byte	.LFB10
 1508 0044 70000000 		.4byte	.LFE10
 1509 0048 00000000 		.4byte	0
 1510 004c 00000000 		.4byte	0
 1511              		.section	.debug_line,"",%progbits
 1512              	.Ldebug_line0:
 1513 0000 2E020000 		.section	.debug_str,"MS",%progbits,1
ARM GAS  C:\Users\diego\AppData\Local\Temp\ccGfyfKg.s 			page 32


 1513      02000001 
 1513      00000201 
 1513      FB0E0D00 
 1513      01010101 
 1514              	.LASF3:
 1515 0000 5F5F7569 		.ascii	"__uint8_t\000"
 1515      6E74385F 
 1515      7400
 1516              	.LASF16:
 1517 000a 73746174 		.ascii	"statusreg_u\000"
 1517      75737265 
 1517      675F7500 
 1518              	.LASF33:
 1519 0016 73746174 		.ascii	"status_reg\000"
 1519      75735F72 
 1519      656700
 1520              	.LASF37:
 1521 0021 6672616D 		.ascii	"fram_write_enable\000"
 1521      5F777269 
 1521      74655F65 
 1521      6E61626C 
 1521      6500
 1522              	.LASF29:
 1523 0033 6672616D 		.ascii	"fram_read_array\000"
 1523      5F726561 
 1523      645F6172 
 1523      72617900 
 1524              	.LASF28:
 1525 0043 6672616D 		.ascii	"fram_write_array\000"
 1525      5F777269 
 1525      74655F61 
 1525      72726179 
 1525      00
 1526              	.LASF36:
 1527 0054 453A5C50 		.ascii	"E:\\Progetti\\Cypress\\Test\\BLE_Accelerometer_cell"
 1527      726F6765 
 1527      7474695C 
 1527      43797072 
 1527      6573735C 
 1528 0083 2E637964 		.ascii	".cydsn\000"
 1528      736E00
 1529              	.LASF17:
 1530 008a 666C6F61 		.ascii	"float\000"
 1530      7400
 1531              	.LASF1:
 1532 0090 756E7369 		.ascii	"unsigned char\000"
 1532      676E6564 
 1532      20636861 
 1532      7200
 1533              	.LASF26:
 1534 009e 6672616D 		.ascii	"fram_read_byte\000"
 1534      5F726561 
 1534      645F6279 
 1534      746500
 1535              	.LASF24:
 1536 00ad 61646472 		.ascii	"address\000"
 1536      65737300 
ARM GAS  C:\Users\diego\AppData\Local\Temp\ccGfyfKg.s 			page 33


 1537              	.LASF8:
 1538 00b5 6C6F6E67 		.ascii	"long unsigned int\000"
 1538      20756E73 
 1538      69676E65 
 1538      6420696E 
 1538      7400
 1539              	.LASF5:
 1540 00c7 73686F72 		.ascii	"short unsigned int\000"
 1540      7420756E 
 1540      7369676E 
 1540      65642069 
 1540      6E7400
 1541              	.LASF27:
 1542 00da 61727261 		.ascii	"array\000"
 1542      7900
 1543              	.LASF4:
 1544 00e0 5F5F7569 		.ascii	"__uint16_t\000"
 1544      6E743136 
 1544      5F7400
 1545              	.LASF18:
 1546 00eb 646F7562 		.ascii	"double\000"
 1546      6C6500
 1547              	.LASF7:
 1548 00f2 5F5F7569 		.ascii	"__uint32_t\000"
 1548      6E743332 
 1548      5F7400
 1549              	.LASF30:
 1550 00fd 6672616D 		.ascii	"fram_write_isenable\000"
 1550      5F777269 
 1550      74655F69 
 1550      73656E61 
 1550      626C6500 
 1551              	.LASF25:
 1552 0111 74657374 		.ascii	"test\000"
 1552      00
 1553              	.LASF11:
 1554 0116 756E7369 		.ascii	"unsigned int\000"
 1554      676E6564 
 1554      20696E74 
 1554      00
 1555              	.LASF34:
 1556 0123 474E5520 		.ascii	"GNU C11 5.4.1 20160609 (release) [ARM/embedded-5-br"
 1556      43313120 
 1556      352E342E 
 1556      31203230 
 1556      31363036 
 1557 0156 616E6368 		.ascii	"anch revision 237715] -mcpu=cortex-m0 -mthumb -g -O"
 1557      20726576 
 1557      6973696F 
 1557      6E203233 
 1557      37373135 
 1558 0189 30202D66 		.ascii	"0 -ffunction-sections -ffat-lto-objects\000"
 1558      66756E63 
 1558      74696F6E 
 1558      2D736563 
 1558      74696F6E 
 1559              	.LASF10:
ARM GAS  C:\Users\diego\AppData\Local\Temp\ccGfyfKg.s 			page 34


 1560 01b1 6C6F6E67 		.ascii	"long long unsigned int\000"
 1560      206C6F6E 
 1560      6720756E 
 1560      7369676E 
 1560      65642069 
 1561              	.LASF12:
 1562 01c8 75696E74 		.ascii	"uint8_t\000"
 1562      385F7400 
 1563              	.LASF31:
 1564 01d0 6672616D 		.ascii	"fram_write_inprogress\000"
 1564      5F777269 
 1564      74655F69 
 1564      6E70726F 
 1564      67726573 
 1565              	.LASF23:
 1566 01e6 6672616D 		.ascii	"fram_write_byte\000"
 1566      5F777269 
 1566      74655F62 
 1566      79746500 
 1567              	.LASF22:
 1568 01f6 6672616D 		.ascii	"fram_init\000"
 1568      5F696E69 
 1568      7400
 1569              	.LASF21:
 1570 0200 73697A65 		.ascii	"sizetype\000"
 1570      74797065 
 1570      00
 1571              	.LASF9:
 1572 0209 6C6F6E67 		.ascii	"long long int\000"
 1572      206C6F6E 
 1572      6720696E 
 1572      7400
 1573              	.LASF19:
 1574 0217 63686172 		.ascii	"char\000"
 1574      00
 1575              	.LASF32:
 1576 021c 6672616D 		.ascii	"fram_read_statusreg\000"
 1576      5F726561 
 1576      645F7374 
 1576      61747573 
 1576      72656700 
 1577              	.LASF2:
 1578 0230 73686F72 		.ascii	"short int\000"
 1578      7420696E 
 1578      7400
 1579              	.LASF13:
 1580 023a 75696E74 		.ascii	"uint16_t\000"
 1580      31365F74 
 1580      00
 1581              	.LASF15:
 1582 0243 73746174 		.ascii	"statusreg_s\000"
 1582      75737265 
 1582      675F7300 
 1583              	.LASF14:
 1584 024f 75696E74 		.ascii	"uint32_t\000"
 1584      33325F74 
 1584      00
ARM GAS  C:\Users\diego\AppData\Local\Temp\ccGfyfKg.s 			page 35


 1585              	.LASF6:
 1586 0258 6C6F6E67 		.ascii	"long int\000"
 1586      20696E74 
 1586      00
 1587              	.LASF20:
 1588 0261 6C6F6E67 		.ascii	"long double\000"
 1588      20646F75 
 1588      626C6500 
 1589              	.LASF0:
 1590 026d 7369676E 		.ascii	"signed char\000"
 1590      65642063 
 1590      68617200 
 1591              	.LASF35:
 1592 0279 6D393530 		.ascii	"m95020.c\000"
 1592      32302E63 
 1592      00
 1593              		.ident	"GCC: (GNU Tools for ARM Embedded Processors) 5.4.1 20160609 (release) [ARM/embedded-5-bran
